%!PS-Adobe-3.0 EPSF-3.0
%%Creator: cairo 1.10.2 (http://cairographics.org)
%%CreationDate: Mon Apr 15 11:58:30 2013
%%Pages: 1
%%BoundingBox: 0 -1 424 136
%%DocumentData: Clean7Bit
%%LanguageLevel: 2
%%EndComments
%%BeginProlog
/cairo_eps_state save def
/dict_count countdictstack def
/op_count count 1 sub def
userdict begin
/q { gsave } bind def
/Q { grestore } bind def
/cm { 6 array astore concat } bind def
/w { setlinewidth } bind def
/J { setlinecap } bind def
/j { setlinejoin } bind def
/M { setmiterlimit } bind def
/d { setdash } bind def
/m { moveto } bind def
/l { lineto } bind def
/c { curveto } bind def
/h { closepath } bind def
/re { exch dup neg 3 1 roll 5 3 roll moveto 0 rlineto
      0 exch rlineto 0 rlineto closepath } bind def
/S { stroke } bind def
/f { fill } bind def
/f* { eofill } bind def
/n { newpath } bind def
/W { clip } bind def
/W* { eoclip } bind def
/BT { } bind def
/ET { } bind def
/pdfmark where { pop globaldict /?pdfmark /exec load put }
    { globaldict begin /?pdfmark /pop load def /pdfmark
    /cleartomark load def end } ifelse
/BDC { mark 3 1 roll /BDC pdfmark } bind def
/EMC { mark /EMC pdfmark } bind def
/cairo_store_point { /cairo_point_y exch def /cairo_point_x exch def } def
/Tj { show currentpoint cairo_store_point } bind def
/TJ {
  {
    dup
    type /stringtype eq
    { show } { -0.001 mul 0 cairo_font_matrix dtransform rmoveto } ifelse
  } forall
  currentpoint cairo_store_point
} bind def
/cairo_selectfont { cairo_font_matrix aload pop pop pop 0 0 6 array astore
    cairo_font exch selectfont cairo_point_x cairo_point_y moveto } bind def
/Tf { pop /cairo_font exch def /cairo_font_matrix where
      { pop cairo_selectfont } if } bind def
/Td { matrix translate cairo_font_matrix matrix concatmatrix dup
      /cairo_font_matrix exch def dup 4 get exch 5 get cairo_store_point
      /cairo_font where { pop cairo_selectfont } if } bind def
/Tm { 2 copy 8 2 roll 6 array astore /cairo_font_matrix exch def
      cairo_store_point /cairo_font where { pop cairo_selectfont } if } bind def
/g { setgray } bind def
/rg { setrgbcolor } bind def
/d1 { setcachedevice } bind def
%%EndProlog
%%Page: 1 1
%%BeginPageSetup
%%PageBoundingBox: 0 -1 424 136
%%EndPageSetup
q 0 -1 424 137 rectclip q
0 135.219 424 -136 re W n
0.866667 0.894118 1 rg
0.754 121.387 15.078 -15.078 re f
0 g
1.50779 w
0 J
0 j
[] 0.0 d
4 M 0.754 121.387 15.078 -15.078 re S
0.866667 0.894118 1 rg
15.832 121.387 15.078 -15.078 re f
0 g
15.832 121.387 15.078 -15.078 re S
0.866667 0.894118 1 rg
30.91 121.387 15.078 -15.078 re f
0 g
30.91 121.387 15.078 -15.078 re S
0.866667 0.894118 1 rg
45.988 121.387 15.078 -15.078 re f
0 g
45.988 121.387 15.078 -15.078 re S
0.866667 0.894118 1 rg
61.066 121.387 15.078 -15.078 re f
0 g
61.066 121.387 15.078 -15.078 re S
0.866667 0.894118 1 rg
76.145 121.387 15.078 -15.078 re f
0 g
76.145 121.387 15.078 -15.078 re S
0.866667 0.894118 1 rg
91.223 121.387 15.078 -15.078 re f
0 g
91.223 121.387 15.078 -15.078 re S
0.866667 0.894118 1 rg
106.301 121.387 15.078 -15.078 re f
0 g
106.301 121.387 15.078 -15.078 re S
0.866667 0.894118 1 rg
0.754 106.309 15.078 -15.078 re f
0 g
0.754 106.309 15.078 -15.078 re S
0.866667 0.894118 1 rg
15.832 106.309 15.078 -15.078 re f
0 g
15.832 106.309 15.078 -15.078 re S
0.866667 0.894118 1 rg
30.91 106.309 15.078 -15.078 re f
0 g
30.91 106.309 15.078 -15.078 re S
0.866667 0.894118 1 rg
45.988 106.309 15.078 -15.078 re f
0 g
45.988 106.309 15.078 -15.078 re S
0.866667 0.894118 1 rg
61.066 106.309 15.078 -15.078 re f
0 g
61.066 106.309 15.078 -15.078 re S
0.866667 0.894118 1 rg
76.145 106.309 15.078 -15.078 re f
0 g
76.145 106.309 15.078 -15.078 re S
0.866667 0.894118 1 rg
91.223 106.309 15.078 -15.078 re f
0 g
91.223 106.309 15.078 -15.078 re S
0.866667 0.894118 1 rg
106.301 106.309 15.078 -15.078 re f
0 g
106.301 106.309 15.078 -15.078 re S
0.647059 0.164706 0.164706 rg
0.754 91.231 15.078 -15.078 re f
0 g
0.754 91.231 15.078 -15.078 re S
0.647059 0.164706 0.164706 rg
15.832 91.231 15.078 -15.078 re f
0 g
15.832 91.231 15.078 -15.078 re S
0.647059 0.164706 0.164706 rg
30.91 91.231 15.078 -15.078 re f
0 g
30.91 91.231 15.078 -15.078 re S
0.647059 0.164706 0.164706 rg
45.988 91.231 15.078 -15.078 re f
0 g
45.988 91.231 15.078 -15.078 re S
0.647059 0.164706 0.164706 rg
61.066 91.231 15.078 -15.078 re f
0 g
61.066 91.231 15.078 -15.078 re S
0.647059 0.164706 0.164706 rg
76.145 91.231 15.078 -15.078 re f
0 g
76.145 91.231 15.078 -15.078 re S
0.647059 0.164706 0.164706 rg
91.223 91.231 15.078 -15.078 re f
0 g
91.223 91.231 15.078 -15.078 re S
0.647059 0.164706 0.164706 rg
106.301 91.231 15.078 -15.078 re f
0 g
106.301 91.231 15.078 -15.078 re S
0.647059 0.164706 0.164706 rg
0.754 76.153 15.078 -15.078 re f
0 g
0.754 76.153 15.078 -15.078 re S
0.647059 0.164706 0.164706 rg
15.832 76.153 15.078 -15.078 re f
0 g
15.832 76.153 15.078 -15.078 re S
0.647059 0.164706 0.164706 rg
30.91 76.153 15.078 -15.078 re f
0 g
30.91 76.153 15.078 -15.078 re S
0.647059 0.164706 0.164706 rg
45.988 76.153 15.078 -15.078 re f
0 g
45.988 76.153 15.078 -15.078 re S
0.647059 0.164706 0.164706 rg
61.066 76.153 15.078 -15.078 re f
0 g
61.066 76.153 15.078 -15.078 re S
0.647059 0.164706 0.164706 rg
76.145 76.153 15.078 -15.078 re f
0 g
76.145 76.153 15.078 -15.078 re S
0.647059 0.164706 0.164706 rg
91.223 76.153 15.078 -15.078 re f
0 g
91.223 76.153 15.078 -15.078 re S
0.647059 0.164706 0.164706 rg
106.301 76.153 15.078 -15.078 re f
0 g
106.301 76.153 15.078 -15.078 re S
0 0.270588 0.0156863 rg
0.754 61.074 15.078 -15.078 re f
0 g
0.754 61.074 15.078 -15.078 re S
0 0.270588 0.0156863 rg
15.832 61.074 15.078 -15.078 re f
0 g
15.832 61.074 15.078 -15.078 re S
0 0.270588 0.0156863 rg
30.91 61.074 15.078 -15.078 re f
0 g
30.91 61.074 15.078 -15.078 re S
0 0.270588 0.0156863 rg
45.988 61.074 15.078 -15.078 re f
0 g
45.988 61.074 15.078 -15.078 re S
0 0.270588 0.0156863 rg
61.066 61.074 15.078 -15.078 re f
0 g
61.066 61.074 15.078 -15.078 re S
0 0.270588 0.0156863 rg
76.145 61.074 15.078 -15.078 re f
0 g
76.145 61.074 15.078 -15.078 re S
0 0.270588 0.0156863 rg
91.223 61.074 15.078 -15.078 re f
0 g
91.223 61.074 15.078 -15.078 re S
0 0.270588 0.0156863 rg
106.301 61.074 15.078 -15.078 re f
0 g
106.301 61.074 15.078 -15.078 re S
0 0.270588 0.0156863 rg
0.754 45.996 15.078 -15.078 re f
0 g
0.754 45.996 15.078 -15.078 re S
0 0.270588 0.0156863 rg
15.832 45.996 15.078 -15.078 re f
0 g
15.832 45.996 15.078 -15.078 re S
0 0.270588 0.0156863 rg
30.91 45.996 15.078 -15.078 re f
0 g
30.91 45.996 15.078 -15.078 re S
0 0.270588 0.0156863 rg
45.988 45.996 15.078 -15.078 re f
0 g
45.988 45.996 15.078 -15.078 re S
0 0.270588 0.0156863 rg
61.066 45.996 15.078 -15.078 re f
0 g
61.066 45.996 15.078 -15.078 re S
0 0.270588 0.0156863 rg
76.145 45.996 15.078 -15.078 re f
0 g
76.145 45.996 15.078 -15.078 re S
0 0.270588 0.0156863 rg
91.223 45.996 15.078 -15.078 re f
0 g
91.223 45.996 15.078 -15.078 re S
0 0.270588 0.0156863 rg
106.301 45.996 15.078 -15.078 re f
0 g
106.301 45.996 15.078 -15.078 re S
0.498039 g
0.754 30.918 15.078 -15.078 re f
0 g
0.754 30.918 15.078 -15.078 re S
0.498039 g
15.832 30.918 15.078 -15.078 re f
0 g
15.832 30.918 15.078 -15.078 re S
0.498039 g
30.91 30.918 15.078 -15.078 re f
0 g
30.91 30.918 15.078 -15.078 re S
0.498039 g
45.988 30.918 15.078 -15.078 re f
0 g
45.988 30.918 15.078 -15.078 re S
0.498039 g
61.066 30.918 15.078 -15.078 re f
0 g
61.066 30.918 15.078 -15.078 re S
0.498039 g
76.145 30.918 15.078 -15.078 re f
0 g
76.145 30.918 15.078 -15.078 re S
0.498039 g
91.223 30.918 15.078 -15.078 re f
0 g
91.223 30.918 15.078 -15.078 re S
0.498039 g
106.301 30.918 15.078 -15.078 re f
0 g
106.301 30.918 15.078 -15.078 re S
0.498039 g
0.754 15.84 15.078 -15.078 re f
0 g
0.754 15.84 15.078 -15.078 re S
0.498039 g
15.832 15.84 15.078 -15.078 re f
0 g
15.832 15.84 15.078 -15.078 re S
0.498039 g
30.91 15.84 15.078 -15.078 re f
0 g
30.91 15.84 15.078 -15.078 re S
0.498039 g
45.988 15.84 15.078 -15.078 re f
0 g
45.988 15.84 15.078 -15.078 re S
0.498039 g
61.066 15.84 15.078 -15.078 re f
0 g
61.066 15.84 15.078 -15.078 re S
0.498039 g
76.145 15.84 15.078 -15.078 re f
0 g
76.145 15.84 15.078 -15.078 re S
0.498039 g
91.223 15.84 15.078 -15.078 re f
0 g
91.223 15.84 15.078 -15.078 re S
0.498039 g
106.301 15.84 15.078 -15.078 re f
0 g
106.301 15.84 15.078 -15.078 re S
0.866667 0.894118 1 rg
151.531 121.387 15.078 -15.078 re f
0 g
151.531 121.387 15.078 -15.078 re S
0.866667 0.894118 1 rg
166.609 121.387 15.078 -15.078 re f
0 g
166.609 121.387 15.078 -15.078 re S
0.647059 0.164706 0.164706 rg
181.688 121.387 15.078 -15.078 re f
0 g
181.688 121.387 15.078 -15.078 re S
0.647059 0.164706 0.164706 rg
196.766 121.387 15.078 -15.078 re f
0 g
196.766 121.387 15.078 -15.078 re S
0 0.270588 0.0156863 rg
211.844 121.387 15.078 -15.078 re f
0 g
211.844 121.387 15.078 -15.078 re S
0 0.270588 0.0156863 rg
226.922 121.387 15.078 -15.078 re f
0 g
226.922 121.387 15.078 -15.078 re S
0.635294 g
242 121.387 15.078 -15.078 re f
0 g
242 121.387 15.078 -15.078 re S
0.635294 g
257.078 121.387 15.078 -15.078 re f
0 g
257.078 121.387 15.078 -15.078 re S
0.866667 0.894118 1 rg
151.531 106.309 15.078 -15.078 re f
0 g
151.531 106.309 15.078 -15.078 re S
0.866667 0.894118 1 rg
166.609 106.309 15.078 -15.078 re f
0 g
166.609 106.309 15.078 -15.078 re S
0.647059 0.164706 0.164706 rg
181.688 106.309 15.078 -15.078 re f
0 g
181.688 106.309 15.078 -15.078 re S
0.647059 0.164706 0.164706 rg
196.766 106.309 15.078 -15.078 re f
0 g
196.766 106.309 15.078 -15.078 re S
0 0.270588 0.0156863 rg
211.844 106.309 15.078 -15.078 re f
0 g
211.844 106.309 15.078 -15.078 re S
0 0.270588 0.0156863 rg
226.922 106.309 15.078 -15.078 re f
0 g
226.922 106.309 15.078 -15.078 re S
0.635294 g
242 106.309 15.078 -15.078 re f
0 g
242 106.309 15.078 -15.078 re S
0.635294 g
257.078 106.309 15.078 -15.078 re f
0 g
257.078 106.309 15.078 -15.078 re S
0.866667 0.894118 1 rg
151.531 91.231 15.078 -15.078 re f
0 g
151.531 91.231 15.078 -15.078 re S
0.866667 0.894118 1 rg
166.609 91.231 15.078 -15.078 re f
0 g
166.609 91.231 15.078 -15.078 re S
0.647059 0.164706 0.164706 rg
181.688 91.231 15.078 -15.078 re f
0 g
181.688 91.231 15.078 -15.078 re S
0.647059 0.164706 0.164706 rg
196.766 91.231 15.078 -15.078 re f
0 g
196.766 91.231 15.078 -15.078 re S
0 0.270588 0.0156863 rg
211.844 91.231 15.078 -15.078 re f
0 g
211.844 91.231 15.078 -15.078 re S
0 0.270588 0.0156863 rg
226.922 91.231 15.078 -15.078 re f
0 g
226.922 91.231 15.078 -15.078 re S
0.635294 g
242 91.231 15.078 -15.078 re f
0 g
242 91.231 15.078 -15.078 re S
0.635294 g
257.078 91.231 15.078 -15.078 re f
0 g
257.078 91.231 15.078 -15.078 re S
0.866667 0.894118 1 rg
151.531 76.153 15.078 -15.078 re f
0 g
151.531 76.153 15.078 -15.078 re S
0.866667 0.894118 1 rg
166.609 76.153 15.078 -15.078 re f
0 g
166.609 76.153 15.078 -15.078 re S
0.647059 0.164706 0.164706 rg
181.688 76.153 15.078 -15.078 re f
0 g
181.688 76.153 15.078 -15.078 re S
0.647059 0.164706 0.164706 rg
196.766 76.153 15.078 -15.078 re f
0 g
196.766 76.153 15.078 -15.078 re S
0 0.270588 0.0156863 rg
211.844 76.153 15.078 -15.078 re f
0 g
211.844 76.153 15.078 -15.078 re S
0 0.270588 0.0156863 rg
226.922 76.153 15.078 -15.078 re f
0 g
226.922 76.153 15.078 -15.078 re S
0.635294 g
242 76.153 15.078 -15.078 re f
0 g
242 76.153 15.078 -15.078 re S
0.635294 g
257.078 76.153 15.078 -15.078 re f
0 g
257.078 76.153 15.078 -15.078 re S
0.866667 0.894118 1 rg
151.531 61.074 15.078 -15.078 re f
0 g
151.531 61.074 15.078 -15.078 re S
0.866667 0.894118 1 rg
166.609 61.074 15.078 -15.078 re f
0 g
166.609 61.074 15.078 -15.078 re S
0.647059 0.164706 0.164706 rg
181.688 61.074 15.078 -15.078 re f
0 g
181.688 61.074 15.078 -15.078 re S
0.647059 0.164706 0.164706 rg
196.766 61.074 15.078 -15.078 re f
0 g
196.766 61.074 15.078 -15.078 re S
0 0.270588 0.0156863 rg
211.844 61.074 15.078 -15.078 re f
0 g
211.844 61.074 15.078 -15.078 re S
0 0.270588 0.0156863 rg
226.922 61.074 15.078 -15.078 re f
0 g
226.922 61.074 15.078 -15.078 re S
0.635294 g
242 61.074 15.078 -15.078 re f
0 g
242 61.074 15.078 -15.078 re S
0.635294 g
257.078 61.074 15.078 -15.078 re f
0 g
257.078 61.074 15.078 -15.078 re S
0.866667 0.894118 1 rg
151.531 45.996 15.078 -15.078 re f
0 g
151.531 45.996 15.078 -15.078 re S
0.866667 0.894118 1 rg
166.609 45.996 15.078 -15.078 re f
0 g
166.609 45.996 15.078 -15.078 re S
0.647059 0.164706 0.164706 rg
181.688 45.996 15.078 -15.078 re f
0 g
181.688 45.996 15.078 -15.078 re S
0.647059 0.164706 0.164706 rg
196.766 45.996 15.078 -15.078 re f
0 g
196.766 45.996 15.078 -15.078 re S
0 0.270588 0.0156863 rg
211.844 45.996 15.078 -15.078 re f
0 g
211.844 45.996 15.078 -15.078 re S
0 0.270588 0.0156863 rg
226.922 45.996 15.078 -15.078 re f
0 g
226.922 45.996 15.078 -15.078 re S
0.635294 g
242 45.996 15.078 -15.078 re f
0 g
242 45.996 15.078 -15.078 re S
0.635294 g
257.078 45.996 15.078 -15.078 re f
0 g
257.078 45.996 15.078 -15.078 re S
0.866667 0.894118 1 rg
151.531 30.918 15.078 -15.078 re f
0 g
151.531 30.918 15.078 -15.078 re S
0.866667 0.894118 1 rg
166.609 30.918 15.078 -15.078 re f
0 g
166.609 30.918 15.078 -15.078 re S
0.647059 0.164706 0.164706 rg
181.688 30.918 15.078 -15.078 re f
0 g
181.688 30.918 15.078 -15.078 re S
0.647059 0.164706 0.164706 rg
196.766 30.918 15.078 -15.078 re f
0 g
196.766 30.918 15.078 -15.078 re S
0 0.270588 0.0156863 rg
211.844 30.918 15.078 -15.078 re f
0 g
211.844 30.918 15.078 -15.078 re S
0 0.270588 0.0156863 rg
226.922 30.918 15.078 -15.078 re f
0 g
226.922 30.918 15.078 -15.078 re S
0.635294 g
242 30.918 15.078 -15.078 re f
0 g
242 30.918 15.078 -15.078 re S
0.635294 g
257.078 30.918 15.078 -15.078 re f
0 g
257.078 30.918 15.078 -15.078 re S
0.866667 0.894118 1 rg
151.531 15.84 15.078 -15.078 re f
0 g
151.531 15.84 15.078 -15.078 re S
0.866667 0.894118 1 rg
166.609 15.84 15.078 -15.078 re f
0 g
166.609 15.84 15.078 -15.078 re S
0.647059 0.164706 0.164706 rg
181.688 15.84 15.078 -15.078 re f
0 g
181.688 15.84 15.078 -15.078 re S
0.647059 0.164706 0.164706 rg
196.766 15.84 15.078 -15.078 re f
0 g
196.766 15.84 15.078 -15.078 re S
0 0.270588 0.0156863 rg
211.844 15.84 15.078 -15.078 re f
0 g
211.844 15.84 15.078 -15.078 re S
0 0.270588 0.0156863 rg
226.922 15.84 15.078 -15.078 re f
0 g
226.922 15.84 15.078 -15.078 re S
0.635294 g
242 15.84 15.078 -15.078 re f
0 g
242 15.84 15.078 -15.078 re S
0.635294 g
257.078 15.84 15.078 -15.078 re f
0 g
257.078 15.84 15.078 -15.078 re S
0.866667 0.894118 1 rg
302.312 121.387 15.078 -15.078 re f
0 g
302.312 121.387 15.078 -15.078 re S
0.866667 0.894118 1 rg
317.391 121.387 15.078 -15.078 re f
0 g
317.391 121.387 15.078 -15.078 re S
0.647059 0.164706 0.164706 rg
332.469 121.387 15.078 -15.078 re f
0 g
332.469 121.387 15.078 -15.078 re S
0.647059 0.164706 0.164706 rg
347.547 121.387 15.078 -15.078 re f
0 g
347.547 121.387 15.078 -15.078 re S
0.866667 0.894118 1 rg
362.625 121.387 15.078 -15.078 re f
0 g
362.625 121.387 15.078 -15.078 re S
0.866667 0.894118 1 rg
377.703 121.387 15.078 -15.078 re f
0 g
377.703 121.387 15.078 -15.078 re S
0.647059 0.164706 0.164706 rg
392.781 121.387 15.074 -15.078 re f
0 g
392.781 121.387 15.074 -15.078 re S
0.647059 0.164706 0.164706 rg
407.855 121.387 15.078 -15.078 re f
0 g
407.855 121.387 15.078 -15.078 re S
0.866667 0.894118 1 rg
302.312 106.309 15.078 -15.078 re f
0 g
302.312 106.309 15.078 -15.078 re S
0.866667 0.894118 1 rg
317.391 106.309 15.078 -15.078 re f
0 g
317.391 106.309 15.078 -15.078 re S
0.647059 0.164706 0.164706 rg
332.469 106.309 15.078 -15.078 re f
0 g
332.469 106.309 15.078 -15.078 re S
0.647059 0.164706 0.164706 rg
347.547 106.309 15.078 -15.078 re f
0 g
347.547 106.309 15.078 -15.078 re S
0.866667 0.894118 1 rg
362.625 106.309 15.078 -15.078 re f
0 g
362.625 106.309 15.078 -15.078 re S
0.866667 0.894118 1 rg
377.703 106.309 15.078 -15.078 re f
0 g
377.703 106.309 15.078 -15.078 re S
0.647059 0.164706 0.164706 rg
392.781 106.309 15.074 -15.078 re f
0 g
392.781 106.309 15.074 -15.078 re S
0.647059 0.164706 0.164706 rg
407.855 106.309 15.078 -15.078 re f
0 g
407.855 106.309 15.078 -15.078 re S
0 0.270588 0.0156863 rg
302.312 91.231 15.078 -15.078 re f
0 g
302.312 91.231 15.078 -15.078 re S
0 0.270588 0.0156863 rg
317.391 91.231 15.078 -15.078 re f
0 g
317.391 91.231 15.078 -15.078 re S
0.635294 g
332.469 91.231 15.078 -15.078 re f
0 g
332.469 91.231 15.078 -15.078 re S
0.635294 g
347.547 91.231 15.078 -15.078 re f
0 g
347.547 91.231 15.078 -15.078 re S
0 0.270588 0.0156863 rg
362.625 91.231 15.078 -15.078 re f
0 g
362.625 91.231 15.078 -15.078 re S
0 0.270588 0.0156863 rg
377.703 91.231 15.078 -15.078 re f
0 g
377.703 91.231 15.078 -15.078 re S
0.635294 g
392.781 91.231 15.074 -15.078 re f
0 g
392.781 91.231 15.074 -15.078 re S
0.635294 g
407.855 91.231 15.078 -15.078 re f
0 g
407.855 91.231 15.078 -15.078 re S
0 0.270588 0.0156863 rg
302.312 76.153 15.078 -15.078 re f
0 g
302.312 76.153 15.078 -15.078 re S
0 0.270588 0.0156863 rg
317.391 76.153 15.078 -15.078 re f
0 g
317.391 76.153 15.078 -15.078 re S
0.635294 g
332.469 76.153 15.078 -15.078 re f
0 g
332.469 76.153 15.078 -15.078 re S
0.635294 g
347.547 76.153 15.078 -15.078 re f
0 g
347.547 76.153 15.078 -15.078 re S
0 0.270588 0.0156863 rg
362.625 76.153 15.078 -15.078 re f
0 g
362.625 76.153 15.078 -15.078 re S
0 0.270588 0.0156863 rg
377.703 76.153 15.078 -15.078 re f
0 g
377.703 76.153 15.078 -15.078 re S
0.635294 g
392.781 76.153 15.074 -15.078 re f
0 g
392.781 76.153 15.074 -15.078 re S
0.635294 g
407.855 76.153 15.078 -15.078 re f
0 g
407.855 76.153 15.078 -15.078 re S
0.866667 0.894118 1 rg
302.312 61.074 15.078 -15.078 re f
0 g
302.312 61.074 15.078 -15.078 re S
0.866667 0.894118 1 rg
317.391 61.074 15.078 -15.078 re f
0 g
317.391 61.074 15.078 -15.078 re S
0.647059 0.164706 0.164706 rg
332.469 61.074 15.078 -15.078 re f
0 g
332.469 61.074 15.078 -15.078 re S
0.647059 0.164706 0.164706 rg
347.547 61.074 15.078 -15.078 re f
0 g
347.547 61.074 15.078 -15.078 re S
0.866667 0.894118 1 rg
362.625 61.074 15.078 -15.078 re f
0 g
362.625 61.074 15.078 -15.078 re S
0.866667 0.894118 1 rg
377.703 61.074 15.078 -15.078 re f
0 g
377.703 61.074 15.078 -15.078 re S
0.647059 0.164706 0.164706 rg
392.781 61.074 15.074 -15.078 re f
0 g
392.781 61.074 15.074 -15.078 re S
0.647059 0.164706 0.164706 rg
407.855 61.074 15.078 -15.078 re f
0 g
407.855 61.074 15.078 -15.078 re S
0.866667 0.894118 1 rg
302.312 45.996 15.078 -15.078 re f
0 g
302.312 45.996 15.078 -15.078 re S
0.866667 0.894118 1 rg
317.391 45.996 15.078 -15.078 re f
0 g
317.391 45.996 15.078 -15.078 re S
0.647059 0.164706 0.164706 rg
332.469 45.996 15.078 -15.078 re f
0 g
332.469 45.996 15.078 -15.078 re S
0.647059 0.164706 0.164706 rg
347.547 45.996 15.078 -15.078 re f
0 g
347.547 45.996 15.078 -15.078 re S
0.866667 0.894118 1 rg
362.625 45.996 15.078 -15.078 re f
0 g
362.625 45.996 15.078 -15.078 re S
0.866667 0.894118 1 rg
377.703 45.996 15.078 -15.078 re f
0 g
377.703 45.996 15.078 -15.078 re S
0.647059 0.164706 0.164706 rg
392.781 45.996 15.074 -15.078 re f
0 g
392.781 45.996 15.074 -15.078 re S
0.647059 0.164706 0.164706 rg
407.855 45.996 15.078 -15.078 re f
0 g
407.855 45.996 15.078 -15.078 re S
0 0.270588 0.0156863 rg
302.312 30.918 15.078 -15.078 re f
0 g
302.312 30.918 15.078 -15.078 re S
0 0.270588 0.0156863 rg
317.391 30.918 15.078 -15.078 re f
0 g
317.391 30.918 15.078 -15.078 re S
0.635294 g
332.469 30.918 15.078 -15.078 re f
0 g
332.469 30.918 15.078 -15.078 re S
0.635294 g
347.547 30.918 15.078 -15.078 re f
0 g
347.547 30.918 15.078 -15.078 re S
0 0.270588 0.0156863 rg
362.625 30.918 15.078 -15.078 re f
0 g
362.625 30.918 15.078 -15.078 re S
0 0.270588 0.0156863 rg
377.703 30.918 15.078 -15.078 re f
0 g
377.703 30.918 15.078 -15.078 re S
0.635294 g
392.781 30.918 15.074 -15.078 re f
0 g
392.781 30.918 15.074 -15.078 re S
0.635294 g
407.855 30.918 15.078 -15.078 re f
0 g
407.855 30.918 15.078 -15.078 re S
0 0.270588 0.0156863 rg
302.312 15.84 15.078 -15.078 re f
0 g
302.312 15.84 15.078 -15.078 re S
0 0.270588 0.0156863 rg
317.391 15.84 15.078 -15.078 re f
0 g
317.391 15.84 15.078 -15.078 re S
0.635294 g
332.469 15.84 15.078 -15.078 re f
0 g
332.469 15.84 15.078 -15.078 re S
0.635294 g
347.547 15.84 15.078 -15.078 re f
0 g
347.547 15.84 15.078 -15.078 re S
0 0.270588 0.0156863 rg
362.625 15.84 15.078 -15.078 re f
0 g
362.625 15.84 15.078 -15.078 re S
0 0.270588 0.0156863 rg
377.703 15.84 15.078 -15.078 re f
0 g
377.703 15.84 15.078 -15.078 re S
0.635294 g
392.781 15.84 15.074 -15.078 re f
0 g
392.781 15.84 15.074 -15.078 re S
0.635294 g
407.855 15.84 15.078 -15.078 re f
0 g
407.855 15.84 15.078 -15.078 re S
40.453 133.985 m 44.641 133.985 l 44.641 133.141 l 41.438 133.141 l 
41.438 131 l 44.328 131 l 44.328 130.172 l 41.438 130.172 l 41.438 
126.688 l 40.453 126.688 l h
45.285 132.156 m 46.191 132.156 l 46.191 126.688 l 45.285 126.688 l h
45.285 134.281 m 46.191 134.281 l 46.191 133.141 l 45.285 133.141 l h
47.969 134.281 m 48.875 134.281 l 48.875 126.688 l 47.969 126.688 l h
50.656 134.281 m 51.562 134.281 l 51.562 126.688 l 50.656 126.688 l h
52.887 129.828 m 55.527 129.828 l 55.527 129.031 l 52.887 129.031 l h
57.531 130.172 m 57.531 127.5 l 59.109 127.5 l 59.641 127.5 60.031 
127.61 60.281 127.828 c 60.539 128.047 60.672 128.383 60.672 128.844 c 
60.672 129.289 60.539 129.625 60.281 129.844 c 60.031 130.063 59.641 
130.172 59.109 130.172 c h
57.531 133.172 m 57.531 130.969 l 58.984 130.969 l 59.473 130.969 
59.832 131.055 60.062 131.235 c 60.301 131.422 60.422 131.696 60.422 
132.063 c 60.422 132.438 60.301 132.711 60.062 132.891 c 59.832 133.078 
59.473 133.172 58.984 133.172 c h
56.547 133.985 m 59.062 133.985 l 59.812 133.985 60.391 133.828 60.797 
133.516 c 61.203 133.203 61.406 132.754 61.406 132.172 c 61.406 131.723 
61.301 131.367 61.094 131.11 c 60.883 130.848 60.582 130.688 60.188 
130.625 c 60.664 130.52 61.039 130.301 61.312 129.969 c 61.582 129.633 
61.719 129.223 61.719 128.735 c 61.719 128.078 61.492 127.571 61.047 
127.219 c 60.609 126.864 59.977 126.688 59.156 126.688 c 56.547 126.688 
l h
63.137 134.281 m 64.043 134.281 l 64.043 126.688 l 63.137 126.688 l h
67.945 131.531 m 67.465 131.531 67.086 131.344 66.805 130.969 c 66.523 
130.594 66.383 130.078 66.383 129.422 c 66.383 128.766 66.516 128.25 
66.789 127.875 c 67.07 127.5 67.453 127.313 67.945 127.313 c 68.422 
127.313 68.805 127.5 69.086 127.875 c 69.367 128.25 69.508 128.766 
69.508 129.422 c 69.508 130.067 69.367 130.578 69.086 130.953 c 68.805 
131.336 68.422 131.531 67.945 131.531 c h
67.945 132.281 m 68.727 132.281 69.34 132.024 69.789 131.516 c 70.234 
131.016 70.461 130.317 70.461 129.422 c 70.461 128.524 70.234 127.821 
69.789 127.313 c 69.34 126.801 68.727 126.547 67.945 126.547 c 67.164 
126.547 66.547 126.801 66.102 127.313 c 65.652 127.821 65.43 128.524 
65.43 129.422 c 65.43 130.317 65.652 131.016 66.102 131.516 c 66.547 
132.024 67.164 132.281 67.945 132.281 c h
75.68 131.953 m 75.68 131.11 l 75.43 131.242 75.172 131.348 74.914 
131.422 c 74.664 131.492 74.406 131.531 74.148 131.531 c 73.562 131.531 
73.109 131.344 72.789 130.969 c 72.465 130.602 72.305 130.086 72.305 
129.422 c 72.305 128.754 72.465 128.235 72.789 127.86 c 73.109 127.492 
73.562 127.313 74.148 127.313 c 74.406 127.313 74.664 127.344 74.914 
127.406 c 75.172 127.477 75.43 127.586 75.68 127.735 c 75.68 126.891 l 
75.43 126.774 75.168 126.692 74.898 126.641 c 74.637 126.578 74.355 
126.547 74.055 126.547 c 73.219 126.547 72.559 126.801 72.07 127.313 c 
71.59 127.832 71.352 128.535 71.352 129.422 c 71.352 130.305 71.594 
131.004 72.086 131.516 c 72.574 132.024 73.246 132.281 74.102 132.281 c 
74.383 132.281 74.652 132.254 74.914 132.203 c 75.172 132.149 75.43 
132.067 75.68 131.953 c h
77.043 134.281 m 77.949 134.281 l 77.949 129.797 l 80.637 132.156 l 
81.777 132.156 l 78.871 129.594 l 81.902 126.688 l 80.73 126.688 l 
77.949 129.36 l 77.949 126.688 l 77.043 126.688 l h
77.043 134.281 m f
192.477 130.172 m 192.477 127.5 l 194.055 127.5 l 194.586 127.5 194.977 
127.61 195.227 127.828 c 195.484 128.047 195.617 128.383 195.617 
128.844 c 195.617 129.289 195.484 129.625 195.227 129.844 c 194.977 
130.063 194.586 130.172 194.055 130.172 c h
192.477 133.172 m 192.477 130.969 l 193.93 130.969 l 194.418 130.969 
194.777 131.055 195.008 131.235 c 195.246 131.422 195.367 131.696 
195.367 132.063 c 195.367 132.438 195.246 132.711 195.008 132.891 c 
194.777 133.078 194.418 133.172 193.93 133.172 c h
191.492 133.985 m 194.008 133.985 l 194.758 133.985 195.336 133.828 
195.742 133.516 c 196.148 133.203 196.352 132.754 196.352 132.172 c 
196.352 131.723 196.246 131.367 196.039 131.11 c 195.828 130.848 
195.527 130.688 195.133 130.625 c 195.609 130.52 195.984 130.301 
196.258 129.969 c 196.527 129.633 196.664 129.223 196.664 128.735 c 
196.664 128.078 196.438 127.571 195.992 127.219 c 195.555 126.864 
194.922 126.688 194.102 126.688 c 191.492 126.688 l h
198.082 134.281 m 198.988 134.281 l 198.988 126.688 l 198.082 126.688 l 
h
202.895 131.531 m 202.414 131.531 202.035 131.344 201.754 130.969 c 
201.473 130.594 201.332 130.078 201.332 129.422 c 201.332 128.766 
201.465 128.25 201.738 127.875 c 202.02 127.5 202.402 127.313 202.895 
127.313 c 203.371 127.313 203.754 127.5 204.035 127.875 c 204.316 
128.25 204.457 128.766 204.457 129.422 c 204.457 130.067 204.316 
130.578 204.035 130.953 c 203.754 131.336 203.371 131.531 202.895 
131.531 c h
202.895 132.281 m 203.676 132.281 204.289 132.024 204.738 131.516 c 
205.184 131.016 205.41 130.317 205.41 129.422 c 205.41 128.524 205.184 
127.821 204.738 127.313 c 204.289 126.801 203.676 126.547 202.895 
126.547 c 202.113 126.547 201.496 126.801 201.051 127.313 c 200.602 
127.821 200.379 128.524 200.379 129.422 c 200.379 130.317 200.602 
131.016 201.051 131.516 c 201.496 132.024 202.113 132.281 202.895 
132.281 c h
210.625 131.953 m 210.625 131.11 l 210.375 131.242 210.117 131.348 
209.859 131.422 c 209.609 131.492 209.352 131.531 209.094 131.531 c 
208.508 131.531 208.055 131.344 207.734 130.969 c 207.41 130.602 207.25 
130.086 207.25 129.422 c 207.25 128.754 207.41 128.235 207.734 127.86 c 
208.055 127.492 208.508 127.313 209.094 127.313 c 209.352 127.313 
209.609 127.344 209.859 127.406 c 210.117 127.477 210.375 127.586 
210.625 127.735 c 210.625 126.891 l 210.375 126.774 210.113 126.692 
209.844 126.641 c 209.582 126.578 209.301 126.547 209 126.547 c 208.164 
126.547 207.504 126.801 207.016 127.313 c 206.535 127.832 206.297 
128.535 206.297 129.422 c 206.297 130.305 206.539 131.004 207.031 
131.516 c 207.52 132.024 208.191 132.281 209.047 132.281 c 209.328 
132.281 209.598 132.254 209.859 132.203 c 210.117 132.149 210.375 
132.067 210.625 131.953 c h
211.988 134.281 m 212.895 134.281 l 212.895 129.797 l 215.582 132.156 l 
216.723 132.156 l 213.816 129.594 l 216.848 126.688 l 215.676 126.688 l 
212.895 129.36 l 212.895 126.688 l 211.988 126.688 l h
217.184 129.828 m 219.824 129.828 l 219.824 129.031 l 217.184 129.031 l 
h
221.184 133.985 m 225.371 133.985 l 225.371 133.141 l 222.168 133.141 l 
222.168 131 l 225.059 131 l 225.059 130.172 l 222.168 130.172 l 222.168 
126.688 l 221.184 126.688 l h
226.016 132.156 m 226.922 132.156 l 226.922 126.688 l 226.016 126.688 l 
h
226.016 134.281 m 226.922 134.281 l 226.922 133.141 l 226.016 133.141 l 
h
228.699 134.281 m 229.605 134.281 l 229.605 126.688 l 228.699 126.688 l 
h
231.383 134.281 m 232.289 134.281 l 232.289 126.688 l 231.383 126.688 l 
h
231.383 134.281 m f
335.516 131.11 m 335.516 128.438 l 337.094 128.438 l 337.625 128.438 
338.016 128.547 338.266 128.766 c 338.523 128.985 338.656 129.321 
338.656 129.781 c 338.656 130.227 338.523 130.563 338.266 130.781 c 
338.016 131 337.625 131.11 337.094 131.11 c h
335.516 134.11 m 335.516 131.906 l 336.969 131.906 l 337.457 131.906 
337.816 131.992 338.047 132.172 c 338.285 132.36 338.406 132.633 
338.406 133 c 338.406 133.375 338.285 133.649 338.047 133.828 c 337.816 
134.016 337.457 134.11 336.969 134.11 c h
334.531 134.922 m 337.047 134.922 l 337.797 134.922 338.375 134.766 
338.781 134.453 c 339.188 134.141 339.391 133.692 339.391 133.11 c 
339.391 132.66 339.285 132.305 339.078 132.047 c 338.867 131.785 
338.566 131.625 338.172 131.563 c 338.648 131.457 339.023 131.239 
339.297 130.906 c 339.566 130.571 339.703 130.16 339.703 129.672 c 
339.703 129.016 339.477 128.508 339.031 128.156 c 338.594 127.801 
337.961 127.625 337.141 127.625 c 334.531 127.625 l h
341.121 135.219 m 342.027 135.219 l 342.027 127.625 l 341.121 127.625 l 
h
345.934 132.469 m 345.453 132.469 345.074 132.281 344.793 131.906 c 
344.512 131.531 344.371 131.016 344.371 130.36 c 344.371 129.703 
344.504 129.188 344.777 128.813 c 345.059 128.438 345.441 128.25 
345.934 128.25 c 346.41 128.25 346.793 128.438 347.074 128.813 c 
347.355 129.188 347.496 129.703 347.496 130.36 c 347.496 131.004 
347.355 131.516 347.074 131.891 c 346.793 132.274 346.41 132.469 
345.934 132.469 c h
345.934 133.219 m 346.715 133.219 347.328 132.961 347.777 132.453 c 
348.223 131.953 348.449 131.254 348.449 130.36 c 348.449 129.461 
348.223 128.758 347.777 128.25 c 347.328 127.739 346.715 127.485 
345.934 127.485 c 345.152 127.485 344.535 127.739 344.09 128.25 c 
343.641 128.758 343.418 129.461 343.418 130.36 c 343.418 131.254 
343.641 131.953 344.09 132.453 c 344.535 132.961 345.152 133.219 
345.934 133.219 c h
353.664 132.891 m 353.664 132.047 l 353.414 132.18 353.156 132.285 
352.898 132.36 c 352.648 132.43 352.391 132.469 352.133 132.469 c 
351.547 132.469 351.094 132.281 350.773 131.906 c 350.449 131.539 
350.289 131.024 350.289 130.36 c 350.289 129.692 350.449 129.172 
350.773 128.797 c 351.094 128.43 351.547 128.25 352.133 128.25 c 
352.391 128.25 352.648 128.281 352.898 128.344 c 353.156 128.414 
353.414 128.524 353.664 128.672 c 353.664 127.828 l 353.414 127.711 
353.152 127.629 352.883 127.578 c 352.621 127.516 352.34 127.485 
352.039 127.485 c 351.203 127.485 350.543 127.739 350.055 128.25 c 
349.574 128.77 349.336 129.473 349.336 130.36 c 349.336 131.242 349.578 
131.942 350.07 132.453 c 350.559 132.961 351.23 133.219 352.086 133.219 
c 352.367 133.219 352.637 133.192 352.898 133.141 c 353.156 133.086 
353.414 133.004 353.664 132.891 c h
355.027 135.219 m 355.934 135.219 l 355.934 130.735 l 358.621 133.094 l 
359.762 133.094 l 356.855 130.531 l 359.887 127.625 l 358.715 127.625 l 
355.934 130.297 l 355.934 127.625 l 355.027 127.625 l h
369.258 134.36 m 369.258 133.313 l 368.922 133.625 368.57 133.852 
368.195 134 c 367.82 134.156 367.422 134.235 367.008 134.235 c 366.172 
134.235 365.531 133.977 365.086 133.469 c 364.648 132.957 364.43 
132.223 364.43 131.266 c 364.43 130.305 364.648 129.571 365.086 129.063 
c 365.531 128.551 366.172 128.297 367.008 128.297 c 367.422 128.297 
367.82 128.367 368.195 128.516 c 368.57 128.672 368.922 128.906 369.258 
129.219 c 369.258 128.188 l 368.914 127.946 368.547 127.77 368.164 
127.656 c 367.777 127.543 367.371 127.485 366.945 127.485 c 365.84 
127.485 364.969 127.821 364.336 128.5 c 363.699 129.176 363.383 130.098 
363.383 131.266 c 363.383 132.43 363.699 133.352 364.336 134.031 c 
364.969 134.707 365.84 135.047 366.945 135.047 c 367.383 135.047 
367.793 134.989 368.18 134.875 c 368.562 134.758 368.922 134.586 
369.258 134.36 c h
372.809 127.11 m 372.559 126.465 372.309 126.043 372.059 125.844 c 
371.816 125.649 371.5 125.547 371.105 125.547 c 370.387 125.547 l 
370.387 126.297 l 370.902 126.297 l 371.152 126.297 371.344 126.356 
371.48 126.469 c 371.613 126.586 371.766 126.86 371.934 127.297 c 
372.105 127.719 l 369.887 133.094 l 370.84 133.094 l 372.543 128.813 l 
374.262 133.094 l 375.215 133.094 l h
380.195 132.891 m 380.195 132.047 l 379.945 132.18 379.688 132.285 
379.43 132.36 c 379.18 132.43 378.922 132.469 378.664 132.469 c 378.078 
132.469 377.625 132.281 377.305 131.906 c 376.98 131.539 376.82 131.024 
376.82 130.36 c 376.82 129.692 376.98 129.172 377.305 128.797 c 377.625 
128.43 378.078 128.25 378.664 128.25 c 378.922 128.25 379.18 128.281 
379.43 128.344 c 379.688 128.414 379.945 128.524 380.195 128.672 c 
380.195 127.828 l 379.945 127.711 379.684 127.629 379.414 127.578 c 
379.152 127.516 378.871 127.485 378.57 127.485 c 377.734 127.485 
377.074 127.739 376.586 128.25 c 376.105 128.77 375.867 129.473 375.867 
130.36 c 375.867 131.242 376.109 131.942 376.602 132.453 c 377.09 
132.961 377.762 133.219 378.617 133.219 c 378.898 133.219 379.168 
133.192 379.43 133.141 c 379.688 133.086 379.945 133.004 380.195 
132.891 c h
381.59 135.219 m 382.496 135.219 l 382.496 127.625 l 381.59 127.625 l h
384.277 133.094 m 385.184 133.094 l 385.184 127.625 l 384.277 127.625 l 
h
384.277 135.219 m 385.184 135.219 l 385.184 134.078 l 384.277 134.078 l 
h
390.898 132.891 m 390.898 132.047 l 390.648 132.18 390.391 132.285 
390.133 132.36 c 389.883 132.43 389.625 132.469 389.367 132.469 c 
388.781 132.469 388.328 132.281 388.008 131.906 c 387.684 131.539 
387.523 131.024 387.523 130.36 c 387.523 129.692 387.684 129.172 
388.008 128.797 c 388.328 128.43 388.781 128.25 389.367 128.25 c 
389.625 128.25 389.883 128.281 390.133 128.344 c 390.391 128.414 
390.648 128.524 390.898 128.672 c 390.898 127.828 l 390.648 127.711 
390.387 127.629 390.117 127.578 c 389.855 127.516 389.574 127.485 
389.273 127.485 c 388.438 127.485 387.777 127.739 387.289 128.25 c 
386.809 128.77 386.57 129.473 386.57 130.36 c 386.57 131.242 386.812 
131.942 387.305 132.453 c 387.793 132.961 388.465 133.219 389.32 
133.219 c 389.602 133.219 389.871 133.192 390.133 133.141 c 390.391 
133.086 390.648 133.004 390.898 132.891 c h
390.898 132.891 m f
Q Q
showpage
%%Trailer
count op_count sub {pop} repeat
countdictstack dict_count sub {end} repeat
cairo_eps_state restore
%%EOF
