<?xml version="1.0" encoding="UTF-8"?>
<svg xmlns="http://www.w3.org/2000/svg" xmlns:xlink="http://www.w3.org/1999/xlink" width="411.024pt" height="245.9985pt" viewBox="0 0 411.024 245.9985" version="1.1">
<defs>
<g>
<symbol overflow="visible" id="glyph0-0">
<path style="stroke:none;" d="M 1 -0.671875 L 2.28125 -0.671875 L 2.28125 -5.109375 L 0.875 -4.828125 L 0.875 -5.546875 L 2.28125 -5.828125 L 3.0625 -5.828125 L 3.0625 -0.671875 L 4.359375 -0.671875 L 4.359375 0 L 1 0 Z M 1 -0.671875 "/>
</symbol>
<symbol overflow="visible" id="glyph0-1">
<path style="stroke:none;" d="M 2.546875 -5.3125 C 2.140625 -5.3125 1.832031 -5.109375 1.625 -4.703125 C 1.425781 -4.304688 1.328125 -3.707031 1.328125 -2.90625 C 1.328125 -2.113281 1.425781 -1.515625 1.625 -1.109375 C 1.832031 -0.710938 2.140625 -0.515625 2.546875 -0.515625 C 2.953125 -0.515625 3.253906 -0.710938 3.453125 -1.109375 C 3.660156 -1.515625 3.765625 -2.113281 3.765625 -2.90625 C 3.765625 -3.707031 3.660156 -4.304688 3.453125 -4.703125 C 3.253906 -5.109375 2.953125 -5.3125 2.546875 -5.3125 Z M 2.546875 -5.9375 C 3.203125 -5.9375 3.703125 -5.675781 4.046875 -5.15625 C 4.390625 -4.644531 4.5625 -3.894531 4.5625 -2.90625 C 4.5625 -1.925781 4.390625 -1.175781 4.046875 -0.65625 C 3.703125 -0.144531 3.203125 0.109375 2.546875 0.109375 C 1.890625 0.109375 1.390625 -0.144531 1.046875 -0.65625 C 0.703125 -1.175781 0.53125 -1.925781 0.53125 -2.90625 C 0.53125 -3.894531 0.703125 -4.644531 1.046875 -5.15625 C 1.390625 -5.675781 1.890625 -5.9375 2.546875 -5.9375 Z M 2.546875 -5.9375 "/>
</symbol>
<symbol overflow="visible" id="glyph0-2">
<path style="stroke:none;" d="M 3.15625 -5.296875 C 2.582031 -5.296875 2.125 -5.082031 1.78125 -4.65625 C 1.445312 -4.226562 1.28125 -3.644531 1.28125 -2.90625 C 1.28125 -2.175781 1.445312 -1.597656 1.78125 -1.171875 C 2.125 -0.742188 2.582031 -0.53125 3.15625 -0.53125 C 3.726562 -0.53125 4.179688 -0.742188 4.515625 -1.171875 C 4.847656 -1.597656 5.015625 -2.175781 5.015625 -2.90625 C 5.015625 -3.644531 4.847656 -4.226562 4.515625 -4.65625 C 4.179688 -5.082031 3.726562 -5.296875 3.15625 -5.296875 Z M 3.15625 -5.9375 C 3.96875 -5.9375 4.617188 -5.660156 5.109375 -5.109375 C 5.597656 -4.566406 5.84375 -3.832031 5.84375 -2.90625 C 5.84375 -1.988281 5.597656 -1.253906 5.109375 -0.703125 C 4.617188 -0.160156 3.96875 0.109375 3.15625 0.109375 C 2.332031 0.109375 1.675781 -0.160156 1.1875 -0.703125 C 0.695312 -1.253906 0.453125 -1.988281 0.453125 -2.90625 C 0.453125 -3.832031 0.695312 -4.566406 1.1875 -5.109375 C 1.675781 -5.660156 2.332031 -5.9375 3.15625 -5.9375 Z M 3.15625 -5.9375 "/>
</symbol>
<symbol overflow="visible" id="glyph0-3">
<path style="stroke:none;" d="M 3.296875 -3.703125 C 3.210938 -3.753906 3.125 -3.789062 3.03125 -3.8125 C 2.9375 -3.832031 2.832031 -3.84375 2.71875 -3.84375 C 2.3125 -3.84375 2 -3.707031 1.78125 -3.4375 C 1.5625 -3.175781 1.453125 -2.800781 1.453125 -2.3125 L 1.453125 0 L 0.734375 0 L 0.734375 -4.375 L 1.453125 -4.375 L 1.453125 -3.703125 C 1.597656 -3.960938 1.789062 -4.15625 2.03125 -4.28125 C 2.28125 -4.414062 2.578125 -4.484375 2.921875 -4.484375 C 2.972656 -4.484375 3.023438 -4.476562 3.078125 -4.46875 C 3.140625 -4.46875 3.207031 -4.457031 3.28125 -4.4375 Z M 3.296875 -3.703125 "/>
</symbol>
<symbol overflow="visible" id="glyph0-4">
<path style="stroke:none;" d="M 0.75 -4.375 L 1.46875 -4.375 L 1.46875 0 L 0.75 0 Z M 0.75 -6.078125 L 1.46875 -6.078125 L 1.46875 -5.171875 L 0.75 -5.171875 Z M 0.75 -6.078125 "/>
</symbol>
<symbol overflow="visible" id="glyph0-5">
<path style="stroke:none;" d="M 3.640625 -2.234375 C 3.640625 -2.753906 3.53125 -3.15625 3.3125 -3.4375 C 3.09375 -3.726562 2.789062 -3.875 2.40625 -3.875 C 2.019531 -3.875 1.71875 -3.726562 1.5 -3.4375 C 1.289062 -3.15625 1.1875 -2.753906 1.1875 -2.234375 C 1.1875 -1.722656 1.289062 -1.320312 1.5 -1.03125 C 1.71875 -0.75 2.019531 -0.609375 2.40625 -0.609375 C 2.789062 -0.609375 3.09375 -0.75 3.3125 -1.03125 C 3.53125 -1.320312 3.640625 -1.722656 3.640625 -2.234375 Z M 4.359375 -0.546875 C 4.359375 0.203125 4.191406 0.757812 3.859375 1.125 C 3.523438 1.488281 3.019531 1.671875 2.34375 1.671875 C 2.082031 1.671875 1.835938 1.648438 1.609375 1.609375 C 1.390625 1.566406 1.175781 1.507812 0.96875 1.4375 L 0.96875 0.734375 C 1.175781 0.847656 1.382812 0.929688 1.59375 0.984375 C 1.800781 1.046875 2.007812 1.078125 2.21875 1.078125 C 2.695312 1.078125 3.050781 0.953125 3.28125 0.703125 C 3.519531 0.453125 3.640625 0.078125 3.640625 -0.421875 L 3.640625 -0.765625 C 3.484375 -0.515625 3.289062 -0.320312 3.0625 -0.1875 C 2.832031 -0.0625 2.554688 0 2.234375 0 C 1.691406 0 1.253906 -0.203125 0.921875 -0.609375 C 0.597656 -1.023438 0.4375 -1.566406 0.4375 -2.234375 C 0.4375 -2.910156 0.597656 -3.453125 0.921875 -3.859375 C 1.253906 -4.273438 1.691406 -4.484375 2.234375 -4.484375 C 2.554688 -4.484375 2.832031 -4.414062 3.0625 -4.28125 C 3.289062 -4.15625 3.484375 -3.96875 3.640625 -3.71875 L 3.640625 -4.375 L 4.359375 -4.375 Z M 4.359375 -0.546875 "/>
</symbol>
<symbol overflow="visible" id="glyph0-6">
<path style="stroke:none;" d="M 4.390625 -2.640625 L 4.390625 0 L 3.671875 0 L 3.671875 -2.625 C 3.671875 -3.03125 3.585938 -3.335938 3.421875 -3.546875 C 3.265625 -3.753906 3.023438 -3.859375 2.703125 -3.859375 C 2.316406 -3.859375 2.007812 -3.734375 1.78125 -3.484375 C 1.5625 -3.234375 1.453125 -2.894531 1.453125 -2.46875 L 1.453125 0 L 0.734375 0 L 0.734375 -4.375 L 1.453125 -4.375 L 1.453125 -3.703125 C 1.617188 -3.960938 1.816406 -4.15625 2.046875 -4.28125 C 2.285156 -4.414062 2.554688 -4.484375 2.859375 -4.484375 C 3.367188 -4.484375 3.75 -4.328125 4 -4.015625 C 4.257812 -3.703125 4.390625 -3.242188 4.390625 -2.640625 Z M 4.390625 -2.640625 "/>
</symbol>
<symbol overflow="visible" id="glyph0-7">
<path style="stroke:none;" d="M 2.75 -2.203125 C 2.164062 -2.203125 1.757812 -2.132812 1.53125 -2 C 1.3125 -1.863281 1.203125 -1.640625 1.203125 -1.328125 C 1.203125 -1.066406 1.285156 -0.859375 1.453125 -0.703125 C 1.617188 -0.554688 1.847656 -0.484375 2.140625 -0.484375 C 2.535156 -0.484375 2.851562 -0.625 3.09375 -0.90625 C 3.332031 -1.195312 3.453125 -1.578125 3.453125 -2.046875 L 3.453125 -2.203125 Z M 4.171875 -2.5 L 4.171875 0 L 3.453125 0 L 3.453125 -0.671875 C 3.296875 -0.398438 3.09375 -0.203125 2.84375 -0.078125 C 2.601562 0.046875 2.304688 0.109375 1.953125 0.109375 C 1.503906 0.109375 1.144531 -0.015625 0.875 -0.265625 C 0.613281 -0.515625 0.484375 -0.851562 0.484375 -1.28125 C 0.484375 -1.769531 0.644531 -2.140625 0.96875 -2.390625 C 1.300781 -2.640625 1.796875 -2.765625 2.453125 -2.765625 L 3.453125 -2.765625 L 3.453125 -2.828125 C 3.453125 -3.160156 3.34375 -3.414062 3.125 -3.59375 C 2.914062 -3.78125 2.613281 -3.875 2.21875 -3.875 C 1.96875 -3.875 1.722656 -3.84375 1.484375 -3.78125 C 1.242188 -3.71875 1.015625 -3.628906 0.796875 -3.515625 L 0.796875 -4.171875 C 1.066406 -4.273438 1.320312 -4.351562 1.5625 -4.40625 C 1.8125 -4.457031 2.054688 -4.484375 2.296875 -4.484375 C 2.921875 -4.484375 3.390625 -4.316406 3.703125 -3.984375 C 4.015625 -3.660156 4.171875 -3.164062 4.171875 -2.5 Z M 4.171875 -2.5 "/>
</symbol>
<symbol overflow="visible" id="glyph0-8">
<path style="stroke:none;" d="M 0.75 -6.078125 L 1.46875 -6.078125 L 1.46875 0 L 0.75 0 Z M 0.75 -6.078125 "/>
</symbol>
<symbol overflow="visible" id="glyph0-9">
<path style="stroke:none;" d="M 0.78125 -5.828125 L 1.84375 -5.828125 L 4.4375 -0.953125 L 4.4375 -5.828125 L 5.203125 -5.828125 L 5.203125 0 L 4.140625 0 L 1.546875 -4.875 L 1.546875 0 L 0.78125 0 Z M 0.78125 -5.828125 "/>
</symbol>
<symbol overflow="visible" id="glyph0-10">
<path style="stroke:none;" d="M 2.453125 -3.875 C 2.066406 -3.875 1.757812 -3.722656 1.53125 -3.421875 C 1.3125 -3.117188 1.203125 -2.707031 1.203125 -2.1875 C 1.203125 -1.664062 1.3125 -1.253906 1.53125 -0.953125 C 1.757812 -0.648438 2.066406 -0.5 2.453125 -0.5 C 2.835938 -0.5 3.140625 -0.648438 3.359375 -0.953125 C 3.585938 -1.253906 3.703125 -1.664062 3.703125 -2.1875 C 3.703125 -2.707031 3.585938 -3.117188 3.359375 -3.421875 C 3.140625 -3.722656 2.835938 -3.875 2.453125 -3.875 Z M 2.453125 -4.484375 C 3.078125 -4.484375 3.566406 -4.28125 3.921875 -3.875 C 4.273438 -3.46875 4.453125 -2.90625 4.453125 -2.1875 C 4.453125 -1.46875 4.273438 -0.90625 3.921875 -0.5 C 3.566406 -0.09375 3.078125 0.109375 2.453125 0.109375 C 1.828125 0.109375 1.332031 -0.09375 0.96875 -0.5 C 0.613281 -0.90625 0.4375 -1.46875 0.4375 -2.1875 C 0.4375 -2.90625 0.613281 -3.46875 0.96875 -3.875 C 1.332031 -4.28125 1.828125 -4.484375 2.453125 -4.484375 Z M 2.453125 -4.484375 "/>
</symbol>
<symbol overflow="visible" id="glyph0-11">
<path style="stroke:none;" d=""/>
</symbol>
<symbol overflow="visible" id="glyph0-12">
<path style="stroke:none;" d="M 5.15625 -5.390625 L 5.15625 -4.546875 C 4.882812 -4.796875 4.597656 -4.984375 4.296875 -5.109375 C 4.003906 -5.234375 3.6875 -5.296875 3.34375 -5.296875 C 2.675781 -5.296875 2.164062 -5.085938 1.8125 -4.671875 C 1.457031 -4.265625 1.28125 -3.675781 1.28125 -2.90625 C 1.28125 -2.144531 1.457031 -1.554688 1.8125 -1.140625 C 2.164062 -0.734375 2.675781 -0.53125 3.34375 -0.53125 C 3.6875 -0.53125 4.003906 -0.59375 4.296875 -0.71875 C 4.597656 -0.84375 4.882812 -1.03125 5.15625 -1.28125 L 5.15625 -0.453125 C 4.875 -0.265625 4.578125 -0.125 4.265625 -0.03125 C 3.960938 0.0625 3.640625 0.109375 3.296875 0.109375 C 2.410156 0.109375 1.710938 -0.160156 1.203125 -0.703125 C 0.703125 -1.242188 0.453125 -1.976562 0.453125 -2.90625 C 0.453125 -3.84375 0.703125 -4.582031 1.203125 -5.125 C 1.710938 -5.664062 2.410156 -5.9375 3.296875 -5.9375 C 3.648438 -5.9375 3.976562 -5.890625 4.28125 -5.796875 C 4.59375 -5.703125 4.882812 -5.566406 5.15625 -5.390625 Z M 5.15625 -5.390625 "/>
</symbol>
<symbol overflow="visible" id="glyph0-13">
<path style="stroke:none;" d="M 4.15625 -3.53125 C 4.34375 -3.851562 4.5625 -4.09375 4.8125 -4.25 C 5.0625 -4.40625 5.351562 -4.484375 5.6875 -4.484375 C 6.144531 -4.484375 6.492188 -4.320312 6.734375 -4 C 6.984375 -3.6875 7.109375 -3.234375 7.109375 -2.640625 L 7.109375 0 L 6.390625 0 L 6.390625 -2.625 C 6.390625 -3.039062 6.316406 -3.347656 6.171875 -3.546875 C 6.023438 -3.753906 5.796875 -3.859375 5.484375 -3.859375 C 5.117188 -3.859375 4.828125 -3.734375 4.609375 -3.484375 C 4.390625 -3.234375 4.28125 -2.894531 4.28125 -2.46875 L 4.28125 0 L 3.5625 0 L 3.5625 -2.625 C 3.5625 -3.039062 3.484375 -3.347656 3.328125 -3.546875 C 3.179688 -3.753906 2.957031 -3.859375 2.65625 -3.859375 C 2.28125 -3.859375 1.984375 -3.734375 1.765625 -3.484375 C 1.554688 -3.234375 1.453125 -2.894531 1.453125 -2.46875 L 1.453125 0 L 0.734375 0 L 0.734375 -4.375 L 1.453125 -4.375 L 1.453125 -3.703125 C 1.617188 -3.960938 1.816406 -4.15625 2.046875 -4.28125 C 2.273438 -4.414062 2.546875 -4.484375 2.859375 -4.484375 C 3.171875 -4.484375 3.4375 -4.398438 3.65625 -4.234375 C 3.882812 -4.078125 4.050781 -3.84375 4.15625 -3.53125 Z M 4.15625 -3.53125 "/>
</symbol>
<symbol overflow="visible" id="glyph0-14">
<path style="stroke:none;" d="M 0.6875 -1.734375 L 0.6875 -4.375 L 1.40625 -4.375 L 1.40625 -1.75 C 1.40625 -1.34375 1.484375 -1.035156 1.640625 -0.828125 C 1.804688 -0.617188 2.050781 -0.515625 2.375 -0.515625 C 2.757812 -0.515625 3.0625 -0.632812 3.28125 -0.875 C 3.507812 -1.125 3.625 -1.460938 3.625 -1.890625 L 3.625 -4.375 L 4.34375 -4.375 L 4.34375 0 L 3.625 0 L 3.625 -0.671875 C 3.445312 -0.410156 3.242188 -0.210938 3.015625 -0.078125 C 2.785156 0.046875 2.519531 0.109375 2.21875 0.109375 C 1.71875 0.109375 1.335938 -0.046875 1.078125 -0.359375 C 0.816406 -0.671875 0.6875 -1.128906 0.6875 -1.734375 Z M 2.484375 -4.484375 Z M 2.484375 -4.484375 "/>
</symbol>
<symbol overflow="visible" id="glyph0-15">
<path style="stroke:none;" d="M 3.90625 -4.203125 L 3.90625 -3.53125 C 3.695312 -3.644531 3.488281 -3.726562 3.28125 -3.78125 C 3.082031 -3.84375 2.878906 -3.875 2.671875 -3.875 C 2.203125 -3.875 1.835938 -3.722656 1.578125 -3.421875 C 1.328125 -3.128906 1.203125 -2.71875 1.203125 -2.1875 C 1.203125 -1.65625 1.328125 -1.238281 1.578125 -0.9375 C 1.835938 -0.644531 2.203125 -0.5 2.671875 -0.5 C 2.878906 -0.5 3.082031 -0.523438 3.28125 -0.578125 C 3.488281 -0.640625 3.695312 -0.722656 3.90625 -0.828125 L 3.90625 -0.171875 C 3.707031 -0.078125 3.5 -0.0078125 3.28125 0.03125 C 3.0625 0.0820312 2.832031 0.109375 2.59375 0.109375 C 1.9375 0.109375 1.410156 -0.09375 1.015625 -0.5 C 0.628906 -0.914062 0.4375 -1.476562 0.4375 -2.1875 C 0.4375 -2.894531 0.632812 -3.453125 1.03125 -3.859375 C 1.425781 -4.273438 1.960938 -4.484375 2.640625 -4.484375 C 2.859375 -4.484375 3.070312 -4.457031 3.28125 -4.40625 C 3.5 -4.363281 3.707031 -4.296875 3.90625 -4.203125 Z M 3.90625 -4.203125 "/>
</symbol>
<symbol overflow="visible" id="glyph0-16">
<path style="stroke:none;" d="M 1.46875 -5.625 L 1.46875 -4.375 L 2.953125 -4.375 L 2.953125 -3.8125 L 1.46875 -3.8125 L 1.46875 -1.4375 C 1.46875 -1.082031 1.515625 -0.851562 1.609375 -0.75 C 1.710938 -0.65625 1.910156 -0.609375 2.203125 -0.609375 L 2.953125 -0.609375 L 2.953125 0 L 2.203125 0 C 1.648438 0 1.269531 -0.101562 1.0625 -0.3125 C 0.851562 -0.519531 0.75 -0.894531 0.75 -1.4375 L 0.75 -3.8125 L 0.21875 -3.8125 L 0.21875 -4.375 L 0.75 -4.375 L 0.75 -5.625 Z M 1.46875 -5.625 "/>
</symbol>
<symbol overflow="visible" id="glyph1-0">
<path style="stroke:none;" d="M 5.109375 -4.40625 L 3.6875 -4.40625 L 3.28125 -2.765625 L 4.71875 -2.765625 Z M 4.375 -7.171875 L 3.875 -5.15625 L 5.296875 -5.15625 L 5.8125 -7.171875 L 6.59375 -7.171875 L 6.09375 -5.15625 L 7.609375 -5.15625 L 7.609375 -4.40625 L 5.90625 -4.40625 L 5.5 -2.765625 L 7.046875 -2.765625 L 7.046875 -2.015625 L 5.3125 -2.015625 L 4.796875 0 L 4.015625 0 L 4.515625 -2.015625 L 3.09375 -2.015625 L 2.59375 0 L 1.796875 0 L 2.3125 -2.015625 L 0.765625 -2.015625 L 0.765625 -2.765625 L 2.484375 -2.765625 L 2.90625 -4.40625 L 1.328125 -4.40625 L 1.328125 -5.15625 L 3.09375 -5.15625 L 3.59375 -7.171875 Z M 4.375 -7.171875 "/>
</symbol>
<symbol overflow="visible" id="glyph1-1">
<path style="stroke:none;" d=""/>
</symbol>
<symbol overflow="visible" id="glyph1-2">
<path style="stroke:none;" d="M 3.0625 -4.84375 C 2.582031 -4.84375 2.203125 -4.65625 1.921875 -4.28125 C 1.640625 -3.90625 1.5 -3.390625 1.5 -2.734375 C 1.5 -2.078125 1.632812 -1.5625 1.90625 -1.1875 C 2.1875 -0.8125 2.570312 -0.625 3.0625 -0.625 C 3.539062 -0.625 3.921875 -0.8125 4.203125 -1.1875 C 4.484375 -1.5625 4.625 -2.078125 4.625 -2.734375 C 4.625 -3.378906 4.484375 -3.890625 4.203125 -4.265625 C 3.921875 -4.648438 3.539062 -4.84375 3.0625 -4.84375 Z M 3.0625 -5.59375 C 3.84375 -5.59375 4.457031 -5.335938 4.90625 -4.828125 C 5.351562 -4.328125 5.578125 -3.628906 5.578125 -2.734375 C 5.578125 -1.835938 5.351562 -1.132812 4.90625 -0.625 C 4.457031 -0.113281 3.84375 0.140625 3.0625 0.140625 C 2.28125 0.140625 1.664062 -0.113281 1.21875 -0.625 C 0.769531 -1.132812 0.546875 -1.835938 0.546875 -2.734375 C 0.546875 -3.628906 0.769531 -4.328125 1.21875 -4.828125 C 1.664062 -5.335938 2.28125 -5.59375 3.0625 -5.59375 Z M 3.0625 -5.59375 "/>
</symbol>
<symbol overflow="visible" id="glyph1-3">
<path style="stroke:none;" d="M 3.71875 -7.59375 L 3.71875 -6.84375 L 2.859375 -6.84375 C 2.535156 -6.84375 2.3125 -6.773438 2.1875 -6.640625 C 2.0625 -6.515625 2 -6.285156 2 -5.953125 L 2 -5.46875 L 3.46875 -5.46875 L 3.46875 -4.765625 L 2 -4.765625 L 2 0 L 1.09375 0 L 1.09375 -4.765625 L 0.234375 -4.765625 L 0.234375 -5.46875 L 1.09375 -5.46875 L 1.09375 -5.84375 C 1.09375 -6.457031 1.234375 -6.898438 1.515625 -7.171875 C 1.796875 -7.453125 2.242188 -7.59375 2.859375 -7.59375 Z M 3.71875 -7.59375 "/>
</symbol>
<symbol overflow="visible" id="glyph1-4">
<path style="stroke:none;" d="M 4.875 -5.265625 L 4.875 -4.421875 C 4.625 -4.554688 4.367188 -4.660156 4.109375 -4.734375 C 3.859375 -4.804688 3.601562 -4.84375 3.34375 -4.84375 C 2.757812 -4.84375 2.304688 -4.65625 1.984375 -4.28125 C 1.660156 -3.914062 1.5 -3.398438 1.5 -2.734375 C 1.5 -2.066406 1.660156 -1.546875 1.984375 -1.171875 C 2.304688 -0.804688 2.757812 -0.625 3.34375 -0.625 C 3.601562 -0.625 3.859375 -0.65625 4.109375 -0.71875 C 4.367188 -0.789062 4.625 -0.898438 4.875 -1.046875 L 4.875 -0.203125 C 4.625 -0.0859375 4.363281 -0.00390625 4.09375 0.046875 C 3.832031 0.109375 3.550781 0.140625 3.25 0.140625 C 2.414062 0.140625 1.753906 -0.113281 1.265625 -0.625 C 0.785156 -1.144531 0.546875 -1.847656 0.546875 -2.734375 C 0.546875 -3.617188 0.789062 -4.316406 1.28125 -4.828125 C 1.769531 -5.335938 2.441406 -5.59375 3.296875 -5.59375 C 3.578125 -5.59375 3.847656 -5.566406 4.109375 -5.515625 C 4.367188 -5.460938 4.625 -5.378906 4.875 -5.265625 Z M 4.875 -5.265625 "/>
</symbol>
<symbol overflow="visible" id="glyph1-5">
<path style="stroke:none;" d="M 4.109375 -4.625 C 4.003906 -4.6875 3.894531 -4.726562 3.78125 -4.75 C 3.664062 -4.78125 3.535156 -4.796875 3.390625 -4.796875 C 2.878906 -4.796875 2.488281 -4.628906 2.21875 -4.296875 C 1.945312 -3.972656 1.8125 -3.5 1.8125 -2.875 L 1.8125 0 L 0.90625 0 L 0.90625 -5.46875 L 1.8125 -5.46875 L 1.8125 -4.625 C 2 -4.957031 2.242188 -5.203125 2.546875 -5.359375 C 2.847656 -5.515625 3.21875 -5.59375 3.65625 -5.59375 C 3.71875 -5.59375 3.785156 -5.585938 3.859375 -5.578125 C 3.929688 -5.578125 4.015625 -5.566406 4.109375 -5.546875 Z M 4.109375 -4.625 "/>
</symbol>
<symbol overflow="visible" id="glyph1-6">
<path style="stroke:none;" d="M 5.625 -2.953125 L 5.625 -2.515625 L 1.484375 -2.515625 C 1.523438 -1.898438 1.710938 -1.429688 2.046875 -1.109375 C 2.378906 -0.785156 2.84375 -0.625 3.4375 -0.625 C 3.78125 -0.625 4.113281 -0.664062 4.4375 -0.75 C 4.769531 -0.832031 5.09375 -0.957031 5.40625 -1.125 L 5.40625 -0.28125 C 5.082031 -0.144531 4.75 -0.0390625 4.40625 0.03125 C 4.070312 0.101562 3.734375 0.140625 3.390625 0.140625 C 2.515625 0.140625 1.820312 -0.109375 1.3125 -0.609375 C 0.800781 -1.117188 0.546875 -1.8125 0.546875 -2.6875 C 0.546875 -3.582031 0.785156 -4.289062 1.265625 -4.8125 C 1.753906 -5.332031 2.410156 -5.59375 3.234375 -5.59375 C 3.972656 -5.59375 4.554688 -5.359375 4.984375 -4.890625 C 5.410156 -4.421875 5.625 -3.773438 5.625 -2.953125 Z M 4.71875 -3.21875 C 4.71875 -3.707031 4.582031 -4.097656 4.3125 -4.390625 C 4.039062 -4.691406 3.6875 -4.84375 3.25 -4.84375 C 2.738281 -4.84375 2.332031 -4.695312 2.03125 -4.40625 C 1.738281 -4.125 1.566406 -3.726562 1.515625 -3.21875 Z M 4.71875 -3.21875 "/>
</symbol>
<symbol overflow="visible" id="glyph1-7">
<path style="stroke:none;" d="M 4.421875 -5.3125 L 4.421875 -4.453125 C 4.171875 -4.585938 3.910156 -4.6875 3.640625 -4.75 C 3.367188 -4.8125 3.082031 -4.84375 2.78125 -4.84375 C 2.34375 -4.84375 2.007812 -4.773438 1.78125 -4.640625 C 1.5625 -4.503906 1.453125 -4.300781 1.453125 -4.03125 C 1.453125 -3.820312 1.53125 -3.65625 1.6875 -3.53125 C 1.84375 -3.414062 2.164062 -3.304688 2.65625 -3.203125 L 2.953125 -3.125 C 3.597656 -2.988281 4.050781 -2.796875 4.3125 -2.546875 C 4.582031 -2.296875 4.71875 -1.953125 4.71875 -1.515625 C 4.71875 -1.003906 4.515625 -0.597656 4.109375 -0.296875 C 3.710938 -0.00390625 3.164062 0.140625 2.46875 0.140625 C 2.164062 0.140625 1.851562 0.109375 1.53125 0.046875 C 1.21875 -0.00390625 0.890625 -0.0859375 0.546875 -0.203125 L 0.546875 -1.125 C 0.878906 -0.957031 1.203125 -0.828125 1.515625 -0.734375 C 1.835938 -0.648438 2.160156 -0.609375 2.484375 -0.609375 C 2.898438 -0.609375 3.222656 -0.679688 3.453125 -0.828125 C 3.679688 -0.972656 3.796875 -1.175781 3.796875 -1.4375 C 3.796875 -1.6875 3.710938 -1.875 3.546875 -2 C 3.390625 -2.132812 3.03125 -2.257812 2.46875 -2.375 L 2.15625 -2.453125 C 1.601562 -2.566406 1.203125 -2.742188 0.953125 -2.984375 C 0.703125 -3.234375 0.578125 -3.566406 0.578125 -3.984375 C 0.578125 -4.503906 0.757812 -4.898438 1.125 -5.171875 C 1.488281 -5.453125 2.007812 -5.59375 2.6875 -5.59375 C 3.007812 -5.59375 3.316406 -5.566406 3.609375 -5.515625 C 3.910156 -5.472656 4.179688 -5.40625 4.421875 -5.3125 Z M 4.421875 -5.3125 "/>
</symbol>
<symbol overflow="visible" id="glyph2-0">
<path style="stroke:none;" d="M -7.296875 -0.984375 L -7.296875 -5.59375 L -6.453125 -5.59375 L -6.453125 -1.96875 L -4.296875 -1.96875 L -4.296875 -5.4375 L -3.46875 -5.4375 L -3.46875 -1.96875 L -0.828125 -1.96875 L -0.828125 -5.671875 L 0 -5.671875 L 0 -0.984375 Z M -7.296875 -0.984375 "/>
</symbol>
<symbol overflow="visible" id="glyph2-1">
<path style="stroke:none;" d="M -5.46875 -5.484375 L -2.8125 -3.515625 L 0 -5.59375 L 0 -4.53125 L -2.15625 -2.9375 L 0 -1.34375 L 0 -0.28125 L -2.859375 -2.40625 L -5.46875 -0.46875 L -5.46875 -1.53125 L -3.515625 -2.984375 L -5.46875 -4.421875 Z M -5.46875 -5.484375 "/>
</symbol>
<symbol overflow="visible" id="glyph2-2">
<path style="stroke:none;" d="M -2.953125 -5.625 L -2.515625 -5.625 L -2.515625 -1.484375 C -1.898438 -1.523438 -1.429688 -1.710938 -1.109375 -2.046875 C -0.785156 -2.378906 -0.625 -2.84375 -0.625 -3.4375 C -0.625 -3.78125 -0.664062 -4.113281 -0.75 -4.4375 C -0.832031 -4.769531 -0.957031 -5.09375 -1.125 -5.40625 L -0.28125 -5.40625 C -0.144531 -5.082031 -0.0390625 -4.75 0.03125 -4.40625 C 0.101562 -4.070312 0.140625 -3.734375 0.140625 -3.390625 C 0.140625 -2.515625 -0.109375 -1.820312 -0.609375 -1.3125 C -1.117188 -0.800781 -1.8125 -0.546875 -2.6875 -0.546875 C -3.582031 -0.546875 -4.289062 -0.785156 -4.8125 -1.265625 C -5.332031 -1.753906 -5.59375 -2.410156 -5.59375 -3.234375 C -5.59375 -3.972656 -5.359375 -4.554688 -4.890625 -4.984375 C -4.421875 -5.410156 -3.773438 -5.625 -2.953125 -5.625 Z M -3.21875 -4.71875 C -3.707031 -4.71875 -4.097656 -4.582031 -4.390625 -4.3125 C -4.691406 -4.039062 -4.84375 -3.6875 -4.84375 -3.25 C -4.84375 -2.738281 -4.695312 -2.332031 -4.40625 -2.03125 C -4.125 -1.738281 -3.726562 -1.566406 -3.21875 -1.515625 Z M -3.21875 -4.71875 "/>
</symbol>
<symbol overflow="visible" id="glyph2-3">
<path style="stroke:none;" d="M -5.265625 -4.875 L -4.421875 -4.875 C -4.554688 -4.625 -4.660156 -4.367188 -4.734375 -4.109375 C -4.804688 -3.859375 -4.84375 -3.601562 -4.84375 -3.34375 C -4.84375 -2.757812 -4.65625 -2.304688 -4.28125 -1.984375 C -3.914062 -1.660156 -3.398438 -1.5 -2.734375 -1.5 C -2.066406 -1.5 -1.546875 -1.660156 -1.171875 -1.984375 C -0.804688 -2.304688 -0.625 -2.757812 -0.625 -3.34375 C -0.625 -3.601562 -0.65625 -3.859375 -0.71875 -4.109375 C -0.789062 -4.367188 -0.898438 -4.625 -1.046875 -4.875 L -0.203125 -4.875 C -0.0859375 -4.625 -0.00390625 -4.363281 0.046875 -4.09375 C 0.109375 -3.832031 0.140625 -3.550781 0.140625 -3.25 C 0.140625 -2.414062 -0.113281 -1.753906 -0.625 -1.265625 C -1.144531 -0.785156 -1.847656 -0.546875 -2.734375 -0.546875 C -3.617188 -0.546875 -4.316406 -0.789062 -4.828125 -1.28125 C -5.335938 -1.769531 -5.59375 -2.441406 -5.59375 -3.296875 C -5.59375 -3.578125 -5.566406 -3.847656 -5.515625 -4.109375 C -5.460938 -4.367188 -5.378906 -4.625 -5.265625 -4.875 Z M -5.265625 -4.875 "/>
</symbol>
<symbol overflow="visible" id="glyph2-4">
<path style="stroke:none;" d="M -2.15625 -0.84375 L -5.46875 -0.84375 L -5.46875 -1.75 L -2.1875 -1.75 C -1.675781 -1.75 -1.289062 -1.847656 -1.03125 -2.046875 C -0.769531 -2.253906 -0.640625 -2.554688 -0.640625 -2.953125 C -0.640625 -3.441406 -0.789062 -3.828125 -1.09375 -4.109375 C -1.40625 -4.390625 -1.832031 -4.53125 -2.375 -4.53125 L -5.46875 -4.53125 L -5.46875 -5.4375 L 0 -5.4375 L 0 -4.53125 L -0.84375 -4.53125 C -0.507812 -4.3125 -0.257812 -4.054688 -0.09375 -3.765625 C 0.0625 -3.484375 0.140625 -3.148438 0.140625 -2.765625 C 0.140625 -2.140625 -0.0507812 -1.660156 -0.4375 -1.328125 C -0.832031 -1.003906 -1.40625 -0.84375 -2.15625 -0.84375 Z M -5.59375 -3.109375 Z M -5.59375 -3.109375 "/>
</symbol>
<symbol overflow="visible" id="glyph2-5">
<path style="stroke:none;" d="M -7.015625 -1.828125 L -5.46875 -1.828125 L -5.46875 -3.6875 L -4.765625 -3.6875 L -4.765625 -1.828125 L -1.796875 -1.828125 C -1.359375 -1.828125 -1.070312 -1.890625 -0.9375 -2.015625 C -0.8125 -2.140625 -0.75 -2.390625 -0.75 -2.765625 L -0.75 -3.6875 L 0 -3.6875 L 0 -2.765625 C 0 -2.066406 -0.128906 -1.582031 -0.390625 -1.3125 C -0.648438 -1.050781 -1.117188 -0.921875 -1.796875 -0.921875 L -4.765625 -0.921875 L -4.765625 -0.265625 L -5.46875 -0.265625 L -5.46875 -0.921875 L -7.015625 -0.921875 Z M -7.015625 -1.828125 "/>
</symbol>
<symbol overflow="visible" id="glyph2-6">
<path style="stroke:none;" d="M -5.46875 -0.9375 L -5.46875 -1.84375 L 0 -1.84375 L 0 -0.9375 Z M -7.59375 -0.9375 L -7.59375 -1.84375 L -6.453125 -1.84375 L -6.453125 -0.9375 Z M -7.59375 -0.9375 "/>
</symbol>
<symbol overflow="visible" id="glyph2-7">
<path style="stroke:none;" d="M -4.84375 -3.0625 C -4.84375 -2.582031 -4.65625 -2.203125 -4.28125 -1.921875 C -3.90625 -1.640625 -3.390625 -1.5 -2.734375 -1.5 C -2.078125 -1.5 -1.5625 -1.632812 -1.1875 -1.90625 C -0.8125 -2.1875 -0.625 -2.570312 -0.625 -3.0625 C -0.625 -3.539062 -0.8125 -3.921875 -1.1875 -4.203125 C -1.5625 -4.484375 -2.078125 -4.625 -2.734375 -4.625 C -3.378906 -4.625 -3.890625 -4.484375 -4.265625 -4.203125 C -4.648438 -3.921875 -4.84375 -3.539062 -4.84375 -3.0625 Z M -5.59375 -3.0625 C -5.59375 -3.84375 -5.335938 -4.457031 -4.828125 -4.90625 C -4.328125 -5.351562 -3.628906 -5.578125 -2.734375 -5.578125 C -1.835938 -5.578125 -1.132812 -5.351562 -0.625 -4.90625 C -0.113281 -4.457031 0.140625 -3.84375 0.140625 -3.0625 C 0.140625 -2.28125 -0.113281 -1.664062 -0.625 -1.21875 C -1.132812 -0.769531 -1.835938 -0.546875 -2.734375 -0.546875 C -3.628906 -0.546875 -4.328125 -0.769531 -4.828125 -1.21875 C -5.335938 -1.664062 -5.59375 -2.28125 -5.59375 -3.0625 Z M -5.59375 -3.0625 "/>
</symbol>
<symbol overflow="visible" id="glyph2-8">
<path style="stroke:none;" d="M -3.296875 -5.484375 L 0 -5.484375 L 0 -4.59375 L -3.265625 -4.59375 C -3.785156 -4.59375 -4.171875 -4.488281 -4.421875 -4.28125 C -4.679688 -4.082031 -4.8125 -3.78125 -4.8125 -3.375 C -4.8125 -2.894531 -4.65625 -2.515625 -4.34375 -2.234375 C -4.039062 -1.953125 -3.625 -1.8125 -3.09375 -1.8125 L 0 -1.8125 L 0 -0.90625 L -5.46875 -0.90625 L -5.46875 -1.8125 L -4.625 -1.8125 C -4.945312 -2.03125 -5.1875 -2.285156 -5.34375 -2.578125 C -5.507812 -2.867188 -5.59375 -3.203125 -5.59375 -3.578125 C -5.59375 -4.203125 -5.398438 -4.675781 -5.015625 -5 C -4.628906 -5.320312 -4.054688 -5.484375 -3.296875 -5.484375 Z M -3.296875 -5.484375 "/>
</symbol>
<symbol overflow="visible" id="glyph2-9">
<path style="stroke:none;" d=""/>
</symbol>
<symbol overflow="visible" id="glyph2-10">
<path style="stroke:none;" d="M -4.421875 -5.203125 C -4.828125 -5.421875 -5.125 -5.6875 -5.3125 -6 C -5.5 -6.3125 -5.59375 -6.679688 -5.59375 -7.109375 C -5.59375 -7.679688 -5.394531 -8.117188 -5 -8.421875 C -4.601562 -8.734375 -4.035156 -8.890625 -3.296875 -8.890625 L 0 -8.890625 L 0 -7.984375 L -3.265625 -7.984375 C -3.796875 -7.984375 -4.1875 -7.890625 -4.4375 -7.703125 C -4.6875 -7.523438 -4.8125 -7.242188 -4.8125 -6.859375 C -4.8125 -6.390625 -4.65625 -6.019531 -4.34375 -5.75 C -4.039062 -5.488281 -3.625 -5.359375 -3.09375 -5.359375 L 0 -5.359375 L 0 -4.453125 L -3.265625 -4.453125 C -3.796875 -4.453125 -4.1875 -4.359375 -4.4375 -4.171875 C -4.6875 -3.984375 -4.8125 -3.695312 -4.8125 -3.3125 C -4.8125 -2.851562 -4.65625 -2.488281 -4.34375 -2.21875 C -4.039062 -1.945312 -3.625 -1.8125 -3.09375 -1.8125 L 0 -1.8125 L 0 -0.90625 L -5.46875 -0.90625 L -5.46875 -1.8125 L -4.625 -1.8125 C -4.957031 -2.019531 -5.203125 -2.265625 -5.359375 -2.546875 C -5.515625 -2.835938 -5.59375 -3.175781 -5.59375 -3.5625 C -5.59375 -3.96875 -5.492188 -4.304688 -5.296875 -4.578125 C -5.097656 -4.859375 -4.804688 -5.066406 -4.421875 -5.203125 Z M -4.421875 -5.203125 "/>
</symbol>
<symbol overflow="visible" id="glyph2-11">
<path style="stroke:none;" d="M -7.59375 -3.09375 C -6.84375 -2.664062 -6.097656 -2.34375 -5.359375 -2.125 C -4.628906 -1.914062 -3.890625 -1.8125 -3.140625 -1.8125 C -2.390625 -1.8125 -1.644531 -1.914062 -0.90625 -2.125 C -0.164062 -2.34375 0.570312 -2.664062 1.3125 -3.09375 L 1.3125 -2.3125 C 0.550781 -1.832031 -0.195312 -1.46875 -0.9375 -1.21875 C -1.675781 -0.976562 -2.410156 -0.859375 -3.140625 -0.859375 C -3.867188 -0.859375 -4.597656 -0.976562 -5.328125 -1.21875 C -6.066406 -1.457031 -6.820312 -1.820312 -7.59375 -2.3125 Z M -7.59375 -3.09375 "/>
</symbol>
<symbol overflow="visible" id="glyph2-12">
<path style="stroke:none;" d="M -5.3125 -4.421875 L -4.453125 -4.421875 C -4.585938 -4.171875 -4.6875 -3.910156 -4.75 -3.640625 C -4.8125 -3.367188 -4.84375 -3.082031 -4.84375 -2.78125 C -4.84375 -2.34375 -4.773438 -2.007812 -4.640625 -1.78125 C -4.503906 -1.5625 -4.300781 -1.453125 -4.03125 -1.453125 C -3.820312 -1.453125 -3.65625 -1.53125 -3.53125 -1.6875 C -3.414062 -1.84375 -3.304688 -2.164062 -3.203125 -2.65625 L -3.125 -2.953125 C -2.988281 -3.597656 -2.796875 -4.050781 -2.546875 -4.3125 C -2.296875 -4.582031 -1.953125 -4.71875 -1.515625 -4.71875 C -1.003906 -4.71875 -0.597656 -4.515625 -0.296875 -4.109375 C -0.00390625 -3.710938 0.140625 -3.164062 0.140625 -2.46875 C 0.140625 -2.164062 0.109375 -1.851562 0.046875 -1.53125 C -0.00390625 -1.21875 -0.0859375 -0.890625 -0.203125 -0.546875 L -1.125 -0.546875 C -0.957031 -0.878906 -0.828125 -1.203125 -0.734375 -1.515625 C -0.648438 -1.835938 -0.609375 -2.160156 -0.609375 -2.484375 C -0.609375 -2.898438 -0.679688 -3.222656 -0.828125 -3.453125 C -0.972656 -3.679688 -1.175781 -3.796875 -1.4375 -3.796875 C -1.6875 -3.796875 -1.875 -3.710938 -2 -3.546875 C -2.132812 -3.390625 -2.257812 -3.03125 -2.375 -2.46875 L -2.453125 -2.15625 C -2.566406 -1.601562 -2.742188 -1.203125 -2.984375 -0.953125 C -3.234375 -0.703125 -3.566406 -0.578125 -3.984375 -0.578125 C -4.503906 -0.578125 -4.898438 -0.757812 -5.171875 -1.125 C -5.453125 -1.488281 -5.59375 -2.007812 -5.59375 -2.6875 C -5.59375 -3.007812 -5.566406 -3.316406 -5.515625 -3.609375 C -5.472656 -3.910156 -5.40625 -4.179688 -5.3125 -4.421875 Z M -5.3125 -4.421875 "/>
</symbol>
<symbol overflow="visible" id="glyph2-13">
<path style="stroke:none;" d="M -7.59375 -0.796875 L -7.59375 -1.578125 C -6.820312 -2.066406 -6.066406 -2.429688 -5.328125 -2.671875 C -4.597656 -2.921875 -3.867188 -3.046875 -3.140625 -3.046875 C -2.410156 -3.046875 -1.675781 -2.921875 -0.9375 -2.671875 C -0.195312 -2.429688 0.550781 -2.066406 1.3125 -1.578125 L 1.3125 -0.796875 C 0.570312 -1.234375 -0.164062 -1.554688 -0.90625 -1.765625 C -1.644531 -1.984375 -2.390625 -2.09375 -3.140625 -2.09375 C -3.890625 -2.09375 -4.628906 -1.984375 -5.359375 -1.765625 C -6.097656 -1.554688 -6.84375 -1.234375 -7.59375 -0.796875 Z M -7.59375 -0.796875 "/>
</symbol>
</g>
<clipPath id="clip1">
  <path d="M 0 0 L 411.023438 0 L 411.023438 246 L 0 246 Z M 0 0 "/>
</clipPath>
<clipPath id="clip2">
  <path d="M 51.605469 8.949219 L 396.550781 8.949219 L 396.550781 210.53125 L 51.605469 210.53125 Z M 51.605469 8.949219 "/>
</clipPath>
<clipPath id="clip3">
  <path d="M 0 0 L 411.023438 0 L 411.023438 246 L 0 246 Z M 0 0 "/>
</clipPath>
<clipPath id="clip4">
  <path d="M 58.148438 170.195312 L 171.125 170.195312 L 171.125 189.820312 L 58.148438 189.820312 Z M 58.148438 170.195312 "/>
</clipPath>
</defs>
<g id="surface58034">
<g clip-path="url(#clip1)" clip-rule="nonzero">
<path style="fill-rule:nonzero;fill:rgb(100%,100%,100%);fill-opacity:1;stroke-width:0.5;stroke-linecap:round;stroke-linejoin:round;stroke:rgb(0%,0%,0%);stroke-opacity:1;stroke-miterlimit:10;" d="M 0.25 0.25 L 410.773438 0.25 L 410.773438 245.75 L 0.25 245.75 Z M 0.25 0.25 "/>
<path style="fill-rule:nonzero;fill:rgb(81.568627%,81.568627%,81.568627%);fill-opacity:1;stroke-width:1;stroke-linecap:round;stroke-linejoin:round;stroke:rgb(51.764706%,50.980392%,51.764706%);stroke-opacity:1;stroke-miterlimit:10;" d="M 51.605469 8.949219 L 396.550781 8.949219 L 396.550781 210.53125 L 51.605469 210.53125 Z M 51.605469 8.949219 "/>
<path style="fill:none;stroke-width:0.5;stroke-linecap:round;stroke-linejoin:round;stroke:rgb(0%,0%,0%);stroke-opacity:1;stroke-miterlimit:10;" d="M 51.605469 210.53125 L 396.550781 210.53125 M 51.605469 214.78125 L 51.605469 210.53125 M 224.078125 214.78125 L 224.078125 210.53125 M 396.550781 214.78125 L 396.550781 210.53125 "/>
<g style="fill:rgb(0%,0%,0%);fill-opacity:1;">
  <use xlink:href="#glyph0-0" x="46.265625" y="223.679688"/>
  <use xlink:href="#glyph0-1" x="51.355469" y="223.679688"/>
</g>
<g style="fill:rgb(0%,0%,0%);fill-opacity:1;">
  <use xlink:href="#glyph0-0" x="216.191406" y="223.679688"/>
  <use xlink:href="#glyph0-1" x="221.28125" y="223.679688"/>
  <use xlink:href="#glyph0-1" x="226.371094" y="223.679688"/>
</g>
<g style="fill:rgb(0%,0%,0%);fill-opacity:1;">
  <use xlink:href="#glyph0-0" x="386.121094" y="223.679688"/>
  <use xlink:href="#glyph0-1" x="391.210938" y="223.679688"/>
  <use xlink:href="#glyph0-1" x="396.300781" y="223.679688"/>
  <use xlink:href="#glyph0-1" x="401.390625" y="223.679688"/>
</g>
<g style="fill:rgb(0%,0%,0%);fill-opacity:1;">
  <use xlink:href="#glyph1-0" x="198.195312" y="239.098633"/>
  <use xlink:href="#glyph1-1" x="206.574219" y="239.098633"/>
  <use xlink:href="#glyph1-2" x="209.75293" y="239.098633"/>
  <use xlink:href="#glyph1-3" x="215.871094" y="239.098633"/>
  <use xlink:href="#glyph1-1" x="219.391602" y="239.098633"/>
  <use xlink:href="#glyph1-4" x="222.570312" y="239.098633"/>
  <use xlink:href="#glyph1-2" x="228.068359" y="239.098633"/>
  <use xlink:href="#glyph1-5" x="234.186523" y="239.098633"/>
  <use xlink:href="#glyph1-6" x="238.094727" y="239.098633"/>
  <use xlink:href="#glyph1-7" x="244.24707" y="239.098633"/>
</g>
<path style="fill:none;stroke-width:0.5;stroke-linecap:round;stroke-linejoin:round;stroke:rgb(0%,0%,0%);stroke-opacity:1;stroke-miterlimit:10;" d="M 51.605469 210.53125 L 51.605469 8.949219 M 47.355469 210.53125 L 51.605469 210.53125 M 47.355469 143.335938 L 51.605469 143.335938 M 47.355469 76.144531 L 51.605469 76.144531 M 47.355469 8.949219 L 51.605469 8.949219 "/>
<g style="fill:rgb(0%,0%,0%);fill-opacity:1;">
  <use xlink:href="#glyph0-0" x="35.203125" y="213.050781"/>
  <use xlink:href="#glyph0-1" x="40.292969" y="213.050781"/>
</g>
<g style="fill:rgb(0%,0%,0%);fill-opacity:1;">
  <use xlink:href="#glyph0-0" x="30.113281" y="145.855469"/>
  <use xlink:href="#glyph0-1" x="35.203125" y="145.855469"/>
  <use xlink:href="#glyph0-1" x="40.292969" y="145.855469"/>
</g>
<g style="fill:rgb(0%,0%,0%);fill-opacity:1;">
  <use xlink:href="#glyph0-0" x="25.023438" y="78.664062"/>
  <use xlink:href="#glyph0-1" x="30.113281" y="78.664062"/>
  <use xlink:href="#glyph0-1" x="35.203125" y="78.664062"/>
  <use xlink:href="#glyph0-1" x="40.292969" y="78.664062"/>
</g>
<g style="fill:rgb(0%,0%,0%);fill-opacity:1;">
  <use xlink:href="#glyph0-0" x="19.933594" y="11.46875"/>
  <use xlink:href="#glyph0-1" x="25.023438" y="11.46875"/>
  <use xlink:href="#glyph0-1" x="30.113281" y="11.46875"/>
  <use xlink:href="#glyph0-1" x="35.203125" y="11.46875"/>
  <use xlink:href="#glyph0-1" x="40.292969" y="11.46875"/>
</g>
<g style="fill:rgb(0%,0%,0%);fill-opacity:1;">
  <use xlink:href="#glyph2-0" x="13.325195" y="161.339844"/>
  <use xlink:href="#glyph2-1" x="13.325195" y="155.021484"/>
  <use xlink:href="#glyph2-2" x="13.325195" y="149.400391"/>
  <use xlink:href="#glyph2-3" x="13.325195" y="143.248047"/>
  <use xlink:href="#glyph2-4" x="13.325195" y="137.75"/>
  <use xlink:href="#glyph2-5" x="13.325195" y="131.412109"/>
  <use xlink:href="#glyph2-6" x="13.325195" y="127.491211"/>
  <use xlink:href="#glyph2-7" x="13.325195" y="124.712891"/>
  <use xlink:href="#glyph2-8" x="13.325195" y="118.594727"/>
  <use xlink:href="#glyph2-9" x="13.325195" y="112.256836"/>
  <use xlink:href="#glyph2-5" x="13.325195" y="109.078125"/>
  <use xlink:href="#glyph2-6" x="13.325195" y="105.157227"/>
  <use xlink:href="#glyph2-10" x="13.325195" y="102.378906"/>
  <use xlink:href="#glyph2-2" x="13.325195" y="92.637695"/>
  <use xlink:href="#glyph2-9" x="13.325195" y="86.485352"/>
  <use xlink:href="#glyph2-11" x="13.325195" y="83.306641"/>
  <use xlink:href="#glyph2-12" x="13.325195" y="79.405273"/>
  <use xlink:href="#glyph2-2" x="13.325195" y="74.195312"/>
  <use xlink:href="#glyph2-3" x="13.325195" y="68.042969"/>
  <use xlink:href="#glyph2-13" x="13.325195" y="62.544922"/>
</g>
<g clip-path="url(#clip2)" clip-rule="nonzero">
<path style="fill:none;stroke-width:2;stroke-linecap:round;stroke-linejoin:round;stroke:rgb(0%,0%,0%);stroke-opacity:1;stroke-miterlimit:10;" d="M 117.179688 73.542969 L 169.101562 91.601562 L 221.019531 111.199219 L 272.941406 129.371094 L 324.859375 151.371094 "/>
<path style="fill:none;stroke-width:0.5;stroke-linecap:round;stroke-linejoin:round;stroke:rgb(100%,0%,100%);stroke-opacity:1;stroke-miterlimit:10;" d="M 117.179688 73.851562 L 169.101562 92.261719 L 221.019531 112.203125 L 272.941406 132.25 L 324.859375 157.003906 "/>
</g>
</g>
<g clip-path="url(#clip3)" clip-rule="nonzero">
<path style="fill-rule:nonzero;fill:rgb(0%,0%,50.196078%);fill-opacity:1;stroke-width:0.2;stroke-linecap:square;stroke-linejoin:miter;stroke:rgb(0%,0%,50.196078%);stroke-opacity:1;stroke-miterlimit:10;" d="M -0.000603157 -1.000313 L 0.999397 -0.000313238 L -0.000603157 0.999687 L -1.000603 -0.000313238 Z M -0.000603157 -1.000313 " transform="matrix(2.5,0,0,2.5,117.181195,73.543752)"/>
<path style="fill-rule:nonzero;fill:rgb(0%,0%,50.196078%);fill-opacity:1;stroke-width:0.2;stroke-linecap:square;stroke-linejoin:miter;stroke:rgb(0%,0%,50.196078%);stroke-opacity:1;stroke-miterlimit:10;" d="M 0.000329485 -1.000675 L 1.000329 -0.000675324 L 0.000329485 0.999325 L -0.999671 -0.000675324 Z M 0.000329485 -1.000675 " transform="matrix(2.5,0,0,2.5,169.100739,91.603251)"/>
<path style="fill-rule:nonzero;fill:rgb(0%,0%,50.196078%);fill-opacity:1;stroke-width:0.2;stroke-linecap:square;stroke-linejoin:miter;stroke:rgb(0%,0%,50.196078%);stroke-opacity:1;stroke-miterlimit:10;" d="M -0.000300372 -0.999865 L 0.9997 0.000134537 L -0.000300372 1.000135 L -1.0003 0.000134537 Z M -0.000300372 -0.999865 " transform="matrix(2.5,0,0,2.5,221.020282,111.198882)"/>
<path style="fill-rule:nonzero;fill:rgb(0%,0%,50.196078%);fill-opacity:1;stroke-width:0.2;stroke-linecap:square;stroke-linejoin:miter;stroke:rgb(0%,0%,50.196078%);stroke-opacity:1;stroke-miterlimit:10;" d="M 0.00063227 -0.999469 L 1.000632 0.000531347 L 0.00063227 1.000531 L -0.999368 0.000531347 Z M 0.00063227 -0.999469 " transform="matrix(2.5,0,0,2.5,272.939826,129.369765)"/>
<path style="fill-rule:nonzero;fill:rgb(0%,0%,50.196078%);fill-opacity:1;stroke-width:0.2;stroke-linecap:square;stroke-linejoin:miter;stroke:rgb(0%,0%,50.196078%);stroke-opacity:1;stroke-miterlimit:10;" d="M 0.0000024124 -0.999478 L 1.000002 0.000521722 L 0.0000024124 1.000522 L -0.999998 0.000521722 Z M 0.0000024124 -0.999478 " transform="matrix(2.5,0,0,2.5,324.859369,151.369789)"/>
<path style="fill-rule:nonzero;fill:rgb(100%,0%,100%);fill-opacity:1;stroke-width:0.2;stroke-linecap:square;stroke-linejoin:miter;stroke:rgb(100%,0%,100%);stroke-opacity:1;stroke-miterlimit:10;" d="M -1.000603 -1.00056 L -1.000603 0.99944 L 0.999397 0.99944 L 0.999397 -1.00056 Z M -1.000603 -1.00056 " transform="matrix(2.5,0,0,2.5,117.181195,73.852962)"/>
<path style="fill-rule:nonzero;fill:rgb(100%,0%,100%);fill-opacity:1;stroke-width:0.2;stroke-linecap:square;stroke-linejoin:miter;stroke:rgb(100%,0%,100%);stroke-opacity:1;stroke-miterlimit:10;" d="M -0.999671 -0.999441 L -0.999671 1.000559 L 1.000329 1.000559 L 1.000329 -0.999441 Z M -0.999671 -0.999441 " transform="matrix(2.5,0,0,2.5,169.100739,92.260322)"/>
<path style="fill-rule:nonzero;fill:rgb(100%,0%,100%);fill-opacity:1;stroke-width:0.2;stroke-linecap:square;stroke-linejoin:miter;stroke:rgb(100%,0%,100%);stroke-opacity:1;stroke-miterlimit:10;" d="M -1.0003 -0.999773 L -1.0003 1.000227 L 0.9997 1.000227 L 0.9997 -0.999773 Z M -1.0003 -0.999773 " transform="matrix(2.5,0,0,2.5,221.020282,112.202558)"/>
<path style="fill-rule:nonzero;fill:rgb(100%,0%,100%);fill-opacity:1;stroke-width:0.2;stroke-linecap:square;stroke-linejoin:miter;stroke:rgb(100%,0%,100%);stroke-opacity:1;stroke-miterlimit:10;" d="M -0.999368 -0.999543 L -0.999368 1.000457 L 1.000632 1.000457 L 1.000632 -0.999543 Z M -0.999368 -0.999543 " transform="matrix(2.5,0,0,2.5,272.939826,132.248858)"/>
<path style="fill-rule:nonzero;fill:rgb(100%,0%,100%);fill-opacity:1;stroke-width:0.2;stroke-linecap:square;stroke-linejoin:miter;stroke:rgb(100%,0%,100%);stroke-opacity:1;stroke-miterlimit:10;" d="M -0.999998 -1.00028 L -0.999998 0.99972 L 1.000002 0.99972 L 1.000002 -1.00028 Z M -0.999998 -1.00028 " transform="matrix(2.5,0,0,2.5,324.859369,157.004607)"/>
<path style="fill-rule:nonzero;fill:rgb(100%,100%,100%);fill-opacity:1;stroke-width:0.5;stroke-linecap:round;stroke-linejoin:miter;stroke:rgb(0%,0%,0%);stroke-opacity:1;stroke-miterlimit:10;" d="M 54.355469 166.402344 L 174.917969 166.402344 L 174.917969 193.613281 L 54.355469 193.613281 Z M 54.355469 166.402344 "/>
<g clip-path="url(#clip4)" clip-rule="nonzero">
<path style="fill:none;stroke-width:2;stroke-linecap:round;stroke-linejoin:miter;stroke:rgb(0%,0%,0%);stroke-opacity:1;stroke-miterlimit:10;" d="M 59.148438 175.101562 L 89.148438 175.101562 "/>
<path style="fill-rule:nonzero;fill:rgb(0%,0%,50.196078%);fill-opacity:1;stroke-width:0.2;stroke-linecap:square;stroke-linejoin:miter;stroke:rgb(0%,0%,50.196078%);stroke-opacity:1;stroke-miterlimit:10;" d="M -0.000452056 -1.000069 L 0.999548 -0.0000689015 L -0.000452056 0.999931 L -1.000452 -0.0000689015 Z M -0.000452056 -1.000069 " transform="matrix(2.5,0,0,2.5,74.149568,175.101735)"/>
<g style="fill:rgb(0%,0%,0%);fill-opacity:1;">
  <use xlink:href="#glyph0-2" x="94.148438" y="177.621094"/>
  <use xlink:href="#glyph0-3" x="100.445312" y="177.621094"/>
  <use xlink:href="#glyph0-4" x="103.734375" y="177.621094"/>
  <use xlink:href="#glyph0-5" x="105.957031" y="177.621094"/>
  <use xlink:href="#glyph0-4" x="111.035156" y="177.621094"/>
  <use xlink:href="#glyph0-6" x="113.257812" y="177.621094"/>
  <use xlink:href="#glyph0-7" x="118.328125" y="177.621094"/>
  <use xlink:href="#glyph0-8" x="123.230469" y="177.621094"/>
</g>
<path style="fill:none;stroke-width:0.5;stroke-linecap:round;stroke-linejoin:miter;stroke:rgb(100%,0%,100%);stroke-opacity:1;stroke-miterlimit:10;" d="M 58.398438 184.914062 L 89.898438 184.914062 "/>
<path style="fill-rule:nonzero;fill:rgb(100%,0%,100%);fill-opacity:1;stroke-width:0.2;stroke-linecap:square;stroke-linejoin:miter;stroke:rgb(100%,0%,100%);stroke-opacity:1;stroke-miterlimit:10;" d="M -1.000452 -1.000069 L -1.000452 0.999931 L 0.999548 0.999931 L 0.999548 -1.000069 Z M -1.000452 -1.000069 " transform="matrix(2.5,0,0,2.5,74.149568,184.914235)"/>
<g style="fill:rgb(0%,0%,0%);fill-opacity:1;">
  <use xlink:href="#glyph0-9" x="94.148438" y="187.433594"/>
  <use xlink:href="#glyph0-10" x="100.132812" y="187.433594"/>
  <use xlink:href="#glyph0-11" x="105.027344" y="187.433594"/>
  <use xlink:href="#glyph0-12" x="107.570312" y="187.433594"/>
  <use xlink:href="#glyph0-10" x="113.15625" y="187.433594"/>
  <use xlink:href="#glyph0-13" x="118.050781" y="187.433594"/>
  <use xlink:href="#glyph0-13" x="125.84375" y="187.433594"/>
  <use xlink:href="#glyph0-14" x="133.636719" y="187.433594"/>
  <use xlink:href="#glyph0-6" x="138.707031" y="187.433594"/>
  <use xlink:href="#glyph0-4" x="143.777344" y="187.433594"/>
  <use xlink:href="#glyph0-15" x="146" y="187.433594"/>
  <use xlink:href="#glyph0-7" x="150.398438" y="187.433594"/>
  <use xlink:href="#glyph0-16" x="155.300781" y="187.433594"/>
  <use xlink:href="#glyph0-4" x="158.4375" y="187.433594"/>
  <use xlink:href="#glyph0-10" x="160.660156" y="187.433594"/>
  <use xlink:href="#glyph0-6" x="165.554688" y="187.433594"/>
</g>
</g>
</g>
</g>
</svg>
