<?xml version="1.0" encoding="UTF-8" standalone="no"?>
<!-- Created with Inkscape (http://www.inkscape.org/) -->

<svg
   xmlns:dc="http://purl.org/dc/elements/1.1/"
   xmlns:cc="http://creativecommons.org/ns#"
   xmlns:rdf="http://www.w3.org/1999/02/22-rdf-syntax-ns#"
   xmlns:svg="http://www.w3.org/2000/svg"
   xmlns="http://www.w3.org/2000/svg"
   xmlns:sodipodi="http://sodipodi.sourceforge.net/DTD/sodipodi-0.dtd"
   xmlns:inkscape="http://www.inkscape.org/namespaces/inkscape"
   width="546.22687"
   height="360.09412"
   id="svg8433"
   version="1.1"
   inkscape:version="0.48.4 r9939"
   sodipodi:docname="rotation_functions.svg">
  <sodipodi:namedview
     id="base"
     pagecolor="#ffffff"
     bordercolor="#666666"
     borderopacity="1.0"
     inkscape:pageopacity="0.0"
     inkscape:pageshadow="2"
     inkscape:zoom="1.7239075"
     inkscape:cx="366.23319"
     inkscape:cy="140.32526"
     inkscape:document-units="px"
     inkscape:current-layer="layer1"
     showgrid="false"
     inkscape:window-width="1920"
     inkscape:window-height="1150"
     inkscape:window-x="0"
     inkscape:window-y="31"
     inkscape:window-maximized="1"
     showguides="false"
     inkscape:guide-bbox="true"
     fit-margin-top="0"
     fit-margin-left="0"
     fit-margin-right="0"
     fit-margin-bottom="0">
    <sodipodi:guide
       id="guide5751"
       position="171.36975,225.97228"
       orientation="-0.70710678,0.70710678" />
    <sodipodi:guide
       id="guide5753"
       position="171.0126,185.52585"
       orientation="-0.70710678,0.70710678" />
    <sodipodi:guide
       id="guide5755"
       position="174.69807,210.44454"
       orientation="-0.70710678,0.70710678" />
  </sodipodi:namedview>
  <defs
     id="defs8435">
    <marker
       inkscape:stockid="Arrow1Mend"
       orient="auto"
       refY="0"
       refX="0"
       id="Arrow1Mend"
       style="overflow:visible">
      <path
         id="path4051"
         d="M 0,0 5,-5 -12.5,0 5,5 0,0 z"
         style="fill-rule:evenodd;stroke:#000000;stroke-width:1pt"
         transform="matrix(-0.4,0,0,-0.4,-4,0)"
         inkscape:connector-curvature="0" />
    </marker>
    <marker
       inkscape:stockid="Arrow1Send"
       orient="auto"
       refY="0"
       refX="0"
       id="Arrow1Send"
       style="overflow:visible">
      <path
         id="path4057"
         d="M 0,0 5,-5 -12.5,0 5,5 0,0 z"
         style="fill-rule:evenodd;stroke:#000000;stroke-width:1pt"
         transform="matrix(-0.2,0,0,-0.2,-1.2,0)"
         inkscape:connector-curvature="0" />
    </marker>
    <marker
       inkscape:stockid="Arrow2Mend"
       orient="auto"
       refY="0"
       refX="0"
       id="Arrow2Mend-2"
       style="overflow:visible">
      <path
         inkscape:connector-curvature="0"
         id="path67842-0"
         style="font-size:12px;fill-rule:evenodd;stroke-width:0.625;stroke-linejoin:round"
         d="M 8.7185878,4.0337352 -2.2072895,0.01601326 8.7185884,-4.0017078 c -1.7454984,2.3720609 -1.7354408,5.6174519 -6e-7,8.035443 z"
         transform="scale(-0.6,-0.6)" />
    </marker>
    <marker
       inkscape:stockid="Arrow2Mend"
       orient="auto"
       refY="0"
       refX="0"
       id="marker8453"
       style="overflow:visible">
      <path
         inkscape:connector-curvature="0"
         id="path8455"
         style="font-size:12px;fill-rule:evenodd;stroke-width:0.625;stroke-linejoin:round"
         d="M 8.7185878,4.0337352 -2.2072895,0.01601326 8.7185884,-4.0017078 c -1.7454984,2.3720609 -1.7354408,5.6174519 -6e-7,8.035443 z"
         transform="scale(-0.6,-0.6)" />
    </marker>
    <marker
       inkscape:stockid="Arrow2Mend"
       orient="auto"
       refY="0"
       refX="0"
       id="Arrow2Mend-2-2"
       style="overflow:visible">
      <path
         inkscape:connector-curvature="0"
         id="path67842-0-2"
         style="font-size:12px;fill-rule:evenodd;stroke-width:0.625;stroke-linejoin:round"
         d="M 8.7185878,4.0337352 -2.2072895,0.01601326 8.7185884,-4.0017078 c -1.7454984,2.3720609 -1.7354408,5.6174519 -6e-7,8.035443 z"
         transform="scale(-0.6,-0.6)" />
    </marker>
    <marker
       inkscape:stockid="Arrow2Mend"
       orient="auto"
       refY="0"
       refX="0"
       id="Arrow2Mend-2-7"
       style="overflow:visible">
      <path
         inkscape:connector-curvature="0"
         id="path67842-0-0"
         style="font-size:12px;fill-rule:evenodd;stroke-width:0.625;stroke-linejoin:round"
         d="M 8.7185878,4.0337352 -2.2072895,0.01601326 8.7185884,-4.0017078 c -1.7454984,2.3720609 -1.7354408,5.6174519 -6e-7,8.035443 z"
         transform="scale(-0.6,-0.6)" />
    </marker>
    <marker
       inkscape:stockid="Arrow2Mend"
       orient="auto"
       refY="0"
       refX="0"
       id="Arrow2Mend-2-9"
       style="overflow:visible">
      <path
         inkscape:connector-curvature="0"
         id="path67842-0-8"
         style="font-size:12px;fill-rule:evenodd;stroke-width:0.625;stroke-linejoin:round"
         d="M 8.7185878,4.0337352 -2.2072895,0.01601326 8.7185884,-4.0017078 c -1.7454984,2.3720609 -1.7354408,5.6174519 -6e-7,8.035443 z"
         transform="scale(-0.6,-0.6)" />
    </marker>
    <marker
       inkscape:stockid="Arrow2Mend"
       orient="auto"
       refY="0"
       refX="0"
       id="Arrow2Mend-2-1"
       style="overflow:visible">
      <path
         inkscape:connector-curvature="0"
         id="path67842-0-87"
         style="font-size:12px;fill-rule:evenodd;stroke-width:0.625;stroke-linejoin:round"
         d="M 8.7185878,4.0337352 -2.2072895,0.01601326 8.7185884,-4.0017078 c -1.7454984,2.3720609 -1.7354408,5.6174519 -6e-7,8.035443 z"
         transform="scale(-0.6,-0.6)" />
    </marker>
    <marker
       inkscape:stockid="Arrow2Mend"
       orient="auto"
       refY="0"
       refX="0"
       id="marker8560"
       style="overflow:visible">
      <path
         inkscape:connector-curvature="0"
         id="path8562"
         style="font-size:12px;fill-rule:evenodd;stroke-width:0.625;stroke-linejoin:round"
         d="M 8.7185878,4.0337352 -2.2072895,0.01601326 8.7185884,-4.0017078 c -1.7454984,2.3720609 -1.7354408,5.6174519 -6e-7,8.035443 z"
         transform="scale(-0.6,-0.6)" />
    </marker>
    <marker
       inkscape:stockid="Arrow2Mend"
       orient="auto"
       refY="0"
       refX="0"
       id="marker8564"
       style="overflow:visible">
      <path
         inkscape:connector-curvature="0"
         id="path8566"
         style="font-size:12px;fill-rule:evenodd;stroke-width:0.625;stroke-linejoin:round"
         d="M 8.7185878,4.0337352 -2.2072895,0.01601326 8.7185884,-4.0017078 c -1.7454984,2.3720609 -1.7354408,5.6174519 -6e-7,8.035443 z"
         transform="scale(-0.6,-0.6)" />
    </marker>
    <marker
       inkscape:stockid="Arrow2Mend"
       orient="auto"
       refY="0"
       refX="0"
       id="marker8568"
       style="overflow:visible">
      <path
         inkscape:connector-curvature="0"
         id="path8570"
         style="font-size:12px;fill-rule:evenodd;stroke-width:0.625;stroke-linejoin:round"
         d="M 8.7185878,4.0337352 -2.2072895,0.01601326 8.7185884,-4.0017078 c -1.7454984,2.3720609 -1.7354408,5.6174519 -6e-7,8.035443 z"
         transform="scale(-0.6,-0.6)" />
    </marker>
    <marker
       inkscape:stockid="Arrow2Mend"
       orient="auto"
       refY="0"
       refX="0"
       id="Arrow2Mend-2-90"
       style="overflow:visible">
      <path
         inkscape:connector-curvature="0"
         id="path67842-0-01"
         style="font-size:12px;fill-rule:evenodd;stroke-width:0.625;stroke-linejoin:round"
         d="M 8.7185878,4.0337352 -2.2072895,0.01601326 8.7185884,-4.0017078 c -1.7454984,2.3720609 -1.7354408,5.6174519 -6e-7,8.035443 z"
         transform="scale(-0.6,-0.6)" />
    </marker>
    <marker
       inkscape:stockid="Arrow2Mend"
       orient="auto"
       refY="0"
       refX="0"
       id="Arrow2Mend-2-75"
       style="overflow:visible">
      <path
         inkscape:connector-curvature="0"
         id="path67842-0-1"
         style="font-size:12px;fill-rule:evenodd;stroke-width:0.625;stroke-linejoin:round"
         d="M 8.7185878,4.0337352 -2.2072895,0.01601326 8.7185884,-4.0017078 c -1.7454984,2.3720609 -1.7354408,5.6174519 -6e-7,8.035443 z"
         transform="scale(-0.6,-0.6)" />
    </marker>
    <marker
       inkscape:stockid="Arrow2Mend"
       orient="auto"
       refY="0"
       refX="0"
       id="Arrow2Mend-2-3"
       style="overflow:visible">
      <path
         inkscape:connector-curvature="0"
         id="path67842-0-9"
         style="font-size:12px;fill-rule:evenodd;stroke-width:0.625;stroke-linejoin:round"
         d="M 8.7185878,4.0337352 -2.2072895,0.01601326 8.7185884,-4.0017078 c -1.7454984,2.3720609 -1.7354408,5.6174519 -6e-7,8.035443 z"
         transform="scale(-0.6,-0.6)" />
    </marker>
    <marker
       inkscape:stockid="Arrow2Mend"
       orient="auto"
       refY="0"
       refX="0"
       id="Arrow2Mend-2-96"
       style="overflow:visible">
      <path
         inkscape:connector-curvature="0"
         id="path67842-0-4"
         style="font-size:12px;fill-rule:evenodd;stroke-width:0.625;stroke-linejoin:round"
         d="M 8.7185878,4.0337352 -2.2072895,0.01601326 8.7185884,-4.0017078 c -1.7454984,2.3720609 -1.7354408,5.6174519 -6e-7,8.035443 z"
         transform="scale(-0.6,-0.6)" />
    </marker>
    <marker
       inkscape:stockid="Arrow2Mend"
       orient="auto"
       refY="0"
       refX="0"
       id="marker8695"
       style="overflow:visible">
      <path
         inkscape:connector-curvature="0"
         id="path8697"
         style="font-size:12px;fill-rule:evenodd;stroke-width:0.625;stroke-linejoin:round"
         d="M 8.7185878,4.0337352 -2.2072895,0.01601326 8.7185884,-4.0017078 c -1.7454984,2.3720609 -1.7354408,5.6174519 -6e-7,8.035443 z"
         transform="scale(-0.6,-0.6)" />
    </marker>
    <marker
       inkscape:stockid="Arrow2Mend"
       orient="auto"
       refY="0"
       refX="0"
       id="marker8699"
       style="overflow:visible">
      <path
         inkscape:connector-curvature="0"
         id="path8701"
         style="font-size:12px;fill-rule:evenodd;stroke-width:0.625;stroke-linejoin:round"
         d="M 8.7185878,4.0337352 -2.2072895,0.01601326 8.7185884,-4.0017078 c -1.7454984,2.3720609 -1.7354408,5.6174519 -6e-7,8.035443 z"
         transform="scale(-0.6,-0.6)" />
    </marker>
    <marker
       inkscape:stockid="Arrow2Mend"
       orient="auto"
       refY="0"
       refX="0"
       id="marker8703"
       style="overflow:visible">
      <path
         inkscape:connector-curvature="0"
         id="path8705"
         style="font-size:12px;fill-rule:evenodd;stroke-width:0.625;stroke-linejoin:round"
         d="M 8.7185878,4.0337352 -2.2072895,0.01601326 8.7185884,-4.0017078 c -1.7454984,2.3720609 -1.7354408,5.6174519 -6e-7,8.035443 z"
         transform="scale(-0.6,-0.6)" />
    </marker>
    <marker
       inkscape:stockid="Arrow2Mend"
       orient="auto"
       refY="0"
       refX="0"
       id="Arrow2Mend-2-4"
       style="overflow:visible">
      <path
         inkscape:connector-curvature="0"
         id="path67842-0-91"
         style="font-size:12px;fill-rule:evenodd;stroke-width:0.625;stroke-linejoin:round"
         d="M 8.7185878,4.0337352 -2.2072895,0.01601326 8.7185884,-4.0017078 c -1.7454984,2.3720609 -1.7354408,5.6174519 -6e-7,8.035443 z"
         transform="scale(-0.6,-0.6)" />
    </marker>
    <marker
       inkscape:stockid="Arrow2Mend"
       orient="auto"
       refY="0"
       refX="0"
       id="Arrow2Mend-2-8"
       style="overflow:visible">
      <path
         inkscape:connector-curvature="0"
         id="path67842-0-99"
         style="font-size:12px;fill-rule:evenodd;stroke-width:0.625;stroke-linejoin:round"
         d="M 8.7185878,4.0337352 -2.2072895,0.01601326 8.7185884,-4.0017078 c -1.7454984,2.3720609 -1.7354408,5.6174519 -6e-7,8.035443 z"
         transform="scale(-0.6,-0.6)" />
    </marker>
    <marker
       inkscape:stockid="Arrow2Mend"
       orient="auto"
       refY="0"
       refX="0"
       id="Arrow2Mend-2-960"
       style="overflow:visible">
      <path
         inkscape:connector-curvature="0"
         id="path67842-0-7"
         style="font-size:12px;fill-rule:evenodd;stroke-width:0.625;stroke-linejoin:round"
         d="M 8.7185878,4.0337352 -2.2072895,0.01601326 8.7185884,-4.0017078 c -1.7454984,2.3720609 -1.7354408,5.6174519 -6e-7,8.035443 z"
         transform="scale(-0.6,-0.6)" />
    </marker>
    <marker
       inkscape:stockid="Arrow2Mend"
       orient="auto"
       refY="0"
       refX="0"
       id="Arrow2Mend-2-22"
       style="overflow:visible">
      <path
         inkscape:connector-curvature="0"
         id="path67842-0-10"
         style="font-size:12px;fill-rule:evenodd;stroke-width:0.625;stroke-linejoin:round"
         d="M 8.7185878,4.0337352 -2.2072895,0.01601326 8.7185884,-4.0017078 c -1.7454984,2.3720609 -1.7354408,5.6174519 -6e-7,8.035443 z"
         transform="scale(-0.6,-0.6)" />
    </marker>
    <marker
       inkscape:stockid="Arrow2Mend"
       orient="auto"
       refY="0"
       refX="0"
       id="Arrow2Mend-2-25"
       style="overflow:visible">
      <path
         inkscape:connector-curvature="0"
         id="path67842-0-876"
         style="font-size:12px;fill-rule:evenodd;stroke-width:0.625;stroke-linejoin:round"
         d="M 8.7185878,4.0337352 -2.2072895,0.01601326 8.7185884,-4.0017078 c -1.7454984,2.3720609 -1.7354408,5.6174519 -6e-7,8.035443 z"
         transform="scale(-0.6,-0.6)" />
    </marker>
    <marker
       inkscape:stockid="Arrow2Mend"
       orient="auto"
       refY="0"
       refX="0"
       id="Arrow2Mend-2-5"
       style="overflow:visible">
      <path
         inkscape:connector-curvature="0"
         id="path67842-0-05"
         style="font-size:12px;fill-rule:evenodd;stroke-width:0.625;stroke-linejoin:round"
         d="M 8.7185878,4.0337352 -2.2072895,0.01601326 8.7185884,-4.0017078 c -1.7454984,2.3720609 -1.7354408,5.6174519 -6e-7,8.035443 z"
         transform="scale(-0.6,-0.6)" />
    </marker>
    <marker
       inkscape:stockid="Arrow2Mend"
       orient="auto"
       refY="0"
       refX="0"
       id="marker59618"
       style="overflow:visible">
      <path
         inkscape:connector-curvature="0"
         id="path59620"
         style="font-size:12px;fill-rule:evenodd;stroke-width:0.625;stroke-linejoin:round"
         d="M 8.7185878,4.0337352 -2.2072895,0.01601326 8.7185884,-4.0017078 c -1.7454984,2.3720609 -1.7354408,5.6174519 -6e-7,8.035443 z"
         transform="scale(-0.6,-0.6)" />
    </marker>
    <marker
       inkscape:stockid="Arrow2Mend"
       orient="auto"
       refY="0"
       refX="0"
       id="marker59622"
       style="overflow:visible">
      <path
         inkscape:connector-curvature="0"
         id="path59624"
         style="font-size:12px;fill-rule:evenodd;stroke-width:0.625;stroke-linejoin:round"
         d="M 8.7185878,4.0337352 -2.2072895,0.01601326 8.7185884,-4.0017078 c -1.7454984,2.3720609 -1.7354408,5.6174519 -6e-7,8.035443 z"
         transform="scale(-0.6,-0.6)" />
    </marker>
    <marker
       inkscape:stockid="Arrow2Mend"
       orient="auto"
       refY="0"
       refX="0"
       id="marker59626"
       style="overflow:visible">
      <path
         inkscape:connector-curvature="0"
         id="path59628"
         style="font-size:12px;fill-rule:evenodd;stroke-width:0.625;stroke-linejoin:round"
         d="M 8.7185878,4.0337352 -2.2072895,0.01601326 8.7185884,-4.0017078 c -1.7454984,2.3720609 -1.7354408,5.6174519 -6e-7,8.035443 z"
         transform="scale(-0.6,-0.6)" />
    </marker>
    <marker
       inkscape:stockid="Arrow2Mend"
       orient="auto"
       refY="0"
       refX="0"
       id="marker59630"
       style="overflow:visible">
      <path
         inkscape:connector-curvature="0"
         id="path59632"
         style="font-size:12px;fill-rule:evenodd;stroke-width:0.625;stroke-linejoin:round"
         d="M 8.7185878,4.0337352 -2.2072895,0.01601326 8.7185884,-4.0017078 c -1.7454984,2.3720609 -1.7354408,5.6174519 -6e-7,8.035443 z"
         transform="scale(-0.6,-0.6)" />
    </marker>
    <marker
       inkscape:stockid="Arrow2Mend"
       orient="auto"
       refY="0"
       refX="0"
       id="Arrow2Mend-2-72"
       style="overflow:visible">
      <path
         inkscape:connector-curvature="0"
         id="path67842-0-3"
         style="font-size:12px;fill-rule:evenodd;stroke-width:0.625;stroke-linejoin:round"
         d="M 8.7185878,4.0337352 -2.2072895,0.01601326 8.7185884,-4.0017078 c -1.7454984,2.3720609 -1.7354408,5.6174519 -6e-7,8.035443 z"
         transform="scale(-0.6,-0.6)" />
    </marker>
    <marker
       inkscape:stockid="Arrow1MendF"
       orient="auto"
       refY="0"
       refX="0"
       id="Arrow1MendF"
       style="overflow:visible">
      <path
         id="path5543"
         d="M 0,0 5,-5 -12.5,0 5,5 0,0 z"
         style="fill:#b3b3b3;fill-rule:evenodd;stroke:#b3b3b3;stroke-width:1pt"
         transform="matrix(-0.4,0,0,-0.4,-4,0)"
         inkscape:connector-curvature="0" />
    </marker>
    <marker
       inkscape:stockid="Arrow1MendE"
       orient="auto"
       refY="0"
       refX="0"
       id="Arrow1MendE"
       style="overflow:visible">
      <path
         id="path6097"
         d="M 0,0 5,-5 -12.5,0 5,5 0,0 z"
         style="fill:#cccccc;fill-rule:evenodd;stroke:#cccccc;stroke-width:1pt"
         transform="matrix(-0.4,0,0,-0.4,-4,0)"
         inkscape:connector-curvature="0" />
    </marker>
  </defs>
  <metadata
     id="metadata8438">
    <rdf:RDF>
      <cc:Work
         rdf:about="">
        <dc:format>image/svg+xml</dc:format>
        <dc:type
           rdf:resource="http://purl.org/dc/dcmitype/StillImage" />
        <dc:title />
      </cc:Work>
    </rdf:RDF>
  </metadata>
  <g
     inkscape:label="Layer 1"
     inkscape:groupmode="layer"
     id="layer1"
     transform="translate(-27.648108,-21.543942)">
    <text
       xml:space="preserve"
       style="font-size:8px;font-style:normal;font-variant:normal;font-weight:normal;font-stretch:normal;text-align:start;line-height:125%;letter-spacing:0px;word-spacing:0px;writing-mode:lr-tb;text-anchor:start;fill:#000000;fill-opacity:1;stroke:none;font-family:Sans;-inkscape-font-specification:Sans"
       x="83.667847"
       y="80.25161"
       id="text8900"
       sodipodi:linespacing="125%"><tspan
         sodipodi:role="line"
         id="tspan8902"
         x="83.667847"
         y="80.25161"
         style="font-size:16px;font-weight:bold">Clockwise Rotation</tspan></text>
    <text
       xml:space="preserve"
       style="font-size:8px;font-style:normal;font-variant:normal;font-weight:normal;font-stretch:normal;text-align:start;line-height:125%;letter-spacing:0px;word-spacing:0px;writing-mode:lr-tb;text-anchor:start;fill:#000000;fill-opacity:1;stroke:none;font-family:Sans;-inkscape-font-specification:Sans"
       x="326.52997"
       y="80.25161"
       id="text8904"
       sodipodi:linespacing="125%"><tspan
         sodipodi:role="line"
         id="tspan8906"
         x="326.52997"
         y="80.25161"
         style="font-size:16px;font-weight:bold">Counterclockwise Rotation</tspan></text>
    <path
       style="fill:none;stroke:#000000;stroke-width:1px;stroke-linecap:butt;stroke-linejoin:miter;stroke-opacity:1"
       d="m 74.543136,85.219325 200.000004,0"
       id="path6393"
       inkscape:connector-curvature="0" />
    <path
       inkscape:connector-curvature="0"
       id="path6395"
       d="m 318.88458,85.219325 255,0"
       style="fill:none;stroke:#000000;stroke-width:1px;stroke-linecap:butt;stroke-linejoin:miter;stroke-opacity:1"
       sodipodi:nodetypes="cc" />
    <path
       sodipodi:nodetypes="cssc"
       style="fill:none;stroke:#cccccc;stroke-width:1px;stroke-linecap:butt;stroke-linejoin:miter;stroke-opacity:1;marker-end:url(#Arrow1MendE)"
       d="m 227.53333,140.07259 c 0,0 -4.43641,4.95564 -5.40102,6.15694 -16.54298,20.60199 -29.1234,-0.3107 -53.43825,10.02855 -4.12298,1.75319 -10.64266,10.0944 -10.64266,10.0944"
       id="path6603"
       inkscape:connector-curvature="0" />
    <g
       id="g7771"
       transform="translate(-51.423207,0)">
      <text
         sodipodi:linespacing="125%"
         id="text6599"
         y="40.189335"
         x="217.23955"
         style="font-size:12.10289192px;font-style:normal;font-variant:normal;font-weight:normal;font-stretch:normal;text-align:start;line-height:125%;letter-spacing:0px;word-spacing:0px;writing-mode:lr-tb;text-anchor:start;fill:#000000;fill-opacity:1;stroke:none;font-family:Sans;-inkscape-font-specification:Sans"
         xml:space="preserve"><tspan
           y="40.189335"
           x="217.23955"
           id="tspan6601"
           sodipodi:role="line">let N =   0  1 ,  1 1  , 1 0  , 0 -1  , -1 -1  , -1 0</tspan></text>
      <path
         style="fill:none;stroke:#000000;stroke-width:0.5;stroke-linecap:butt;stroke-linejoin:miter;stroke-miterlimit:4;stroke-opacity:1;stroke-dasharray:none"
         d="m 273.50067,26.786092 -5.3033,9.48301 5.3033,9.48301"
         id="path6651"
         inkscape:connector-curvature="0"
         sodipodi:nodetypes="ccc" />
      <path
         sodipodi:nodetypes="ccc"
         inkscape:connector-curvature="0"
         id="path6653"
         d="m 291.38165,26.786092 5.3033,9.48301 -5.3033,9.48301"
         style="fill:none;stroke:#000000;stroke-width:0.5;stroke-linecap:butt;stroke-linejoin:miter;stroke-miterlimit:4;stroke-opacity:1;stroke-dasharray:none" />
      <text
         transform="scale(0.77962084,1.2826748)"
         sodipodi:linespacing="125%"
         id="text6657"
         y="35.782948"
         x="333.38721"
         style="font-size:24.99039268px;font-style:normal;font-variant:normal;font-weight:normal;font-stretch:normal;text-align:start;line-height:125%;letter-spacing:0px;word-spacing:0px;writing-mode:lr-tb;text-anchor:start;fill:#000000;fill-opacity:1;stroke:none;font-family:Sans;-inkscape-font-specification:Sans"
         xml:space="preserve"><tspan
           y="35.782948"
           x="333.38721"
           id="tspan6659"
           sodipodi:role="line">[</tspan></text>
      <text
         xml:space="preserve"
         style="font-size:24.99039268px;font-style:normal;font-variant:normal;font-weight:normal;font-stretch:normal;text-align:start;line-height:125%;letter-spacing:0px;word-spacing:0px;writing-mode:lr-tb;text-anchor:start;fill:#000000;fill-opacity:1;stroke:none;font-family:Sans;-inkscape-font-specification:Sans"
         x="-639.06451"
         y="36.122253"
         id="text6661"
         sodipodi:linespacing="125%"
         transform="scale(-0.77962084,1.2826748)"><tspan
           sodipodi:role="line"
           id="tspan6663"
           x="-639.06451"
           y="36.122253">[</tspan></text>
      <path
         sodipodi:nodetypes="ccc"
         inkscape:connector-curvature="0"
         id="path6667"
         d="m 310.43803,26.786092 -5.3033,9.48301 5.3033,9.48301"
         style="fill:none;stroke:#000000;stroke-width:0.5;stroke-linecap:butt;stroke-linejoin:miter;stroke-miterlimit:4;stroke-opacity:1;stroke-dasharray:none" />
      <path
         style="fill:none;stroke:#000000;stroke-width:0.5;stroke-linecap:butt;stroke-linejoin:miter;stroke-miterlimit:4;stroke-opacity:1;stroke-dasharray:none"
         d="m 328.31901,26.786092 5.3033,9.48301 -5.3033,9.48301"
         id="path6669"
         inkscape:connector-curvature="0"
         sodipodi:nodetypes="ccc" />
      <path
         style="fill:none;stroke:#000000;stroke-width:0.5;stroke-linecap:butt;stroke-linejoin:miter;stroke-miterlimit:4;stroke-opacity:1;stroke-dasharray:none"
         d="m 346.09475,26.786092 -5.3033,9.48301 5.3033,9.48301"
         id="path6671"
         inkscape:connector-curvature="0"
         sodipodi:nodetypes="ccc" />
      <path
         sodipodi:nodetypes="ccc"
         inkscape:connector-curvature="0"
         id="path6673"
         d="m 362.71304,26.786092 5.3033,9.48301 -5.3033,9.48301"
         style="fill:none;stroke:#000000;stroke-width:0.5;stroke-linecap:butt;stroke-linejoin:miter;stroke-miterlimit:4;stroke-opacity:1;stroke-dasharray:none" />
      <path
         sodipodi:nodetypes="ccc"
         inkscape:connector-curvature="0"
         id="path6675"
         d="m 382.03465,26.786092 -5.3033,9.48301 5.3033,9.48301"
         style="fill:none;stroke:#000000;stroke-width:0.5;stroke-linecap:butt;stroke-linejoin:miter;stroke-miterlimit:4;stroke-opacity:1;stroke-dasharray:none" />
      <path
         style="fill:none;stroke:#000000;stroke-width:0.5;stroke-linecap:butt;stroke-linejoin:miter;stroke-miterlimit:4;stroke-opacity:1;stroke-dasharray:none"
         d="m 401.80967,26.786092 5.3033,9.48301 -5.3033,9.48301"
         id="path6677"
         inkscape:connector-curvature="0"
         sodipodi:nodetypes="ccc" />
      <path
         style="fill:none;stroke:#000000;stroke-width:0.5;stroke-linecap:butt;stroke-linejoin:miter;stroke-miterlimit:4;stroke-opacity:1;stroke-dasharray:none"
         d="m 421.41599,26.786092 -5.3033,9.48301 5.3033,9.48301"
         id="path6679"
         inkscape:connector-curvature="0"
         sodipodi:nodetypes="ccc" />
      <path
         sodipodi:nodetypes="ccc"
         inkscape:connector-curvature="0"
         id="path6681"
         d="m 445.10535,26.786092 5.3033,9.48301 -5.3033,9.48301"
         style="fill:none;stroke:#000000;stroke-width:0.5;stroke-linecap:butt;stroke-linejoin:miter;stroke-miterlimit:4;stroke-opacity:1;stroke-dasharray:none" />
      <path
         sodipodi:nodetypes="ccc"
         inkscape:connector-curvature="0"
         id="path6683"
         d="m 465.47301,26.786092 -5.3033,9.48301 5.3033,9.48301"
         style="fill:none;stroke:#000000;stroke-width:0.5;stroke-linecap:butt;stroke-linejoin:miter;stroke-miterlimit:4;stroke-opacity:1;stroke-dasharray:none" />
      <path
         style="fill:none;stroke:#000000;stroke-width:0.5;stroke-linecap:butt;stroke-linejoin:miter;stroke-miterlimit:4;stroke-opacity:1;stroke-dasharray:none"
         d="m 483.35399,26.786092 5.3033,9.48301 -5.3033,9.48301"
         id="path6685"
         inkscape:connector-curvature="0"
         sodipodi:nodetypes="ccc" />
    </g>
    <g
       id="g7324"
       transform="translate(0,-29.433228)">
      <g
         transform="translate(-6.6331485,-5.2564032)"
         id="g7233">
        <path
           style="fill:none;stroke:#000000;stroke-width:1.93471825px;stroke-linecap:butt;stroke-linejoin:miter;stroke-opacity:1;marker-end:url(#Arrow2Mend-2)"
           d="m 63.952516,285.35553 -2e-5,20.92431 -17.619763,17.61977"
           id="path140305-1-6-6"
           inkscape:connector-curvature="0"
           sodipodi:nodetypes="ccc" />
        <path
           sodipodi:nodetypes="ccc"
           inkscape:connector-curvature="0"
           id="path6631"
           d="m 60.742608,304.56411 3.201026,4.23077 3.201025,-4.23077"
           style="fill:#b3b3b3;stroke:#b3b3b3;stroke-width:1.69005501px;stroke-linecap:butt;stroke-linejoin:miter;stroke-opacity:1" />
      </g>
      <text
         sodipodi:linespacing="125%"
         id="text6986"
         y="286.47849"
         x="81.140068"
         style="font-size:12.10289192px;font-style:normal;font-variant:normal;font-weight:normal;font-stretch:normal;text-align:start;line-height:125%;letter-spacing:0px;word-spacing:0px;writing-mode:lr-tb;text-anchor:start;fill:#000000;fill-opacity:1;stroke:none;font-family:Sans;-inkscape-font-specification:Sans"
         xml:space="preserve"><tspan
           y="286.47849"
           x="81.140068"
           id="tspan6988"
           sodipodi:role="line" /><tspan
           style="font-size:15px"
           id="tspan7002"
           y="304.49478"
           x="81.140068"
           sodipodi:role="line">r  N, 1,  0 -1   =  -1 -1</tspan></text>
      <g
         id="g7117"
         transform="translate(0,-59.086614)">
        <path
           sodipodi:nodetypes="ccc"
           inkscape:connector-curvature="0"
           id="path7119"
           d="m 139.64544,349.40357 -5.3033,9.48301 5.3033,9.48301"
           style="fill:none;stroke:#000000;stroke-width:0.5;stroke-linecap:butt;stroke-linejoin:miter;stroke-miterlimit:4;stroke-opacity:1;stroke-dasharray:none" />
        <path
           style="fill:none;stroke:#000000;stroke-width:0.5;stroke-linecap:butt;stroke-linejoin:miter;stroke-miterlimit:4;stroke-opacity:1;stroke-dasharray:none"
           d="m 170.32045,349.40357 5.3033,9.48301 -5.3033,9.48301"
           id="path7121"
           inkscape:connector-curvature="0"
           sodipodi:nodetypes="ccc" />
      </g>
      <g
         transform="translate(0,-2.0720138)"
         id="g7261">
        <text
           xml:space="preserve"
           style="font-size:24.17513847px;font-style:normal;font-variant:normal;font-weight:normal;font-stretch:normal;text-align:start;line-height:125%;letter-spacing:0px;word-spacing:0px;writing-mode:lr-tb;text-anchor:start;fill:#000000;fill-opacity:1;stroke:none;font-family:Sans;-inkscape-font-specification:Sans"
           x="108.28536"
           y="258.22403"
           id="text7155"
           sodipodi:linespacing="125%"
           transform="scale(0.83030458,1.2043773)"><tspan
             sodipodi:role="line"
             id="tspan7157"
             x="108.28536"
             y="258.22403">( </tspan></text>
        <text
           transform="scale(-0.83030458,1.2043773)"
           sodipodi:linespacing="125%"
           id="text7159"
           y="258.22403"
           x="-220.23471"
           style="font-size:24.17513847px;font-style:normal;font-variant:normal;font-weight:normal;font-stretch:normal;text-align:start;line-height:125%;letter-spacing:0px;word-spacing:0px;writing-mode:lr-tb;text-anchor:start;fill:#000000;fill-opacity:1;stroke:none;font-family:Sans;-inkscape-font-specification:Sans"
           xml:space="preserve"><tspan
             y="258.22403"
             x="-220.23471"
             id="tspan7161"
             sodipodi:role="line">( </tspan></text>
      </g>
      <g
         transform="translate(0,-0.84151414)"
         id="g7191">
        <path
           sodipodi:nodetypes="ccc"
           inkscape:connector-curvature="0"
           id="path7187"
           d="m 209.47803,291.15847 -5.3033,9.48301 5.3033,9.48301"
           style="fill:none;stroke:#000000;stroke-width:0.5;stroke-linecap:butt;stroke-linejoin:miter;stroke-miterlimit:4;stroke-opacity:1;stroke-dasharray:none" />
        <path
           style="fill:none;stroke:#000000;stroke-width:0.5;stroke-linecap:butt;stroke-linejoin:miter;stroke-miterlimit:4;stroke-opacity:1;stroke-dasharray:none"
           d="m 240.15304,291.15847 5.3033,9.48301 -5.3033,9.48301"
           id="path7189"
           inkscape:connector-curvature="0"
           sodipodi:nodetypes="ccc" />
      </g>
    </g>
    <g
       id="g7304"
       transform="translate(0,-41.773)">
      <g
         transform="translate(0,0.00731894)"
         id="g7107">
        <path
           sodipodi:nodetypes="ccc"
           inkscape:connector-curvature="0"
           id="path5784"
           d="m 139.64544,349.40357 -5.3033,9.48301 5.3033,9.48301"
           style="fill:none;stroke:#000000;stroke-width:0.5;stroke-linecap:butt;stroke-linejoin:miter;stroke-miterlimit:4;stroke-opacity:1;stroke-dasharray:none" />
        <path
           style="fill:none;stroke:#000000;stroke-width:0.5;stroke-linecap:butt;stroke-linejoin:miter;stroke-miterlimit:4;stroke-opacity:1;stroke-dasharray:none"
           d="m 170.32045,349.40357 5.3033,9.48301 -5.3033,9.48301"
           id="path5786"
           inkscape:connector-curvature="0"
           sodipodi:nodetypes="ccc" />
      </g>
      <g
         transform="translate(0.81474815,-4.3250788)"
         id="g7229">
        <path
           style="fill:none;stroke:#000000;stroke-width:1.93471825px;stroke-linecap:butt;stroke-linejoin:miter;stroke-opacity:1;marker-end:url(#Arrow2Mend-2)"
           d="m 69.468366,353.96356 -14.79576,14.79571 -24.918083,0"
           id="path140305-1-6-9-3"
           inkscape:connector-curvature="0"
           sodipodi:nodetypes="ccc" />
        <path
           style="fill:#b3b3b3;stroke:#b3b3b3;stroke-width:1.69005501px;stroke-linecap:butt;stroke-linejoin:miter;stroke-opacity:1"
           d="m 58.414377,369.5142 -5.255069,0.72813 0.728136,-5.25507"
           id="path6629"
           inkscape:connector-curvature="0"
           sodipodi:nodetypes="ccc" />
      </g>
      <text
         sodipodi:linespacing="125%"
         id="text7004"
         y="345.57242"
         x="81.140068"
         style="font-size:12.10289192px;font-style:normal;font-variant:normal;font-weight:normal;font-stretch:normal;text-align:start;line-height:125%;letter-spacing:0px;word-spacing:0px;writing-mode:lr-tb;text-anchor:start;fill:#000000;fill-opacity:1;stroke:none;font-family:Sans;-inkscape-font-specification:Sans"
         xml:space="preserve"><tspan
           y="345.57242"
           x="81.140068"
           id="tspan7006"
           sodipodi:role="line" /><tspan
           style="font-size:15px"
           id="tspan7014"
           y="363.58871"
           x="81.140068"
           sodipodi:role="line">r  N, 1, -1 -1   =  -1  0</tspan><tspan
           style="font-size:15px"
           id="tspan7020"
           y="382.33871"
           x="81.140068"
           sodipodi:role="line" /></text>
      <g
         transform="translate(0,0.00732714)"
         id="g7267">
        <text
           xml:space="preserve"
           style="font-size:24.17513847px;font-style:normal;font-variant:normal;font-weight:normal;font-stretch:normal;text-align:start;line-height:125%;letter-spacing:0px;word-spacing:0px;writing-mode:lr-tb;text-anchor:start;fill:#000000;fill-opacity:1;stroke:none;font-family:Sans;-inkscape-font-specification:Sans"
           x="108.28536"
           y="305.56351"
           id="text6337"
           sodipodi:linespacing="125%"
           transform="scale(0.83030458,1.2043773)"><tspan
             sodipodi:role="line"
             id="tspan6339"
             x="108.28536"
             y="305.56351">( </tspan></text>
        <text
           transform="scale(-0.83030458,1.2043773)"
           sodipodi:linespacing="125%"
           id="text7103"
           y="305.56351"
           x="-220.23471"
           style="font-size:24.17513847px;font-style:normal;font-variant:normal;font-weight:normal;font-stretch:normal;text-align:start;line-height:125%;letter-spacing:0px;word-spacing:0px;writing-mode:lr-tb;text-anchor:start;fill:#000000;fill-opacity:1;stroke:none;font-family:Sans;-inkscape-font-specification:Sans"
           xml:space="preserve"><tspan
             y="305.56351"
             x="-220.23471"
             id="tspan7105"
             sodipodi:role="line">( </tspan></text>
      </g>
      <g
         transform="translate(0,58.252419)"
         id="g7195">
        <path
           style="fill:none;stroke:#000000;stroke-width:0.5;stroke-linecap:butt;stroke-linejoin:miter;stroke-miterlimit:4;stroke-opacity:1;stroke-dasharray:none"
           d="m 209.47803,291.15847 -5.3033,9.48301 5.3033,9.48301"
           id="path7197"
           inkscape:connector-curvature="0"
           sodipodi:nodetypes="ccc" />
        <path
           sodipodi:nodetypes="ccc"
           inkscape:connector-curvature="0"
           id="path7199"
           d="m 240.15304,291.15847 5.3033,9.48301 -5.3033,9.48301"
           style="fill:none;stroke:#000000;stroke-width:0.5;stroke-linecap:butt;stroke-linejoin:miter;stroke-miterlimit:4;stroke-opacity:1;stroke-dasharray:none" />
      </g>
    </g>
    <g
       id="g7285"
       transform="translate(0,-52.092449)">
      <g
         transform="translate(0,-4.4934564)"
         id="g7225">
        <path
           sodipodi:nodetypes="ccc"
           inkscape:connector-curvature="0"
           id="path59589"
           d="m 66.353386,428.63395 -29.734192,-2e-5 0,-17.61975"
           style="fill:none;stroke:#000000;stroke-width:1.93471825px;stroke-linecap:butt;stroke-linejoin:miter;stroke-opacity:1;marker-end:url(#Arrow2Mend-2)" />
        <path
           style="fill:#b3b3b3;stroke:#b3b3b3;stroke-width:1.69005501px;stroke-linecap:butt;stroke-linejoin:miter;stroke-opacity:1"
           d="m 37.983048,425.22296 -4.230763,3.20103 4.230763,3.20102"
           id="path6633"
           inkscape:connector-curvature="0"
           sodipodi:nodetypes="ccc" />
      </g>
      <text
         sodipodi:linespacing="125%"
         id="text7022"
         y="402.64603"
         x="81.140068"
         style="font-size:12.10289192px;font-style:normal;font-variant:normal;font-weight:normal;font-stretch:normal;text-align:start;line-height:125%;letter-spacing:0px;word-spacing:0px;writing-mode:lr-tb;text-anchor:start;fill:#000000;fill-opacity:1;stroke:none;font-family:Sans;-inkscape-font-specification:Sans"
         xml:space="preserve"><tspan
           y="402.64603"
           x="81.140068"
           id="tspan7024"
           sodipodi:role="line" /><tspan
           style="font-size:15px"
           id="tspan7038"
           y="420.66232"
           x="81.140068"
           sodipodi:role="line">r  N, 1, -1  0   =   0  1</tspan></text>
      <g
         transform="translate(0,57.080927)"
         id="g7111">
        <path
           style="fill:none;stroke:#000000;stroke-width:0.5;stroke-linecap:butt;stroke-linejoin:miter;stroke-miterlimit:4;stroke-opacity:1;stroke-dasharray:none"
           d="m 139.64544,349.40357 -5.3033,9.48301 5.3033,9.48301"
           id="path7113"
           inkscape:connector-curvature="0"
           sodipodi:nodetypes="ccc" />
        <path
           sodipodi:nodetypes="ccc"
           inkscape:connector-curvature="0"
           id="path7115"
           d="m 170.32045,349.40357 5.3033,9.48301 -5.3033,9.48301"
           style="fill:none;stroke:#000000;stroke-width:0.5;stroke-linecap:butt;stroke-linejoin:miter;stroke-miterlimit:4;stroke-opacity:1;stroke-dasharray:none" />
      </g>
      <g
         transform="translate(0,-0.34380206)"
         id="g7273">
        <text
           transform="scale(0.83030458,1.2043773)"
           sodipodi:linespacing="125%"
           id="text7147"
           y="353.24353"
           x="108.28536"
           style="font-size:24.17513847px;font-style:normal;font-variant:normal;font-weight:normal;font-stretch:normal;text-align:start;line-height:125%;letter-spacing:0px;word-spacing:0px;writing-mode:lr-tb;text-anchor:start;fill:#000000;fill-opacity:1;stroke:none;font-family:Sans;-inkscape-font-specification:Sans"
           xml:space="preserve"><tspan
             y="353.24353"
             x="108.28536"
             id="tspan7149"
             sodipodi:role="line">( </tspan></text>
        <text
           xml:space="preserve"
           style="font-size:24.17513847px;font-style:normal;font-variant:normal;font-weight:normal;font-stretch:normal;text-align:start;line-height:125%;letter-spacing:0px;word-spacing:0px;writing-mode:lr-tb;text-anchor:start;fill:#000000;fill-opacity:1;stroke:none;font-family:Sans;-inkscape-font-specification:Sans"
           x="-220.23471"
           y="353.24353"
           id="text7151"
           sodipodi:linespacing="125%"
           transform="scale(-0.83030458,1.2043773)"><tspan
             sodipodi:role="line"
             id="tspan7153"
             x="-220.23471"
             y="353.24353">( </tspan></text>
      </g>
      <g
         id="g7201"
         transform="translate(0,115.32603)">
        <path
           sodipodi:nodetypes="ccc"
           inkscape:connector-curvature="0"
           id="path7203"
           d="m 209.47803,291.15847 -5.3033,9.48301 5.3033,9.48301"
           style="fill:none;stroke:#000000;stroke-width:0.5;stroke-linecap:butt;stroke-linejoin:miter;stroke-miterlimit:4;stroke-opacity:1;stroke-dasharray:none" />
        <path
           style="fill:none;stroke:#000000;stroke-width:0.5;stroke-linecap:butt;stroke-linejoin:miter;stroke-miterlimit:4;stroke-opacity:1;stroke-dasharray:none"
           d="m 240.15304,291.15847 5.3033,9.48301 -5.3033,9.48301"
           id="path7205"
           inkscape:connector-curvature="0"
           sodipodi:nodetypes="ccc" />
      </g>
    </g>
    <g
       id="g7343"
       transform="translate(0,-19.113708)">
      <g
         transform="translate(1.2577075,-1.9976671)"
         id="g7237">
        <path
           sodipodi:nodetypes="ccc"
           inkscape:connector-curvature="0"
           id="path59587"
           d="m 31.646368,236.56462 29.734178,0 0,17.61975"
           style="fill:none;stroke:#000000;stroke-width:1.93471825px;stroke-linecap:butt;stroke-linejoin:miter;stroke-opacity:1;marker-end:url(#Arrow2Mend-2)" />
        <path
           sodipodi:nodetypes="ccc"
           inkscape:connector-curvature="0"
           id="path6627"
           d="m 59.94236,233.54643 4.230762,3.20102 -4.230762,3.20103"
           style="fill:#b3b3b3;stroke:#b3b3b3;stroke-width:1.69005501px;stroke-linecap:butt;stroke-linejoin:miter;stroke-opacity:1" />
      </g>
      <text
         sodipodi:linespacing="125%"
         id="text6911"
         y="247.42119"
         x="81.140068"
         style="font-size:12.10289192px;font-style:normal;font-variant:normal;font-weight:normal;font-stretch:normal;text-align:start;line-height:125%;letter-spacing:0px;word-spacing:0px;writing-mode:lr-tb;text-anchor:start;fill:#000000;fill-opacity:1;stroke:none;font-family:Sans;-inkscape-font-specification:Sans"
         xml:space="preserve"><tspan
           style="font-size:15px"
           id="tspan6931"
           y="247.42119"
           x="81.140068"
           sodipodi:role="line">r  N, 1,  1  0   =   0 -1</tspan></text>
      <g
         transform="translate(0,-116.16022)"
         id="g7123">
        <path
           style="fill:none;stroke:#000000;stroke-width:0.5;stroke-linecap:butt;stroke-linejoin:miter;stroke-miterlimit:4;stroke-opacity:1;stroke-dasharray:none"
           d="m 139.64544,349.40357 -5.3033,9.48301 5.3033,9.48301"
           id="path7125"
           inkscape:connector-curvature="0"
           sodipodi:nodetypes="ccc" />
        <path
           sodipodi:nodetypes="ccc"
           inkscape:connector-curvature="0"
           id="path7127"
           d="m 170.32045,349.40357 5.3033,9.48301 -5.3033,9.48301"
           style="fill:none;stroke:#000000;stroke-width:0.5;stroke-linecap:butt;stroke-linejoin:miter;stroke-miterlimit:4;stroke-opacity:1;stroke-dasharray:none" />
      </g>
      <g
         transform="translate(0,1.560543)"
         id="g7255">
        <text
           transform="scale(0.83030458,1.2043773)"
           sodipodi:linespacing="125%"
           id="text7163"
           y="207.81943"
           x="108.28536"
           style="font-size:24.17513847px;font-style:normal;font-variant:normal;font-weight:normal;font-stretch:normal;text-align:start;line-height:125%;letter-spacing:0px;word-spacing:0px;writing-mode:lr-tb;text-anchor:start;fill:#000000;fill-opacity:1;stroke:none;font-family:Sans;-inkscape-font-specification:Sans"
           xml:space="preserve"><tspan
             y="207.81943"
             x="108.28536"
             id="tspan7165"
             sodipodi:role="line">( </tspan></text>
        <text
           xml:space="preserve"
           style="font-size:24.17513847px;font-style:normal;font-variant:normal;font-weight:normal;font-stretch:normal;text-align:start;line-height:125%;letter-spacing:0px;word-spacing:0px;writing-mode:lr-tb;text-anchor:start;fill:#000000;fill-opacity:1;stroke:none;font-family:Sans;-inkscape-font-specification:Sans"
           x="-220.23471"
           y="207.81943"
           id="text7167"
           sodipodi:linespacing="125%"
           transform="scale(-0.83030458,1.2043773)"><tspan
             sodipodi:role="line"
             id="tspan7169"
             x="-220.23471"
             y="207.81943">( </tspan></text>
      </g>
      <g
         transform="translate(0,-57.915116)"
         id="g7207">
        <path
           style="fill:none;stroke:#000000;stroke-width:0.5;stroke-linecap:butt;stroke-linejoin:miter;stroke-miterlimit:4;stroke-opacity:1;stroke-dasharray:none"
           d="m 209.47803,291.15847 -5.3033,9.48301 5.3033,9.48301"
           id="path7209"
           inkscape:connector-curvature="0"
           sodipodi:nodetypes="ccc" />
        <path
           sodipodi:nodetypes="ccc"
           inkscape:connector-curvature="0"
           id="path7211"
           d="m 240.15304,291.15847 5.3033,9.48301 -5.3033,9.48301"
           style="fill:none;stroke:#000000;stroke-width:0.5;stroke-linecap:butt;stroke-linejoin:miter;stroke-miterlimit:4;stroke-opacity:1;stroke-dasharray:none" />
      </g>
    </g>
    <g
       id="g7361"
       transform="translate(0,-6.7739258)">
      <g
         transform="translate(5.7683363,4.1038303)"
         id="g7245">
        <path
           style="fill:none;stroke:#000000;stroke-width:1.93471825px;stroke-linecap:butt;stroke-linejoin:miter;stroke-opacity:1;marker-end:url(#Arrow2Mend-2)"
           d="m 23.206005,188.78403 14.79572,-14.79571 24.918121,-10e-6"
           id="path140305-3-0"
           inkscape:connector-curvature="0"
           sodipodi:nodetypes="ccc" />
        <path
           sodipodi:nodetypes="ccc"
           inkscape:connector-curvature="0"
           id="path6625"
           d="m 35.400887,171.90617 5.255069,-0.72814 -0.728136,5.25506"
           style="fill:#b3b3b3;stroke:#b3b3b3;stroke-width:1.69005501px;stroke-linecap:butt;stroke-linejoin:miter;stroke-opacity:1" />
      </g>
      <text
         sodipodi:linespacing="125%"
         id="text6795"
         y="170.31096"
         x="81.140068"
         style="font-size:12.10289192px;font-style:normal;font-variant:normal;font-weight:normal;font-stretch:normal;text-align:start;line-height:125%;letter-spacing:0px;word-spacing:0px;writing-mode:lr-tb;text-anchor:start;fill:#000000;fill-opacity:1;stroke:none;font-family:Sans;-inkscape-font-specification:Sans"
         xml:space="preserve"><tspan
           y="170.31096"
           x="81.140068"
           id="tspan6797"
           sodipodi:role="line" /><tspan
           style="font-size:15px"
           id="tspan6849"
           y="188.32727"
           x="81.140068"
           sodipodi:role="line">r  N, 1,  1  1   =   1  0</tspan></text>
      <g
         id="g7129"
         transform="translate(0,-175.25414)">
        <path
           sodipodi:nodetypes="ccc"
           inkscape:connector-curvature="0"
           id="path7131"
           d="m 139.64544,349.40357 -5.3033,9.48301 5.3033,9.48301"
           style="fill:none;stroke:#000000;stroke-width:0.5;stroke-linecap:butt;stroke-linejoin:miter;stroke-miterlimit:4;stroke-opacity:1;stroke-dasharray:none" />
        <path
           style="fill:none;stroke:#000000;stroke-width:0.5;stroke-linecap:butt;stroke-linejoin:miter;stroke-miterlimit:4;stroke-opacity:1;stroke-dasharray:none"
           d="m 170.32045,349.40357 5.3033,9.48301 -5.3033,9.48301"
           id="path7133"
           inkscape:connector-curvature="0"
           sodipodi:nodetypes="ccc" />
      </g>
      <g
         transform="translate(0,1.5320665)"
         id="g7249">
        <text
           xml:space="preserve"
           style="font-size:24.17513847px;font-style:normal;font-variant:normal;font-weight:normal;font-stretch:normal;text-align:start;line-height:125%;letter-spacing:0px;word-spacing:0px;writing-mode:lr-tb;text-anchor:start;fill:#000000;fill-opacity:1;stroke:none;font-family:Sans;-inkscape-font-specification:Sans"
           x="108.28536"
           y="158.77711"
           id="text7171"
           sodipodi:linespacing="125%"
           transform="scale(0.83030458,1.2043773)"><tspan
             sodipodi:role="line"
             id="tspan7173"
             x="108.28536"
             y="158.77711">( </tspan></text>
        <text
           transform="scale(-0.83030458,1.2043773)"
           sodipodi:linespacing="125%"
           id="text7175"
           y="158.77711"
           x="-220.23471"
           style="font-size:24.17513847px;font-style:normal;font-variant:normal;font-weight:normal;font-stretch:normal;text-align:start;line-height:125%;letter-spacing:0px;word-spacing:0px;writing-mode:lr-tb;text-anchor:start;fill:#000000;fill-opacity:1;stroke:none;font-family:Sans;-inkscape-font-specification:Sans"
           xml:space="preserve"><tspan
             y="158.77711"
             x="-220.23471"
             id="tspan7177"
             sodipodi:role="line">( </tspan></text>
      </g>
      <g
         id="g7213"
         transform="translate(0,-117.00904)">
        <path
           sodipodi:nodetypes="ccc"
           inkscape:connector-curvature="0"
           id="path7215"
           d="m 209.47803,291.15847 -5.3033,9.48301 5.3033,9.48301"
           style="fill:none;stroke:#000000;stroke-width:0.5;stroke-linecap:butt;stroke-linejoin:miter;stroke-miterlimit:4;stroke-opacity:1;stroke-dasharray:none" />
        <path
           style="fill:none;stroke:#000000;stroke-width:0.5;stroke-linecap:butt;stroke-linejoin:miter;stroke-miterlimit:4;stroke-opacity:1;stroke-dasharray:none"
           d="m 240.15304,291.15847 5.3033,9.48301 -5.3033,9.48301"
           id="path7217"
           inkscape:connector-curvature="0"
           sodipodi:nodetypes="ccc" />
      </g>
    </g>
    <g
       id="g7380">
      <g
         transform="translate(-9.0304232,3.9316804)"
         id="g7241">
        <path
           sodipodi:nodetypes="ccc"
           inkscape:connector-curvature="0"
           id="path59405"
           d="m 50.958035,145.87353 0,-20.92431 17.619751,-17.61977"
           style="fill:none;stroke:#000000;stroke-width:1.93471825px;stroke-linecap:butt;stroke-linejoin:miter;stroke-opacity:1;marker-end:url(#Arrow2Mend-2)" />
        <path
           style="fill:#b3b3b3;stroke:#b3b3b3;stroke-width:1.69005501px;stroke-linecap:butt;stroke-linejoin:miter;stroke-opacity:1"
           d="m 47.786875,126.93617 3.201025,-4.23076 3.201025,4.23076"
           id="path6623"
           inkscape:connector-curvature="0"
           sodipodi:nodetypes="ccc" />
      </g>
      <g
         transform="translate(0,-228.78221)"
         id="g7135">
        <path
           style="fill:none;stroke:#000000;stroke-width:0.5;stroke-linecap:butt;stroke-linejoin:miter;stroke-miterlimit:4;stroke-opacity:1;stroke-dasharray:none"
           d="m 139.64544,349.40357 -5.3033,9.48301 5.3033,9.48301"
           id="path7137"
           inkscape:connector-curvature="0"
           sodipodi:nodetypes="ccc" />
        <path
           sodipodi:nodetypes="ccc"
           inkscape:connector-curvature="0"
           id="path7139"
           d="m 170.32045,349.40357 5.3033,9.48301 -5.3033,9.48301"
           style="fill:none;stroke:#000000;stroke-width:0.5;stroke-linecap:butt;stroke-linejoin:miter;stroke-miterlimit:4;stroke-opacity:1;stroke-dasharray:none" />
      </g>
      <text
         xml:space="preserve"
         style="font-size:12.10289192px;font-style:normal;font-variant:normal;font-weight:normal;font-stretch:normal;text-align:start;line-height:125%;letter-spacing:0px;word-spacing:0px;writing-mode:lr-tb;text-anchor:start;fill:#000000;fill-opacity:1;stroke:none;font-family:Sans;-inkscape-font-specification:Sans"
         x="81.140068"
         y="116.78289"
         id="text7141"
         sodipodi:linespacing="125%"><tspan
           sodipodi:role="line"
           id="tspan7143"
           x="81.140068"
           y="116.78289" /><tspan
           sodipodi:role="line"
           x="81.140068"
           y="134.79919"
           id="tspan7145"
           style="font-size:15px">r  N, 1,  0  1   =   1  1</tspan></text>
      <g
         transform="translate(0,5.2611153e-6)"
         id="g7279">
        <text
           transform="scale(0.83030458,1.2043773)"
           sodipodi:linespacing="125%"
           id="text7179"
           y="115.60459"
           x="108.28536"
           style="font-size:24.17513847px;font-style:normal;font-variant:normal;font-weight:normal;font-stretch:normal;text-align:start;line-height:125%;letter-spacing:0px;word-spacing:0px;writing-mode:lr-tb;text-anchor:start;fill:#000000;fill-opacity:1;stroke:none;font-family:Sans;-inkscape-font-specification:Sans"
           xml:space="preserve"><tspan
             y="115.60459"
             x="108.28536"
             id="tspan7181"
             sodipodi:role="line">( </tspan></text>
        <text
           xml:space="preserve"
           style="font-size:24.17513847px;font-style:normal;font-variant:normal;font-weight:normal;font-stretch:normal;text-align:start;line-height:125%;letter-spacing:0px;word-spacing:0px;writing-mode:lr-tb;text-anchor:start;fill:#000000;fill-opacity:1;stroke:none;font-family:Sans;-inkscape-font-specification:Sans"
           x="-220.23471"
           y="115.60459"
           id="text7183"
           sodipodi:linespacing="125%"
           transform="scale(-0.83030458,1.2043773)"><tspan
             sodipodi:role="line"
             id="tspan7185"
             x="-220.23471"
             y="115.60459">( </tspan></text>
      </g>
      <g
         transform="translate(0,-170.53711)"
         id="g7219">
        <path
           style="fill:none;stroke:#000000;stroke-width:0.5;stroke-linecap:butt;stroke-linejoin:miter;stroke-miterlimit:4;stroke-opacity:1;stroke-dasharray:none"
           d="m 209.47803,291.15847 -5.3033,9.48301 5.3033,9.48301"
           id="path7221"
           inkscape:connector-curvature="0"
           sodipodi:nodetypes="ccc" />
        <path
           sodipodi:nodetypes="ccc"
           inkscape:connector-curvature="0"
           id="path7223"
           d="m 240.15304,291.15847 5.3033,9.48301 -5.3033,9.48301"
           style="fill:none;stroke:#000000;stroke-width:0.5;stroke-linecap:butt;stroke-linejoin:miter;stroke-miterlimit:4;stroke-opacity:1;stroke-dasharray:none" />
      </g>
    </g>
    <path
       inkscape:connector-curvature="0"
       id="path7399"
       d="m 227.53333,186.82669 c 0,0 -4.43641,4.95564 -5.40102,6.15694 -16.54298,20.60199 -29.1234,-0.3107 -53.43825,10.02855 -4.12298,1.75319 -10.64266,10.0944 -10.64266,10.0944"
       style="fill:none;stroke:#cccccc;stroke-width:1px;stroke-linecap:butt;stroke-linejoin:miter;stroke-opacity:1;marker-end:url(#Arrow1MendE)"
       sodipodi:nodetypes="cssc" />
    <path
       sodipodi:nodetypes="cssc"
       style="fill:none;stroke:#cccccc;stroke-width:1px;stroke-linecap:butt;stroke-linejoin:miter;stroke-opacity:1;marker-end:url(#Arrow1MendE)"
       d="m 227.53333,233.58088 c 0,0 -4.43641,4.95564 -5.40102,6.15694 -16.54298,20.60199 -29.1234,-0.3107 -53.43825,10.02855 -4.12298,1.75319 -10.64266,10.0944 -10.64266,10.0944"
       id="path7401"
       inkscape:connector-curvature="0" />
    <path
       inkscape:connector-curvature="0"
       id="path7403"
       d="m 227.53333,280.33495 c 0,0 -4.43641,4.95564 -5.40102,6.15694 -16.54298,20.60199 -29.1234,-0.3107 -53.43825,10.02855 -4.12298,1.75319 -10.64266,10.0944 -10.64266,10.0944"
       style="fill:none;stroke:#cccccc;stroke-width:1px;stroke-linecap:butt;stroke-linejoin:miter;stroke-opacity:1;marker-end:url(#Arrow1MendE)"
       sodipodi:nodetypes="cssc" />
    <path
       sodipodi:nodetypes="cssc"
       style="fill:none;stroke:#cccccc;stroke-width:1px;stroke-linecap:butt;stroke-linejoin:miter;stroke-opacity:1;marker-end:url(#Arrow1MendE)"
       d="m 227.53333,327.08909 c 0,0 -4.43641,4.95564 -5.40102,6.15694 -16.54298,20.60199 -29.1234,-0.3107 -53.43825,10.02855 -4.12298,1.75319 -10.64266,10.0944 -10.64266,10.0944"
       id="path7405"
       inkscape:connector-curvature="0" />
    <path
       style="fill:none;stroke:#000000;stroke-width:1.93471825px;stroke-linecap:butt;stroke-linejoin:miter;stroke-opacity:1;marker-end:url(#Arrow2Mend-2)"
       d="m 361.96806,256.33924 0,24.37704 17.61975,0"
       id="path140447-2-1"
       inkscape:connector-curvature="0"
       sodipodi:nodetypes="ccc" />
    <path
       style="fill:#b3b3b3;stroke:#b3b3b3;stroke-width:1.69005501px;stroke-linecap:butt;stroke-linejoin:miter;stroke-opacity:1"
       d="m 360.2519,277.88837 3.20102,4.23077 3.20103,-4.23077"
       id="path6645"
       inkscape:connector-curvature="0"
       sodipodi:nodetypes="ccc" />
    <g
       transform="translate(326.29725,-41.765682)"
       id="g7445">
      <path
         sodipodi:nodetypes="ccc"
         inkscape:connector-curvature="0"
         id="path7447"
         d="m 139.64544,349.40357 -5.3033,9.48301 5.3033,9.48301"
         style="fill:none;stroke:#000000;stroke-width:0.5;stroke-linecap:butt;stroke-linejoin:miter;stroke-miterlimit:4;stroke-opacity:1;stroke-dasharray:none" />
      <path
         style="fill:none;stroke:#000000;stroke-width:0.5;stroke-linecap:butt;stroke-linejoin:miter;stroke-miterlimit:4;stroke-opacity:1;stroke-dasharray:none"
         d="m 170.32045,349.40357 5.3033,9.48301 -5.3033,9.48301"
         id="path7449"
         inkscape:connector-curvature="0"
         sodipodi:nodetypes="ccc" />
    </g>
    <text
       sodipodi:linespacing="125%"
       id="text7457"
       y="303.79941"
       x="403.08673"
       style="font-size:12.10289192px;font-style:normal;font-variant:normal;font-weight:normal;font-stretch:normal;text-align:start;line-height:125%;letter-spacing:0px;word-spacing:0px;writing-mode:lr-tb;text-anchor:start;fill:#000000;fill-opacity:1;stroke:none;font-family:Sans;-inkscape-font-specification:Sans"
       xml:space="preserve"><tspan
         y="303.79941"
         x="403.08673"
         id="tspan7459"
         sodipodi:role="line" /><tspan
         style="font-size:15px"
         id="tspan7461"
         y="321.8157"
         x="403.08673"
         sodipodi:role="line">r  N, -1,  1  0   =  1   1</tspan><tspan
         style="font-size:15px"
         id="tspan7463"
         y="340.5657"
         x="403.08673"
         sodipodi:role="line" /></text>
    <text
       transform="scale(0.83030458,1.2043773)"
       sodipodi:linespacing="125%"
       id="text7467"
       y="270.88528"
       x="496.03055"
       style="font-size:24.17513847px;font-style:normal;font-variant:normal;font-weight:normal;font-stretch:normal;text-align:start;line-height:125%;letter-spacing:0px;word-spacing:0px;writing-mode:lr-tb;text-anchor:start;fill:#000000;fill-opacity:1;stroke:none;font-family:Sans;-inkscape-font-specification:Sans"
       xml:space="preserve"><tspan
         y="270.88528"
         x="496.03055"
         id="tspan7469"
         sodipodi:role="line">( </tspan></text>
    <text
       xml:space="preserve"
       style="font-size:24.17513847px;font-style:normal;font-variant:normal;font-weight:normal;font-stretch:normal;text-align:start;line-height:125%;letter-spacing:0px;word-spacing:0px;writing-mode:lr-tb;text-anchor:start;fill:#000000;fill-opacity:1;stroke:none;font-family:Sans;-inkscape-font-specification:Sans"
       x="-612.34644"
       y="270.88528"
       id="text7471"
       sodipodi:linespacing="125%"
       transform="scale(-0.83030458,1.2043773)"><tspan
         sodipodi:role="line"
         id="tspan7473"
         x="-612.34644"
         y="270.88528">( </tspan></text>
    <g
       id="g7847"
       transform="translate(-93.972562,3.2814085)">
      <path
         style="fill:none;stroke:#000000;stroke-width:0.5;stroke-linecap:butt;stroke-linejoin:miter;stroke-miterlimit:4;stroke-opacity:1;stroke-dasharray:none"
         d="m 627.57255,304.35648 -5.3033,9.48301 5.3033,9.48301"
         id="path7477"
         inkscape:connector-curvature="0"
         sodipodi:nodetypes="ccc" />
      <path
         sodipodi:nodetypes="ccc"
         inkscape:connector-curvature="0"
         id="path7479"
         d="m 661.72803,304.35648 5.3033,9.48301 -5.3033,9.48301"
         style="fill:none;stroke:#000000;stroke-width:0.5;stroke-linecap:butt;stroke-linejoin:miter;stroke-miterlimit:4;stroke-opacity:1;stroke-dasharray:none" />
    </g>
    <g
       id="g3449">
      <path
         sodipodi:nodetypes="ccc"
         inkscape:connector-curvature="0"
         id="path140447-2-7-8"
         d="m 351.88772,326.35958 20.9243,0 17.61975,-17.61975"
         style="fill:none;stroke:#000000;stroke-width:1.93471825px;stroke-linecap:butt;stroke-linejoin:miter;stroke-opacity:1;marker-end:url(#Arrow2Mend-2)" />
      <path
         sodipodi:nodetypes="ccc"
         inkscape:connector-curvature="0"
         id="path6641"
         d="m 369.46002,323.05002 4.23076,3.20102 -4.23076,3.20103"
         style="fill:#b3b3b3;stroke:#b3b3b3;stroke-width:1.69005501px;stroke-linecap:butt;stroke-linejoin:miter;stroke-opacity:1" />
    </g>
    <text
       sodipodi:linespacing="125%"
       id="text7489"
       y="350.55356"
       x="403.08673"
       style="font-size:12.10289192px;font-style:normal;font-variant:normal;font-weight:normal;font-stretch:normal;text-align:start;line-height:125%;letter-spacing:0px;word-spacing:0px;writing-mode:lr-tb;text-anchor:start;fill:#000000;fill-opacity:1;stroke:none;font-family:Sans;-inkscape-font-specification:Sans"
       xml:space="preserve"><tspan
         y="350.55356"
         x="403.08673"
         id="tspan7491"
         sodipodi:role="line" /><tspan
         style="font-size:15px"
         id="tspan7493"
         y="368.56985"
         x="403.08673"
         sodipodi:role="line">r  N, -1,  1  1   =  0   1</tspan></text>
    <g
       transform="translate(326.29725,4.9884812)"
       id="g7495">
      <path
         style="fill:none;stroke:#000000;stroke-width:0.5;stroke-linecap:butt;stroke-linejoin:miter;stroke-miterlimit:4;stroke-opacity:1;stroke-dasharray:none"
         d="m 139.64544,349.40357 -5.3033,9.48301 5.3033,9.48301"
         id="path7497"
         inkscape:connector-curvature="0"
         sodipodi:nodetypes="ccc" />
      <path
         sodipodi:nodetypes="ccc"
         inkscape:connector-curvature="0"
         id="path7499"
         d="m 170.32045,349.40357 5.3033,9.48301 -5.3033,9.48301"
         style="fill:none;stroke:#000000;stroke-width:0.5;stroke-linecap:butt;stroke-linejoin:miter;stroke-miterlimit:4;stroke-opacity:1;stroke-dasharray:none" />
    </g>
    <text
       xml:space="preserve"
       style="font-size:24.17513847px;font-style:normal;font-variant:normal;font-weight:normal;font-stretch:normal;text-align:start;line-height:125%;letter-spacing:0px;word-spacing:0px;writing-mode:lr-tb;text-anchor:start;fill:#000000;fill-opacity:1;stroke:none;font-family:Sans;-inkscape-font-specification:Sans"
       x="496.03055"
       y="309.70547"
       id="text7503"
       sodipodi:linespacing="125%"
       transform="scale(0.83030458,1.2043773)"><tspan
         sodipodi:role="line"
         id="tspan7505"
         x="496.03055"
         y="309.70547">( </tspan></text>
    <text
       transform="scale(-0.83030458,1.2043773)"
       sodipodi:linespacing="125%"
       id="text7507"
       y="309.70547"
       x="-612.34644"
       style="font-size:24.17513847px;font-style:normal;font-variant:normal;font-weight:normal;font-stretch:normal;text-align:start;line-height:125%;letter-spacing:0px;word-spacing:0px;writing-mode:lr-tb;text-anchor:start;fill:#000000;fill-opacity:1;stroke:none;font-family:Sans;-inkscape-font-specification:Sans"
       xml:space="preserve"><tspan
         y="309.70547"
         x="-612.34644"
         id="tspan7509"
         sodipodi:role="line">( </tspan></text>
    <path
       style="fill:none;stroke:#000000;stroke-width:0.5;stroke-linecap:butt;stroke-linejoin:miter;stroke-miterlimit:4;stroke-opacity:1;stroke-dasharray:none"
       d="m 533.59999,354.39206 -5.3033,9.48301 5.3033,9.48301"
       id="path7513"
       inkscape:connector-curvature="0"
       sodipodi:nodetypes="ccc" />
    <path
       sodipodi:nodetypes="ccc"
       inkscape:connector-curvature="0"
       id="path7515"
       d="m 567.75547,354.39206 5.3033,9.48301 -5.3033,9.48301"
       style="fill:none;stroke:#000000;stroke-width:0.5;stroke-linecap:butt;stroke-linejoin:miter;stroke-miterlimit:4;stroke-opacity:1;stroke-dasharray:none" />
    <g
       id="g7799"
       transform="translate(-93.972557,-19.43158)">
      <path
         sodipodi:nodetypes="ccc"
         inkscape:connector-curvature="0"
         id="path140447-9-1"
         d="m 474.78479,225.97891 -14.79572,14.79572 0,17.74"
         style="fill:none;stroke:#000000;stroke-width:1.93471825px;stroke-linecap:butt;stroke-linejoin:miter;stroke-opacity:1;marker-end:url(#Arrow2Mend-2)" />
      <path
         style="fill:#b3b3b3;stroke:#b3b3b3;stroke-width:1.69005501px;stroke-linecap:butt;stroke-linejoin:miter;stroke-opacity:1"
         d="m 463.09982,242.24122 -5.25507,0.72813 0.72813,-5.25507"
         id="path6643"
         inkscape:connector-curvature="0"
         sodipodi:nodetypes="ccc" />
    </g>
    <g
       id="g7958"
       transform="translate(-93.972562,3.2814077)">
      <text
         xml:space="preserve"
         style="font-size:12.10289192px;font-style:normal;font-variant:normal;font-weight:normal;font-stretch:normal;text-align:start;line-height:125%;letter-spacing:0px;word-spacing:0px;writing-mode:lr-tb;text-anchor:start;fill:#000000;fill-opacity:1;stroke:none;font-family:Sans;-inkscape-font-specification:Sans"
         x="497.0593"
         y="225.02608"
         id="text7525"
         sodipodi:linespacing="125%"><tspan
           sodipodi:role="line"
           x="497.0593"
           y="225.02608"
           id="tspan7527"
           style="font-size:15px">r  N, -1, -1 -1   =  0  -1</tspan></text>
      <g
         id="g7529"
         transform="translate(420.26981,-138.55534)">
        <path
           sodipodi:nodetypes="ccc"
           inkscape:connector-curvature="0"
           id="path7531"
           d="m 139.64544,349.40357 -5.3033,9.48301 5.3033,9.48301"
           style="fill:none;stroke:#000000;stroke-width:0.5;stroke-linecap:butt;stroke-linejoin:miter;stroke-miterlimit:4;stroke-opacity:1;stroke-dasharray:none" />
        <path
           style="fill:none;stroke:#000000;stroke-width:0.5;stroke-linecap:butt;stroke-linejoin:miter;stroke-miterlimit:4;stroke-opacity:1;stroke-dasharray:none"
           d="m 170.32045,349.40357 5.3033,9.48301 -5.3033,9.48301"
           id="path7533"
           inkscape:connector-curvature="0"
           sodipodi:nodetypes="ccc" />
      </g>
      <text
         transform="scale(0.83030458,1.2043773)"
         sodipodi:linespacing="125%"
         id="text7537"
         y="190.52039"
         x="609.20898"
         style="font-size:24.17513847px;font-style:normal;font-variant:normal;font-weight:normal;font-stretch:normal;text-align:start;line-height:125%;letter-spacing:0px;word-spacing:0px;writing-mode:lr-tb;text-anchor:start;fill:#000000;fill-opacity:1;stroke:none;font-family:Sans;-inkscape-font-specification:Sans"
         xml:space="preserve"><tspan
           y="190.52039"
           x="609.20898"
           id="tspan7539"
           sodipodi:role="line">( </tspan></text>
      <text
         xml:space="preserve"
         style="font-size:24.17513847px;font-style:normal;font-variant:normal;font-weight:normal;font-stretch:normal;text-align:start;line-height:125%;letter-spacing:0px;word-spacing:0px;writing-mode:lr-tb;text-anchor:start;fill:#000000;fill-opacity:1;stroke:none;font-family:Sans;-inkscape-font-specification:Sans"
         x="-725.52484"
         y="190.52039"
         id="text7541"
         sodipodi:linespacing="125%"
         transform="scale(-0.83030458,1.2043773)"><tspan
           sodipodi:role="line"
           id="tspan7543"
           x="-725.52484"
           y="190.52039">( </tspan></text>
      <g
         transform="translate(0,1.3051758e-5)"
         id="g7839">
        <path
           sodipodi:nodetypes="ccc"
           inkscape:connector-curvature="0"
           id="path7547"
           d="m 627.57255,210.84823 -5.3033,9.48301 5.3033,9.48301"
           style="fill:none;stroke:#000000;stroke-width:0.5;stroke-linecap:butt;stroke-linejoin:miter;stroke-miterlimit:4;stroke-opacity:1;stroke-dasharray:none" />
        <path
           style="fill:none;stroke:#000000;stroke-width:0.5;stroke-linecap:butt;stroke-linejoin:miter;stroke-miterlimit:4;stroke-opacity:1;stroke-dasharray:none"
           d="m 661.72803,210.84823 5.3033,9.48301 -5.3033,9.48301"
           id="path7549"
           inkscape:connector-curvature="0"
           sodipodi:nodetypes="ccc" />
      </g>
    </g>
    <g
       id="g7795"
       transform="translate(-93.972566,-11.220751)">
      <path
         sodipodi:nodetypes="ccc"
         inkscape:connector-curvature="0"
         id="path140447-0"
         d="m 485.23565,180.42328 -20.92431,0 -17.61975,17.61975"
         style="fill:none;stroke:#000000;stroke-width:1.93471825px;stroke-linecap:butt;stroke-linejoin:miter;stroke-opacity:1;marker-end:url(#Arrow2Mend-2)" />
      <path
         style="fill:#b3b3b3;stroke:#b3b3b3;stroke-width:1.69005501px;stroke-linecap:butt;stroke-linejoin:miter;stroke-opacity:1"
         d="m 467.66334,177.13557 -4.23076,3.20103 4.23076,3.20102"
         id="path6647"
         inkscape:connector-curvature="0"
         sodipodi:nodetypes="ccc" />
    </g>
    <g
       id="g7943"
       transform="translate(-93.972562,3.2813852)">
      <text
         xml:space="preserve"
         style="font-size:12.10289192px;font-style:normal;font-variant:normal;font-weight:normal;font-stretch:normal;text-align:start;line-height:125%;letter-spacing:0px;word-spacing:0px;writing-mode:lr-tb;text-anchor:start;fill:#000000;fill-opacity:1;stroke:none;font-family:Sans;-inkscape-font-specification:Sans"
         x="497.0593"
         y="160.25563"
         id="text7559"
         sodipodi:linespacing="125%"><tspan
           sodipodi:role="line"
           id="tspan7561"
           x="497.0593"
           y="160.25563" /><tspan
           sodipodi:role="line"
           x="497.0593"
           y="178.27194"
           id="tspan7563"
           style="font-size:15px">r  N, -1, -1  0   = -1  -1</tspan></text>
      <g
         transform="translate(420.26981,-185.30947)"
         id="g7565">
        <path
           style="fill:none;stroke:#000000;stroke-width:0.5;stroke-linecap:butt;stroke-linejoin:miter;stroke-miterlimit:4;stroke-opacity:1;stroke-dasharray:none"
           d="m 139.64544,349.40357 -5.3033,9.48301 5.3033,9.48301"
           id="path7567"
           inkscape:connector-curvature="0"
           sodipodi:nodetypes="ccc" />
        <path
           sodipodi:nodetypes="ccc"
           inkscape:connector-curvature="0"
           id="path7569"
           d="m 170.32045,349.40357 5.3033,9.48301 -5.3033,9.48301"
           style="fill:none;stroke:#000000;stroke-width:0.5;stroke-linecap:butt;stroke-linejoin:miter;stroke-miterlimit:4;stroke-opacity:1;stroke-dasharray:none" />
      </g>
      <text
         xml:space="preserve"
         style="font-size:24.17513847px;font-style:normal;font-variant:normal;font-weight:normal;font-stretch:normal;text-align:start;line-height:125%;letter-spacing:0px;word-spacing:0px;writing-mode:lr-tb;text-anchor:start;fill:#000000;fill-opacity:1;stroke:none;font-family:Sans;-inkscape-font-specification:Sans"
         x="609.20898"
         y="151.70023"
         id="text7573"
         sodipodi:linespacing="125%"
         transform="scale(0.83030458,1.2043773)"><tspan
           sodipodi:role="line"
           id="tspan7575"
           x="609.20898"
           y="151.70023">( </tspan></text>
      <text
         transform="scale(-0.83030458,1.2043773)"
         sodipodi:linespacing="125%"
         id="text7577"
         y="151.70023"
         x="-725.52484"
         style="font-size:24.17513847px;font-style:normal;font-variant:normal;font-weight:normal;font-stretch:normal;text-align:start;line-height:125%;letter-spacing:0px;word-spacing:0px;writing-mode:lr-tb;text-anchor:start;fill:#000000;fill-opacity:1;stroke:none;font-family:Sans;-inkscape-font-specification:Sans"
         xml:space="preserve"><tspan
           y="151.70023"
           x="-725.52484"
           id="tspan7579"
           sodipodi:role="line">( </tspan></text>
      <g
         transform="translate(0,1.2232001e-6)"
         id="g7835">
        <path
           style="fill:none;stroke:#000000;stroke-width:0.5;stroke-linecap:butt;stroke-linejoin:miter;stroke-miterlimit:4;stroke-opacity:1;stroke-dasharray:none"
           d="m 627.57255,164.0941 -5.3033,9.48301 5.3033,9.48301"
           id="path7583"
           inkscape:connector-curvature="0"
           sodipodi:nodetypes="ccc" />
        <path
           sodipodi:nodetypes="ccc"
           inkscape:connector-curvature="0"
           id="path7585"
           d="m 661.72803,164.0941 5.3033,9.48301 -5.3033,9.48301"
           style="fill:none;stroke:#000000;stroke-width:0.5;stroke-linecap:butt;stroke-linejoin:miter;stroke-miterlimit:4;stroke-opacity:1;stroke-dasharray:none" />
      </g>
    </g>
    <g
       id="g7791"
       transform="translate(-95.527814,-2.6463903)">
      <path
         sodipodi:nodetypes="ccc"
         inkscape:connector-curvature="0"
         id="path140447-2-7-6-8"
         d="m 475.1553,145.34968 0,-21.51989 -17.61975,0"
         style="fill:none;stroke:#000000;stroke-width:1.93471825px;stroke-linecap:butt;stroke-linejoin:miter;stroke-opacity:1;marker-end:url(#Arrow2Mend-2)" />
      <path
         style="fill:#b3b3b3;stroke:#b3b3b3;stroke-width:1.69005501px;stroke-linecap:butt;stroke-linejoin:miter;stroke-opacity:1"
         d="m 471.98609,125.39562 3.20102,-4.23076 3.20103,4.23076"
         id="path6637"
         inkscape:connector-curvature="0"
         sodipodi:nodetypes="ccc" />
    </g>
    <g
       id="g7927"
       transform="translate(-93.972562,3.2814484)">
      <g
         id="g7595"
         transform="translate(420.26981,-232.06366)">
        <path
           sodipodi:nodetypes="ccc"
           inkscape:connector-curvature="0"
           id="path7597"
           d="m 139.64544,349.40357 -5.3033,9.48301 5.3033,9.48301"
           style="fill:none;stroke:#000000;stroke-width:0.5;stroke-linecap:butt;stroke-linejoin:miter;stroke-miterlimit:4;stroke-opacity:1;stroke-dasharray:none" />
        <path
           style="fill:none;stroke:#000000;stroke-width:0.5;stroke-linecap:butt;stroke-linejoin:miter;stroke-miterlimit:4;stroke-opacity:1;stroke-dasharray:none"
           d="m 170.32045,349.40357 5.3033,9.48301 -5.3033,9.48301"
           id="path7599"
           inkscape:connector-curvature="0"
           sodipodi:nodetypes="ccc" />
      </g>
      <text
         sodipodi:linespacing="125%"
         id="text7601"
         y="113.50144"
         x="497.0593"
         style="font-size:12.10289192px;font-style:normal;font-variant:normal;font-weight:normal;font-stretch:normal;text-align:start;line-height:125%;letter-spacing:0px;word-spacing:0px;writing-mode:lr-tb;text-anchor:start;fill:#000000;fill-opacity:1;stroke:none;font-family:Sans;-inkscape-font-specification:Sans"
         xml:space="preserve"><tspan
           y="113.50144"
           x="497.0593"
           id="tspan7603"
           sodipodi:role="line" /><tspan
           style="font-size:15px"
           id="tspan7605"
           y="131.51775"
           x="497.0593"
           sodipodi:role="line">r  N, -1,  0  1   =  -1  0</tspan></text>
      <g
         transform="translate(0,-5.8929882e-5)"
         id="g7825">
        <text
           xml:space="preserve"
           style="font-size:24.17513847px;font-style:normal;font-variant:normal;font-weight:normal;font-stretch:normal;text-align:start;line-height:125%;letter-spacing:0px;word-spacing:0px;writing-mode:lr-tb;text-anchor:start;fill:#000000;fill-opacity:1;stroke:none;font-family:Sans;-inkscape-font-specification:Sans"
           x="609.20898"
           y="112.88004"
           id="text7609"
           sodipodi:linespacing="125%"
           transform="scale(0.83030458,1.2043773)"><tspan
             sodipodi:role="line"
             id="tspan7611"
             x="609.20898"
             y="112.88004">( </tspan></text>
        <text
           transform="scale(-0.83030458,1.2043773)"
           sodipodi:linespacing="125%"
           id="text7613"
           y="112.88004"
           x="-725.52484"
           style="font-size:24.17513847px;font-style:normal;font-variant:normal;font-weight:normal;font-stretch:normal;text-align:start;line-height:125%;letter-spacing:0px;word-spacing:0px;writing-mode:lr-tb;text-anchor:start;fill:#000000;fill-opacity:1;stroke:none;font-family:Sans;-inkscape-font-specification:Sans"
           xml:space="preserve"><tspan
             y="112.88004"
             x="-725.52484"
             id="tspan7615"
             sodipodi:role="line">( </tspan></text>
      </g>
      <g
         transform="translate(0,-3.7314398e-5)"
         id="g7831">
        <path
           sodipodi:nodetypes="ccc"
           inkscape:connector-curvature="0"
           id="path7619"
           d="m 627.57255,117.33995 -5.3033,9.48301 5.3033,9.48301"
           style="fill:none;stroke:#000000;stroke-width:0.5;stroke-linecap:butt;stroke-linejoin:miter;stroke-miterlimit:4;stroke-opacity:1;stroke-dasharray:none" />
        <path
           style="fill:none;stroke:#000000;stroke-width:0.5;stroke-linecap:butt;stroke-linejoin:miter;stroke-miterlimit:4;stroke-opacity:1;stroke-dasharray:none"
           d="m 661.72803,117.33995 5.3033,9.48301 -5.3033,9.48301"
           id="path7621"
           inkscape:connector-curvature="0"
           sodipodi:nodetypes="ccc" />
      </g>
    </g>
    <text
       sodipodi:linespacing="125%"
       id="text7415"
       y="257.04529"
       x="403.08673"
       style="font-size:12.10289192px;font-style:normal;font-variant:normal;font-weight:normal;font-stretch:normal;text-align:start;line-height:125%;letter-spacing:0px;word-spacing:0px;writing-mode:lr-tb;text-anchor:start;fill:#000000;fill-opacity:1;stroke:none;font-family:Sans;-inkscape-font-specification:Sans"
       xml:space="preserve"><tspan
         y="257.04529"
         x="403.08673"
         id="tspan7417"
         sodipodi:role="line" /><tspan
         style="font-size:15px"
         id="tspan7419"
         y="275.06158"
         x="403.08673"
         sodipodi:role="line">r  N, -1,  0 -1   =  1   0</tspan></text>
    <g
       id="g7421"
       transform="translate(326.29725,-88.519847)">
      <path
         sodipodi:nodetypes="ccc"
         inkscape:connector-curvature="0"
         id="path7423"
         d="m 139.64544,349.40357 -5.3033,9.48301 5.3033,9.48301"
         style="fill:none;stroke:#000000;stroke-width:0.5;stroke-linecap:butt;stroke-linejoin:miter;stroke-miterlimit:4;stroke-opacity:1;stroke-dasharray:none" />
      <path
         style="fill:none;stroke:#000000;stroke-width:0.5;stroke-linecap:butt;stroke-linejoin:miter;stroke-miterlimit:4;stroke-opacity:1;stroke-dasharray:none"
         d="m 170.32045,349.40357 5.3033,9.48301 -5.3033,9.48301"
         id="path7425"
         inkscape:connector-curvature="0"
         sodipodi:nodetypes="ccc" />
    </g>
    <text
       transform="scale(0.83030458,1.2043773)"
       sodipodi:linespacing="125%"
       id="text7429"
       y="232.06508"
       x="496.03055"
       style="font-size:24.17513847px;font-style:normal;font-variant:normal;font-weight:normal;font-stretch:normal;text-align:start;line-height:125%;letter-spacing:0px;word-spacing:0px;writing-mode:lr-tb;text-anchor:start;fill:#000000;fill-opacity:1;stroke:none;font-family:Sans;-inkscape-font-specification:Sans"
       xml:space="preserve"><tspan
         y="232.06508"
         x="496.03055"
         id="tspan7431"
         sodipodi:role="line">( </tspan></text>
    <text
       xml:space="preserve"
       style="font-size:24.17513847px;font-style:normal;font-variant:normal;font-weight:normal;font-stretch:normal;text-align:start;line-height:125%;letter-spacing:0px;word-spacing:0px;writing-mode:lr-tb;text-anchor:start;fill:#000000;fill-opacity:1;stroke:none;font-family:Sans;-inkscape-font-specification:Sans"
       x="-612.34644"
       y="232.06508"
       id="text7433"
       sodipodi:linespacing="125%"
       transform="scale(-0.83030458,1.2043773)"><tspan
         sodipodi:role="line"
         id="tspan7435"
         x="-612.34644"
         y="232.06508">( </tspan></text>
    <g
       id="g7843"
       transform="translate(-93.972562,3.2814282)">
      <path
         sodipodi:nodetypes="ccc"
         inkscape:connector-curvature="0"
         id="path7439"
         d="m 627.57255,257.60232 -5.3033,9.48301 5.3033,9.48301"
         style="fill:none;stroke:#000000;stroke-width:0.5;stroke-linecap:butt;stroke-linejoin:miter;stroke-miterlimit:4;stroke-opacity:1;stroke-dasharray:none" />
      <path
         style="fill:none;stroke:#000000;stroke-width:0.5;stroke-linecap:butt;stroke-linejoin:miter;stroke-miterlimit:4;stroke-opacity:1;stroke-dasharray:none"
         d="m 661.72803,257.60232 5.3033,9.48301 -5.3033,9.48301"
         id="path7441"
         inkscape:connector-curvature="0"
         sodipodi:nodetypes="ccc" />
    </g>
    <path
       inkscape:connector-curvature="0"
       id="path8131"
       d="m 550.05644,140.07259 c 0,0 -4.43641,4.95564 -5.40102,6.15694 -16.54298,20.60199 -29.1234,-0.3107 -53.43825,10.02855 -4.12298,1.75319 -10.64266,10.0944 -10.64266,10.0944"
       style="fill:none;stroke:#cccccc;stroke-width:1px;stroke-linecap:butt;stroke-linejoin:miter;stroke-opacity:1;marker-end:url(#Arrow1MendE)"
       sodipodi:nodetypes="cssc" />
    <path
       sodipodi:nodetypes="cssc"
       style="fill:none;stroke:#cccccc;stroke-width:1px;stroke-linecap:butt;stroke-linejoin:miter;stroke-opacity:1;marker-end:url(#Arrow1MendE)"
       d="m 550.05644,186.82669 c 0,0 -4.43641,4.95564 -5.40102,6.15694 -16.54298,20.60199 -29.1234,-0.3107 -53.43825,10.02855 -4.12298,1.75319 -10.64266,10.0944 -10.64266,10.0944"
       id="path8133"
       inkscape:connector-curvature="0" />
    <path
       inkscape:connector-curvature="0"
       id="path8135"
       d="m 550.05644,233.58088 c 0,0 -4.43641,4.95564 -5.40102,6.15694 -16.54298,20.60199 -29.1234,-0.3107 -53.43825,10.02855 -4.12298,1.75319 -10.64266,10.0944 -10.64266,10.0944"
       style="fill:none;stroke:#cccccc;stroke-width:1px;stroke-linecap:butt;stroke-linejoin:miter;stroke-opacity:1;marker-end:url(#Arrow1MendE)"
       sodipodi:nodetypes="cssc" />
    <path
       sodipodi:nodetypes="cssc"
       style="fill:none;stroke:#cccccc;stroke-width:1px;stroke-linecap:butt;stroke-linejoin:miter;stroke-opacity:1;marker-end:url(#Arrow1MendE)"
       d="m 550.05644,280.33495 c 0,0 -4.43641,4.95564 -5.40102,6.15694 -16.54298,20.60199 -29.1234,-0.3107 -53.43825,10.02855 -4.12298,1.75319 -10.64266,10.0944 -10.64266,10.0944"
       id="path8137"
       inkscape:connector-curvature="0" />
    <path
       inkscape:connector-curvature="0"
       id="path8139"
       d="m 550.05644,327.08909 c 0,0 -4.43641,4.95564 -5.40102,6.15694 -16.54298,20.60199 -29.1234,-0.3107 -53.43825,10.02855 -4.12298,1.75319 -10.64266,10.0944 -10.64266,10.0944"
       style="fill:none;stroke:#cccccc;stroke-width:1px;stroke-linecap:butt;stroke-linejoin:miter;stroke-opacity:1;marker-end:url(#Arrow1MendE)"
       sodipodi:nodetypes="cssc" />
    <g
       transform="matrix(-1,0,0,-1,837.12336,606.9193)"
       id="g3443">
      <path
         style="fill:none;stroke:#000000;stroke-width:1.93471825px;stroke-linecap:butt;stroke-linejoin:miter;stroke-opacity:1;marker-end:url(#Arrow2Mend-2)"
         d="m 474.78479,225.97891 -14.79572,14.79572 0,17.74"
         id="path3445"
         inkscape:connector-curvature="0"
         sodipodi:nodetypes="ccc" />
      <path
         sodipodi:nodetypes="ccc"
         inkscape:connector-curvature="0"
         id="path3447"
         d="m 463.09982,242.24122 -5.25507,0.72813 0.72813,-5.25507"
         style="fill:#b3b3b3;stroke:#b3b3b3;stroke-width:1.69005501px;stroke-linecap:butt;stroke-linejoin:miter;stroke-opacity:1" />
    </g>
  </g>
</svg>
